{
  "name": "+1 Shield Special Abilities",
  "flags": {},
  "description": "",
  "results": [
    {
      "_id": "6QdtUKld1wVcTBL5",
      "flags": {},
      "type": 0,
      "text": "Poison-resistant",
      "weight": 10,
      "range": [1, 10],
      "drawn": false
    },
    {
      "_id": "85vYIYg6Fn7k2cBP",
      "flags": {},
      "type": 0,
      "text": "Arrow Catching",
      "weight": 9,
      "range": [11, 19],
      "drawn": false
    },
    {
      "_id": "AilDRUhdSoDpnPwN",
      "flags": {},
      "type": 0,
      "text": "Bashing",
      "weight": 9,
      "range": [20, 28],
      "drawn": false
    },
    {
      "_id": "0kw64gk9eKbMOOSZ",
      "flags": {},
      "type": 0,
      "text": "Blinding",
      "weight": 9,
      "range": [29, 37],
      "drawn": false
    },
    {
      "_id": "OztKY6nRyPXbMOrL",
      "flags": {},
      "type": 0,
      "text": "Clangorous",
      "weight": 9,
      "range": [38, 46],
      "drawn": false
    },
    {
      "_id": "7rIWEXV4C3dprMPK",
      "flags": {},
      "type": 0,
      "text": "Defiant",
      "weight": 9,
      "range": [47, 55],
      "drawn": false
    },
    {
      "_id": "8oC4L9boRUUvkbdE",
      "flags": {},
      "type": 0,
      "text": "Light Fortification",
      "weight": 9,
      "range": [56, 64],
      "drawn": false
    },
    {
      "_id": "sHMCuRbKuX0i9TLR",
      "flags": {},
      "type": 0,
      "text": "Grinding",
      "weight": 9,
      "range": [65, 73],
      "drawn": false
    },
    {
      "_id": "MnXVmbvh4t6xWMJJ",
      "flags": {},
      "type": 0,
      "text": "Impervious",
      "weight": 9,
      "range": [74, 82],
      "drawn": false
    },
    {
      "_id": "ygG1bA4uyWraehel",
      "flags": {},
      "type": 0,
      "text": "Mirrored",
      "weight": 9,
      "range": [83, 91],
      "drawn": false
    },
    {
      "_id": "nbB44bXvUctiEn7p",
      "flags": {},
      "type": 0,
      "text": "Ramming",
      "weight": 9,
      "range": [92, 100],
      "drawn": false
    }
  ],
  "formula": "1d100",
  "replacement": true,
  "displayRoll": true,
  "_id": "E4bXrk4chpUqf7Xe"
}
