{
  "name": "Greater Medium Feet",
  "flags": {},
  "description": "",
  "results": [
    {
      "_id": "0YTKDoExCTF7TuQO",
      "flags": {},
      "type": 0,
      "text": "\tShoes of the Firewalker",
      "weight": 38,
      "range": [1, 38],
      "drawn": false
    },
    {
      "_id": "kV9u9Zf6SEUq3AUN",
      "flags": {},
      "type": 0,
      "text": "\tDryad Sandals",
      "weight": 34,
      "range": [39, 72],
      "drawn": false
    },
    {
      "_id": "iMaljBZPEfotraRV",
      "flags": {},
      "type": 0,
      "text": "\tHorseshoes of the Mist",
      "weight": 28,
      "range": [73, 100],
      "drawn": false
    }
  ],
  "formula": "1d100",
  "replacement": true,
  "displayRoll": true,
  "_id": "ugUepReDkcqrlpI8"
}
