{
  "name": "Greater Minor Slotless",
  "flags": {},
  "description": "",
  "results": [
    {
      "_id": "A0EolCr23lB2TLTm",
      "flags": {},
      "type": 0,
      "text": "Boro Bead (2nd)",
      "weight": 1,
      "range": [1, 1],
      "drawn": false
    },
    {
      "_id": "6Rqs0uNgFOFzR71W",
      "flags": {},
      "type": 0,
      "text": "Cautionary Creance",
      "weight": 1,
      "range": [2, 2],
      "drawn": false
    },
    {
      "_id": "2O2oc2BcWbVtGtMn",
      "flags": {},
      "type": 0,
      "text": "Escape Ladder",
      "weight": 1,
      "range": [3, 3],
      "drawn": false
    },
    {
      "_id": "IT8IVdeNU6fUHef3",
      "flags": {},
      "type": 0,
      "text": "Far-Reaching Sight",
      "weight": 1,
      "range": [4, 4],
      "drawn": false
    },
    {
      "_id": "YoVgaRXq9SRaJUpa",
      "flags": {},
      "type": 0,
      "text": "\tIoun Stone (Clear Spindle)",
      "weight": 2,
      "range": [5, 6],
      "drawn": false
    },
    {
      "_id": "0YZCQN0Ozy9J77Pm",
      "flags": {},
      "type": 0,
      "text": "Marvelous Pigments",
      "weight": 1,
      "range": [7, 7],
      "drawn": false
    },
    {
      "_id": "ZJjZozM6KYzLJYAQ",
      "flags": {},
      "type": 0,
      "text": "\tPage of Spell Knowledge (2nd)",
      "weight": 8,
      "range": [8, 15],
      "drawn": false
    },
    {
      "_id": "Ms2dUiAYJReo37EU",
      "flags": {},
      "type": 0,
      "text": "\tPearl of Power (2nd)",
      "weight": 10,
      "range": [16, 25],
      "drawn": false
    },
    {
      "_id": "jHMKsiYKeVTvb3zJ",
      "flags": {},
      "type": 0,
      "text": "Preserving Flask (2nd)",
      "weight": 1,
      "range": [26, 26],
      "drawn": false
    },
    {
      "_id": "fqK7MXuPWDEQN3AX",
      "flags": {},
      "type": 0,
      "text": "Restorative Ointment",
      "weight": 1,
      "range": [27, 27],
      "drawn": false
    },
    {
      "_id": "szrPbfePjwYgdfVG",
      "flags": {},
      "type": 0,
      "text": "\tStone Salve",
      "weight": 3,
      "range": [28, 30],
      "drawn": false
    },
    {
      "_id": "WJzs860y9xANm0sW",
      "flags": {},
      "type": 0,
      "text": "Wind-Caller Compass",
      "weight": 1,
      "range": [31, 31],
      "drawn": false
    },
    {
      "_id": "B5q6dqgohpqAMWgZ",
      "flags": {},
      "type": 0,
      "text": "Goblin Fire Drum (Greater)",
      "weight": 1,
      "range": [32, 32],
      "drawn": false
    },
    {
      "_id": "0cHIkEBL6WmmHjer",
      "flags": {},
      "type": 0,
      "text": "Knight's Pennon (Battle)",
      "weight": 1,
      "range": [33, 33],
      "drawn": false
    },
    {
      "_id": "x12dKgx9vjmauP90",
      "flags": {},
      "type": 0,
      "text": "Knight's Pennon (Parley)",
      "weight": 1,
      "range": [34, 34],
      "drawn": false
    },
    {
      "_id": "nDQbPZ9pCRzoPfb8",
      "flags": {},
      "type": 0,
      "text": "Void Dust",
      "weight": 1,
      "range": [35, 35],
      "drawn": false
    },
    {
      "_id": "RuLmXIkRImQqVisF",
      "flags": {},
      "type": 0,
      "text": "Incense of Meditation",
      "weight": 1,
      "range": [36, 36],
      "drawn": false
    },
    {
      "_id": "mKvrSjgVanPHRSrT",
      "flags": {},
      "type": 0,
      "text": "Admixture Vial",
      "weight": 1,
      "range": [37, 37],
      "drawn": false
    },
    {
      "_id": "yzxmzKU7LmsmdCvZ",
      "flags": {},
      "type": 0,
      "text": "\tBag of Holding (Type II)",
      "weight": 14,
      "range": [38, 51],
      "drawn": false
    },
    {
      "_id": "tekjOHH7YxkDSR0H",
      "flags": {},
      "type": 0,
      "text": "Bone Razor",
      "weight": 1,
      "range": [52, 52],
      "drawn": false
    },
    {
      "_id": "TjyczBWkknpLbRvs",
      "flags": {},
      "type": 0,
      "text": "Horn of the Huntmaster",
      "weight": 1,
      "range": [53, 53],
      "drawn": false
    },
    {
      "_id": "5OJgusc9dGEx68KZ",
      "flags": {},
      "type": 0,
      "text": "Insistent Doorknocker",
      "weight": 1,
      "range": [54, 54],
      "drawn": false
    },
    {
      "_id": "zNcp7F2B69mckzZF",
      "flags": {},
      "type": 0,
      "text": "\tIoun Stone (Dusty Rose Prism)",
      "weight": 2,
      "range": [55, 56],
      "drawn": false
    },
    {
      "_id": "OGofihgMdXOpDd6H",
      "flags": {},
      "type": 0,
      "text": "Mallet of Building",
      "weight": 1,
      "range": [57, 57],
      "drawn": false
    },
    {
      "_id": "IDWZUqjVR4dK92X9",
      "flags": {},
      "type": 0,
      "text": "Polymorphic Pouch",
      "weight": 1,
      "range": [58, 58],
      "drawn": false
    },
    {
      "_id": "2jEIhQ1rWF2n9JLA",
      "flags": {},
      "type": 0,
      "text": "Scabbard of Stanching",
      "weight": 1,
      "range": [59, 59],
      "drawn": false
    },
    {
      "_id": "kUbkzIIuTQgKdXXV",
      "flags": {},
      "type": 0,
      "text": "School of Eyes",
      "weight": 1,
      "range": [60, 60],
      "drawn": false
    },
    {
      "_id": "BZoVC89eDmRg14fF",
      "flags": {},
      "type": 0,
      "text": "Sheath of Bladestealth",
      "weight": 1,
      "range": [61, 61],
      "drawn": false
    },
    {
      "_id": "gsS7C6TjX9TFwyMH",
      "flags": {},
      "type": 0,
      "text": "Stone of Alliance",
      "weight": 1,
      "range": [62, 62],
      "drawn": false
    },
    {
      "_id": "v1RnsGjHjwgNGKUW",
      "flags": {},
      "type": 0,
      "text": "Summoning Shackle",
      "weight": 1,
      "range": [63, 63],
      "drawn": false
    },
    {
      "_id": "K4MZaIh8TwF3S1hQ",
      "flags": {},
      "type": 0,
      "text": "Eversmoking Bottle",
      "weight": 1,
      "range": [64, 64],
      "drawn": false
    },
    {
      "_id": "NNdqcPqYDF6682x1",
      "flags": {},
      "type": 0,
      "text": "Sustaining Spoon",
      "weight": 1,
      "range": [65, 65],
      "drawn": false
    },
    {
      "_id": "PHjwaiorYDuNIZl7",
      "flags": {},
      "type": 0,
      "text": "Wind Fan",
      "weight": 1,
      "range": [66, 66],
      "drawn": false
    },
    {
      "_id": "f8PL5zFwuxFGX0pT",
      "flags": {},
      "type": 0,
      "text": "Grim Lantern",
      "weight": 1,
      "range": [67, 67],
      "drawn": false
    },
    {
      "_id": "DVcW4N8Ar964xQfy",
      "flags": {},
      "type": 0,
      "text": "Coin of the Untrodden Road",
      "weight": 1,
      "range": [68, 68],
      "drawn": false
    },
    {
      "_id": "DvOuBgtqDhQqaPiB",
      "flags": {},
      "type": 0,
      "text": "Horn of Battle Clarity",
      "weight": 1,
      "range": [69, 69],
      "drawn": false
    },
    {
      "_id": "VHMNF6iqjT2dEBSl",
      "flags": {},
      "type": 0,
      "text": "Life Link Badge",
      "weight": 1,
      "range": [70, 70],
      "drawn": false
    },
    {
      "_id": "yor8sk5aJT4YJB51",
      "flags": {},
      "type": 0,
      "text": "Martyr's Tear",
      "weight": 1,
      "range": [71, 71],
      "drawn": false
    },
    {
      "_id": "jnVpTcJmRdJoIiOR",
      "flags": {},
      "type": 0,
      "text": "Pipes of Haunting",
      "weight": 1,
      "range": [72, 72],
      "drawn": false
    },
    {
      "_id": "orFGlAylcoR3YaPu",
      "flags": {},
      "type": 0,
      "text": "Rope of Knots",
      "weight": 1,
      "range": [73, 73],
      "drawn": false
    },
    {
      "_id": "xH55RmBChAne60d1",
      "flags": {},
      "type": 0,
      "text": "Singing Bell of Striking",
      "weight": 1,
      "range": [74, 74],
      "drawn": false
    },
    {
      "_id": "B4iaBvFHomKgC5D5",
      "flags": {},
      "type": 0,
      "text": "Stone Familiar",
      "weight": 1,
      "range": [75, 75],
      "drawn": false
    },
    {
      "_id": "PIgebLAzcLka6ru5",
      "flags": {},
      "type": 0,
      "text": "Book of Extended Summoning (Greater)",
      "weight": 1,
      "range": [76, 76],
      "drawn": false
    },
    {
      "_id": "wEP7ZiplHbIMfnd1",
      "flags": {},
      "type": 0,
      "text": "Dragonbone Divination Sticks",
      "weight": 1,
      "range": [77, 77],
      "drawn": false
    },
    {
      "_id": "8hTP16P4Wt8ENvOY",
      "flags": {},
      "type": 0,
      "text": "\tHorn of Goodness/Evil",
      "weight": 2,
      "range": [78, 79],
      "drawn": false
    },
    {
      "_id": "cdJDILtmCWAbjzeM",
      "flags": {},
      "type": 0,
      "text": "Naga-Scale Bindi",
      "weight": 1,
      "range": [80, 80],
      "drawn": false
    },
    {
      "_id": "HBqAHjqxKrrjKzLr",
      "flags": {},
      "type": 0,
      "text": "Bottle of Shadows",
      "weight": 1,
      "range": [81, 81],
      "drawn": false
    },
    {
      "_id": "PULU3cW9baNODFeh",
      "flags": {},
      "type": 0,
      "text": "Cape of Bravado",
      "weight": 1,
      "range": [82, 82],
      "drawn": false
    },
    {
      "_id": "mzvBnrjSzBFKRdoR",
      "flags": {},
      "type": 0,
      "text": "\tInstant Bridge",
      "weight": 2,
      "range": [83, 84],
      "drawn": false
    },
    {
      "_id": "buSEzADC76xLE784",
      "flags": {},
      "type": 0,
      "text": "Mirror of Guarding Reflections",
      "weight": 1,
      "range": [85, 85],
      "drawn": false
    },
    {
      "_id": "RdeUA64ftyY6QboC",
      "flags": {},
      "type": 0,
      "text": "Folding Boat",
      "weight": 1,
      "range": [86, 86],
      "drawn": false
    },
    {
      "_id": "u1ZqMH2wCNIQa8OM",
      "flags": {},
      "type": 0,
      "text": "\tBottle of Air",
      "weight": 2,
      "range": [87, 88],
      "drawn": false
    },
    {
      "_id": "fQbYktVamFrLTMNC",
      "flags": {},
      "type": 0,
      "text": "\tBag of Holding (Type III)",
      "weight": 7,
      "range": [89, 95],
      "drawn": false
    },
    {
      "_id": "EFMN4MJmuh3u7P0S",
      "flags": {},
      "type": 0,
      "text": "Balm of Impish Grace",
      "weight": 1,
      "range": [96, 96],
      "drawn": false
    },
    {
      "_id": "38e4NIhI25mIJpHd",
      "flags": {},
      "type": 0,
      "text": "Candle of Clean Air",
      "weight": 1,
      "range": [97, 97],
      "drawn": false
    },
    {
      "_id": "DdTpMzGZOvIyDvvU",
      "flags": {},
      "type": 0,
      "text": "Harp of Charming",
      "weight": 1,
      "range": [98, 98],
      "drawn": false
    },
    {
      "_id": "iMlh3KFIXBbRgN0Z",
      "flags": {},
      "type": 0,
      "text": "\tManual of War",
      "weight": 3,
      "range": [99, 101],
      "drawn": false
    }
  ],
  "formula": "1d101",
  "replacement": true,
  "displayRoll": true,
  "_id": "SJzf716hfqEKmFgF"
}
