{
  "_id": "iOt6ezDGtVM8JaeP",
  "name": "Lesser Medium Arcane Scrolls",
  "flags": {},
  "description": "",
  "results": [
    {
      "_id": "xPIzM3z0W4PnmeoU",
      "flags": {},
      "type": 2,
      "text": "Common Level 2 Arcane Scrolls",
      "img": "icons/svg/d20-black.svg",
      "collection": "pf1.ultimate-equipment",
      "resultId": "KQia4DeVhI6cRVx6",
      "weight": 10,
      "range": [1, 10],
      "drawn": false
    },
    {
      "_id": "ZzGYaMoRfvfY8rwp",
      "flags": {},
      "type": 2,
      "text": "Common Level 3 Arcane Scrolls",
      "img": "icons/svg/d20-black.svg",
      "collection": "pf1.ultimate-equipment",
      "resultId": "Fz77klJJdyTBTXbB",
      "weight": 45,
      "range": [11, 55],
      "drawn": false
    },
    {
      "_id": "lDq9kjRk8AIm6ZHr",
      "flags": {},
      "type": 2,
      "text": "Common Level 4 Arcane Scrolls",
      "collection": "pf1.ultimate-equipment",
      "resultId": "Y7s37fkkSu5iUBcw",
      "weight": 45,
      "range": [56, 100],
      "drawn": false
    }
  ],
  "formula": "1d100",
  "replacement": true,
  "displayRoll": true
}
