{
  "name": "Lesser Medium Chest",
  "flags": {},
  "description": "",
  "results": [
    {
      "_id": "vH1oE6vYMsoSK9Tb",
      "flags": {},
      "type": 0,
      "text": "Shirt of Immolation",
      "weight": 13,
      "range": [1, 13],
      "drawn": false
    },
    {
      "_id": "UU1jgFgZyrGB0PQ8",
      "flags": {},
      "type": 0,
      "text": "Snakeskin Tunic",
      "weight": 15,
      "range": [14, 28],
      "drawn": false
    },
    {
      "_id": "F7VVDY3Gh0vd3VuI",
      "flags": {},
      "type": 0,
      "text": "Bane Baldric",
      "weight": 12,
      "range": [29, 40],
      "drawn": false
    },
    {
      "_id": "4KXlaj0GBgCIYvcd",
      "flags": {},
      "type": 0,
      "text": "Unfettered Shirt",
      "weight": 20,
      "range": [41, 60],
      "drawn": false
    },
    {
      "_id": "UKyzdHRDODiojxoU",
      "flags": {},
      "type": 0,
      "text": "Poisoner's Jacket, Lesser",
      "weight": 20,
      "range": [61, 80],
      "drawn": false
    },
    {
      "_id": "xEWqJKbaMC8LHiCA",
      "flags": {},
      "type": 0,
      "text": "Vest of the Cockroach",
      "weight": 20,
      "range": [81, 100],
      "drawn": false
    }
  ],
  "formula": "1d100",
  "replacement": true,
  "displayRoll": true,
  "_id": "kLZhycx2j6ObUuYG"
}
