{
  "name": "Lesser Minor Body",
  "flags": {},
  "description": "",
  "results": [
    {
      "_id": "E0b9piOrJxYD1jtD",
      "flags": {},
      "type": 0,
      "text": "Robe of Infinite Twine",
      "weight": 20,
      "range": [1, 20],
      "drawn": false
    },
    {
      "_id": "IDJEIU7impMzofPC",
      "flags": {},
      "type": 0,
      "text": "Robe of Needles",
      "weight": 5,
      "range": [21, 25],
      "drawn": false
    },
    {
      "_id": "Wq9NC7S0KJZLavD6",
      "flags": {},
      "type": 0,
      "text": "Robe of Bones",
      "weight": 25,
      "range": [26, 50],
      "drawn": false
    },
    {
      "_id": "nH7Wt2SORepuyqcd",
      "flags": {},
      "type": 0,
      "text": "Bodywrap of Mighty Strikes +1",
      "weight": 10,
      "range": [51, 60],
      "drawn": false
    },
    {
      "_id": "usdMXbeCF6y7QeRc",
      "flags": {},
      "type": 0,
      "text": "Corset of the Vishkanya",
      "weight": 10,
      "range": [61, 70],
      "drawn": false
    },
    {
      "_id": "m9ZB1OdRCDiviInU",
      "flags": {},
      "type": 0,
      "text": "Druid's Vestment",
      "weight": 20,
      "range": [71, 90],
      "drawn": false
    }
  ],
  "formula": "1d90",
  "replacement": true,
  "displayRoll": true,
  "_id": "PMtNVoVaICF8hgaf"
}
