{
  "name": "Lesser Minor Belt",
  "flags": {},
  "description": "",
  "results": [
    {
      "_id": "xvIlJRUtOq07yXbE",
      "flags": {},
      "type": 0,
      "text": "Belt of Tumbling",
      "weight": 16,
      "range": [1, 16],
      "drawn": false
    },
    {
      "_id": "EVwhww0nesMA1U42",
      "flags": {},
      "type": 0,
      "text": "Beneficial Bandolier",
      "weight": 12,
      "range": [17, 28],
      "drawn": false
    },
    {
      "_id": "O8BQwTpKkDfVVFqY",
      "flags": {},
      "type": 0,
      "text": "Meridian Belt",
      "weight": 12,
      "range": [29, 40],
      "drawn": false
    },
    {
      "_id": "vJQi3wZqk0zLtzct",
      "flags": {},
      "type": 0,
      "text": "Bladed Belt",
      "weight": 14,
      "range": [41, 54],
      "drawn": false
    },
    {
      "_id": "QZDSo2U2moLwz59Z",
      "flags": {},
      "type": 0,
      "text": "Heavyload Belt",
      "weight": 16,
      "range": [55, 70],
      "drawn": false
    },
    {
      "_id": "3ARKXHHORKzt8CXL",
      "flags": {},
      "type": 0,
      "text": "Aquatic Cummerbund",
      "weight": 14,
      "range": [71, 84],
      "drawn": false
    },
    {
      "_id": "c3aTeXih1Zpl9SzV",
      "flags": {},
      "type": 0,
      "text": "Equestrian Belt",
      "weight": 16,
      "range": [85, 100],
      "drawn": false
    }
  ],
  "formula": "1d100",
  "replacement": true,
  "displayRoll": true,
  "_id": "OykbRGmw7MFG7rz5"
}
