{
  "name": "Shields",
  "flags": {},
  "description": "",
  "results": [
    {
      "_id": "GnC00PxSdOPULWgs",
      "flags": {},
      "type": 0,
      "text": "Buckler",
      "weight": 1,
      "range": [1, 1],
      "drawn": false
    },
    {
      "_id": "iotbrA5TbnYEG3qa",
      "flags": {},
      "type": 0,
      "text": "Klar",
      "weight": 1,
      "range": [2, 2],
      "drawn": false
    },
    {
      "_id": "wOvCV6irRTWJ2Ksu",
      "flags": {},
      "type": 0,
      "text": "Light Steel Quickdraw Shield",
      "weight": 1,
      "range": [3, 3],
      "drawn": false
    },
    {
      "_id": "aMiXxOY8R2tzu86o",
      "flags": {},
      "type": 0,
      "text": "Light Steel Shield",
      "weight": 1,
      "range": [4, 4],
      "drawn": false
    },
    {
      "_id": "s5NcrsF80ijB0zxz",
      "flags": {},
      "type": 0,
      "text": "Light Wooden Quickdraw Shield",
      "weight": 1,
      "range": [5, 5],
      "drawn": false
    },
    {
      "_id": "2SbaQYGeVzi0lSEQ",
      "flags": {},
      "type": 0,
      "text": "Light Wooden Shield",
      "weight": 1,
      "range": [6, 6],
      "drawn": false
    },
    {
      "_id": "ksL205MjTLUiwl6G",
      "flags": {},
      "type": 0,
      "text": "Madu (Leather)",
      "weight": 1,
      "range": [7, 7],
      "drawn": false
    },
    {
      "_id": "G9HTg0xgiZJ9N3Ju",
      "flags": {},
      "type": 0,
      "text": "Madu (Steel)",
      "weight": 1,
      "range": [8, 8],
      "drawn": false
    },
    {
      "_id": "9IAXom6R9936kAcc",
      "flags": {},
      "type": 0,
      "text": "Heavy Steel Shield",
      "weight": 1,
      "range": [9, 9],
      "drawn": false
    },
    {
      "_id": "ZSRAVv00Nph2mpz0",
      "flags": {},
      "type": 0,
      "text": "Heavy Wooden Shield",
      "weight": 1,
      "range": [10, 10],
      "drawn": false
    },
    {
      "_id": "Dn6cvIqFt2XXeRRu",
      "flags": {},
      "type": 0,
      "text": "Tower Shield",
      "weight": 1,
      "range": [11, 11],
      "drawn": false
    }
  ],
  "formula": "1d11",
  "replacement": true,
  "displayRoll": true,
  "_id": "ssyKTRimRMVHtM0H"
}
