{
  "_id": "B8H87SCG0E8n0iqw",
  "name": "Do-Maru",
  "type": "equipment",
  "img": "systems/pf1/icons/items/armor/do-maru.PNG",
  "sort": 0,
  "flags": {},
  "system": {
    "description": {
      "value": "<p>The lightest of armors typically favored by samurai, do-maru wraps around the wearer’s body like a short armored coat. It consists primarily of lamellar and lacks a solid breastplate or sleeves, leaving the shoulders and upper body somewhat exposed, but permitting the wearer greater flexibility than do the majority of heavier armors.</p>"
    },
    "tags": [["Do-Maru"]],
    "weight": {
      "value": 30
    },
    "price": 200,
    "hp": {
      "max": 25,
      "value": 25
    },
    "hardness": 2,
    "changes": [],
    "contextNotes": [],
    "actions": [],
    "attackNotes": [],
    "effectNotes": [],
    "links": {
      "children": [],
      "charges": []
    },
    "scriptCalls": [],
    "equipmentSubtype": "mediumArmor",
    "armor": {
      "value": 5,
      "dex": 4,
      "acp": 4
    },
    "spellFailure": 25,
    "slot": "armor"
  }
}
