{
  "_id": "0cIAkfoDAK5Pq2XU",
  "name": "Hellknight Half-Plate",
  "type": "equipment",
  "img": "systems/pf1/icons/items/armor/hellknight-half-plate.png",
  "sort": 0,
  "flags": {},
  "system": {
    "description": {
      "value": "<p>The armor worn by a Hellknight signifer is a vestment of armored plates, chain, and dark fabric. It functions as half-plate, but it can be donned and removed as though it were medium armor. Any spellcaster who wears this armor is treated as if he were wearing Hellknight plate for the purposes of any feats and effects that require one to be wearing Hellknight plate. This armor includes a signifer mask, though signifer masks can be purchased separately.</p>"
    },
    "tags": [["Hellknight Half-Plate"], ["Hellknight Plate"], ["Hellknight"], ["Half-Plate"]],
    "weight": {
      "value": 50
    },
    "price": 850,
    "hp": {
      "max": 40,
      "value": 40
    },
    "hardness": 10,
    "changes": [],
    "contextNotes": [],
    "actions": [],
    "attackNotes": [],
    "effectNotes": [],
    "links": {
      "children": [],
      "charges": []
    },
    "scriptCalls": [],
    "equipmentSubtype": "heavyArmor",
    "armor": {
      "value": 8,
      "dex": 0,
      "acp": 7
    },
    "spellFailure": 40,
    "slot": "armor"
  }
}
