{
  "_id": "nnDSj5NxUb9Q8z8S",
  "name": "Scale Mail",
  "type": "equipment",
  "img": "systems/pf1/icons/items/armor/scale-mail.png",
  "sort": 0,
  "flags": {},
  "system": {
    "description": {
      "value": "<p>Scale mail is made up of dozens of small, overlapping metal plates. Similar to both splint mail and banded mail, scalemail has a flexible arrangement of scales in an attempt to avoid hindering the wearer’s mobility, but at the expense of omitting additional protective layers of armor. A suit of scale mail includes gauntlets.</p>"
    },
    "tags": [["Scale Mail"]],
    "weight": {
      "value": 30
    },
    "price": 50,
    "hp": {
      "max": 25,
      "value": 25
    },
    "hardness": 10,
    "changes": [],
    "contextNotes": [],
    "actions": [],
    "attackNotes": [],
    "effectNotes": [],
    "links": {
      "children": [],
      "charges": []
    },
    "scriptCalls": [],
    "equipmentSubtype": "mediumArmor",
    "armor": {
      "value": 5,
      "dex": 3,
      "acp": 4
    },
    "spellFailure": 25,
    "slot": "armor"
  }
}
