{
  "_id": "Y9xguBsk7keAdj7T",
  "name": "Mummified Animal",
  "type": "feat",
  "img": "systems/pf1/icons/skills/violet_07.jpg",
  "sort": 0,
  "flags": {},
  "system": {
    "description": {
      "value": "<p><strong>Acquired/Inherited Template</strong>&nbsp;Acquired<br><strong>Simple Template</strong>&nbsp;No<br><strong>Usable with Summons&nbsp;</strong>No<br><br>When explorers find tombs housing the mummified remains of important and powerful beings, they often find those mummies accompanied by animals—ones that the interred found significant or that represented their ideals in life. Some of these mummified animals were created and placed in the tombs as guardians. Below are common examples of mummified animals, as well as the mummified animal template.<br><br>“Mummified animal” is an acquired template that can be added to a creature of the animal type. A mummified animal uses all the base creature’s statistics and special abilities except as noted here.<br><br><strong>Challenge Rating:</strong> HD 4 or fewer, as base creature; HD 5 to 10, as base creature +1; HD 11 or more, as base creature +2.</p>\n<p><strong>Alignment: </strong>Neutral evil.</p>\n<p><strong>Type: </strong>The creature’s type changes to undead. Do not recalculate BAB, saves, or skills.</p>\n<p><strong>Senses: </strong>A mummified animal gains darkvision 60 ft.</p>\n<p><strong>Defensive Abilities: </strong>A mummified animal gains damage reduction based on its Hit Dice: one with 5 or fewer Hit Dice gains DR 2/—, one with 6–10 Hit Dice gains DR 5/—, and one with 11–20 Hit Dice gains DR 10/—.</p>\n<p><strong>Speed: </strong>Winged mummified animals can still fly, but their maneuverability drops to clumsy. Retain all other movement types.</p>\n<p><strong>Special Attacks: </strong>A mummified animal retains all special attacks except those dependent on a living body to function, such as a snake’s poison or a skunk’s revolting musk. A mummified animal also gains the following special attack.</p>\n<p><em>Servant’s Curse (Su): </em>Once per day, a mummified animal can touch a creature or hit a creature with one of its natural attacks to deliver a curse. Any living creature struck by this attack must succeed at a Will save or take 1d3 points of Dex and Wis damage. The save DC is equal to 10 + 1/2 the mummified animal’s Hit Dice + the mummified animal’s Charisma modifier.</p>\n<p><strong>Abilities: </strong>A mummified animal loses its Constitution score, and its Charisma score becomes 14.</p>"
    },
    "tags": [],
    "actions": [],
    "attackNotes": [],
    "effectNotes": [],
    "changes": [],
    "contextNotes": [],
    "links": {
      "children": [],
      "charges": []
    },
    "armorProf": {
      "value": []
    },
    "weaponProf": {
      "value": []
    },
    "languages": {
      "value": []
    },
    "scriptCalls": [],
    "subType": "template",
    "associations": {
      "classes": []
    },
    "crOffset": "1"
  }
}
