{
  "_id": "K4FEFu94JKOP2l51",
  "name": "Deadly Aim",
  "type": "feat",
  "img": "systems/pf1/icons/feats/deadly-aim.jpg",
  "sort": 0,
  "flags": {},
  "system": {
    "description": {
      "value": "<p><em>You can make exceptionally deadly ranged attacks by pinpointing a foe's weak spot, at the expense of making the attack less likely to succeed.</em><br /><br /><strong>Prerequisites</strong><br />Dex 13, base attack bonus +1.<br /><br /><strong>Benefits</strong><br />You can choose to take a -1 penalty on all ranged attack rolls to gain a +2 bonus on all ranged damage rolls. When your base attack bonus reaches +4, and every +4 thereafter, the penalty increases by -1 and the bonus to damage increases by +2. You must choose to use this feat before making an attack roll and its effects last until your next turn. The bonus damage does not apply to touch attacks or effects that do not deal hit point damage.<br /><br /><strong>Combat Trick</strong><br />When using this feat, you can spend 4 stamina points to reduce the penalty to attack rolls imposed by the feat by 1 until the beginning of your next turn. You can't reduce the penalty below 0.</p>\n<p>&nbsp;</p>\n<p><strong>Usage</strong>: select Conditional Modifier when performing a ranged attack.</p>"
    },
    "tags": [["PFS"], ["Combat"]],
    "actions": [],
    "attackNotes": [],
    "effectNotes": [],
    "changes": [],
    "contextNotes": [],
    "links": {
      "children": [],
      "charges": []
    },
    "tag": "feat_deadlyAim",
    "useCustomTag": true,
    "armorProf": {
      "value": []
    },
    "weaponProf": {
      "value": []
    },
    "languages": {
      "value": []
    },
    "scriptCalls": [],
    "associations": {
      "classes": []
    }
  }
}
