{
  "_id": "pgRX4VpFemwv9R0E",
  "name": "Extra Channel",
  "type": "feat",
  "img": "systems/pf1/icons/feats/extra-channel.jpg",
  "sort": 0,
  "flags": {},
  "system": {
    "description": {
      "value": "<p><em>You can channel divine energy more often.</em><br /><br /><strong>Prerequisites</strong><br />Channel energy class feature.<br /><br /><strong>Benefits</strong><br />You can channel energy two additional times per day.<br /><br /><strong>Special</strong><br />If a paladin with the ability to channel positive energy takes this feat, she can use lay on hands four additional times per day, but only to channel positive energy. If a warpriest with the ability to channel energy takes this feat, he gains four additional uses of fervor per day, but can use them only to channel energy.</p>\n<p>&nbsp;</p>\n<p><strong>Usage</strong>: add additional charges to respective feature Maximum Usage Formula manually.</p>"
    },
    "tags": [["PFS"], ["Channeling"]],
    "actions": [],
    "attackNotes": [],
    "effectNotes": [],
    "changes": [],
    "contextNotes": [],
    "links": {
      "children": [],
      "charges": []
    },
    "tag": "feat_extraChannel",
    "useCustomTag": true,
    "armorProf": {
      "value": []
    },
    "weaponProf": {
      "value": []
    },
    "languages": {
      "value": []
    },
    "scriptCalls": [],
    "associations": {
      "classes": []
    }
  }
}
