{
  "_id": "zlWiqUqxCajrZRe3",
  "name": "Aphorite",
  "type": "race",
  "img": "systems/pf1/icons/races/aphorite.png",
  "sort": 0,
  "flags": {},
  "system": {
    "description": {
      "value": "<h2>Standard Racial Traits</h2><ul><li><strong>Ability Score Modifiers</strong>: Aphorites are strong and intelligent, but move and react somewhat stiffly. They gain +2 <em>Strength</em> and <em>Intelligence</em> but suffer –2 <em>Dexterity</em></li><li><strong>Size:</strong> Aphorites are Medium creatures and have no bonuses of penalties due to their size.</li><li><strong>Speed:</strong> Aphorites have a base speed of 30 feet.</li><li><strong>Senses:</strong> Aphorites have <em>darkvision</em> 60 feet.</li><li><strong>Languages:</strong> Aphorites speak Common and either <em>Celestial</em> or <em>Infernal</em>. An aphorite with a high <em>Intelligence</em> score can choose from the following as bonus languages: Abyssal, Aquan, Auran, Celestial, Ignan, Infernal, or Terran.</li><li><strong>Skilled:</strong> Aphorites gain a +2 <em>racial bonus</em> on checks with a single @Compendium[pf1.skills.L6LEhHRrn53cMuhE]{Craft} skill of their choice.</li><li><strong>Spell-Like Abilities</strong>: Aphorites can use @Compendium[pf1.spells.md6ltvqh9paadsm4]{Protection From Chaos} once per day as a <em>spell-like ability</em> (<em>caster level</em> equal to the aphorite's class level).</li><li><strong>Aphorite Resistances</strong>: Aphorites have <em>electricity resistance</em> 5 and a +2 bonus on saves versus <em>poison</em> and <em>mind-affecting</em> effects.</li><li><strong>Crystalline Dust (Su)</strong>: An aphorite can manifest a haze of crystalline dust that forms into indistinct runes and glyphs surrounding its body. This effect grants the aphorite a 20% miss chance against melee and ranged attacks. Activating this dust is a <em>move action</em>, but it can be maintained each round as a <em>free action</em>. The effect cannot be disrupted, but it ends immediately if the aphorite is killed, @Compendium[pf1.conditions.8zG4yDD2zGVSAJFH]{paralyzed}, @Compendium[pf1.conditions.assqfdN6G1URo9MZ]{stunned}, knocked @Compendium[pf1.conditions.bj36eCfZGJG5AGTQ]{unconscious}, or otherwise prevented from taking a <em>free action</em> to maintain it each round. An aphorite can use this ability a number of rounds per day equal to its <em>Hit Dice</em>, but the rounds do not need to be consecutive.</li></ul>"
    },
    "tags": [],
    "changes": [
      {
        "_id": "wukla7bt",
        "formula": "2",
        "operator": "add",
        "subTarget": "str",
        "modifier": "racial",
        "priority": 0,
        "value": 0,
        "target": "ability"
      },
      {
        "_id": "lslo5vb9",
        "formula": "2",
        "operator": "add",
        "subTarget": "int",
        "modifier": "racial",
        "priority": 0,
        "value": 0,
        "target": "ability"
      },
      {
        "_id": "4h10gpqi",
        "formula": "-2",
        "operator": "add",
        "subTarget": "dex",
        "modifier": "racial",
        "priority": 0,
        "value": 0,
        "target": "ability"
      }
    ],
    "contextNotes": [
      {
        "formula": "",
        "operator": "add",
        "target": "savingThrows",
        "subTarget": "allSavingThrows",
        "modifier": "",
        "priority": 0,
        "value": 0,
        "text": "+[[2]] vs Poison and Mind-affecting effects"
      }
    ],
    "links": {
      "children": []
    },
    "armorProf": {
      "value": []
    },
    "weaponProf": {
      "value": []
    },
    "languages": {
      "value": ["common"]
    },
    "scriptCalls": [],
    "creatureType": "outsider",
    "subTypes": [["Native"]]
  }
}
