{
  "_id": "Lt4ZP5GCinGvTfnF",
  "name": "Grindylow",
  "type": "race",
  "img": "systems/pf1/icons/skills/ice_14.jpg",
  "sort": 0,
  "flags": {},
  "system": {
    "description": {
      "value": "<h2>Standard Racial Traits</h2><ul><li><strong>Ability Scores</strong>: +4 <em>Dexterity</em>, –2 <em>Intelligence</em>, –2 <em>Wisdom</em>, –2 <em>Charisma</em>: Grindylows are cruel, ignorant, and thoughtless, but they have a startling inherent agility.</li><li><strong>Size</strong>: Grindylows are Small creatures. They gain a +1 <em>size bonus</em> to AC, a +1 <em>size bonus</em> on <em>attack rolls</em>, a –1 penalty on <em>combat maneuver</em> checks and to their <em>CMD</em>, and a +4 <em>size bonus</em> on <em>Stealth</em> checks.</li><li><strong>Type</strong>: Grindylows are <em>aberrations</em> with the <em>aquatic</em> subtype.</li><li><strong>Amphibious</strong>: Grindylows have the <em>aquatic</em> subtype, but they can breathe both water and air.</li><li><strong>Languages</strong>: Grindylows begin play speaking Aquan. Grindylows with high <em>Intelligence</em> scores can choose from the following: Aklo, Common, and Goblin.</li></ul><h3>Movement & Movement Abilities</h3><ul><li><strong>Slow Speed</strong>: Grindylows can scuttle about on land with their tentacles and have a base speed of 15 feet.</li><li><strong>Swim Speed</strong>: Grindylows have a swim speed of 30 feet.</li><li><strong>Jet (1 RP)</strong>: Grindylows can swim 200 feet backward as a <em>full-round action</em>. A grindylow must move in a straight line when jetting and does not provoke <em>attacks of opportunity</em> when using this ability.</li></ul><h3>Senses</h3><ul><li><strong>Darkvision</strong>: Grindylows have <em>darkvision</em> with a range of 60 feet.</li></ul><h3>Defensive Abilities</h3><ul><li><strong>Natural Armor</strong>: Grindylows have tough, rubbery skin that grants a +2 <em>natural armor bonus</em>.</li></ul><h3>Offensive Abilities</h3><ul><li><strong>Bite</strong>: Grindylows have a <em>natural</em> bite attack that deals 1d3 points of damage. This bite is a primary attack, or a secondary attack if the creature is wielding manufactured weapons.</li><li><strong>Tangling Tentacles</strong> (4 RP): Grindylows have constantly writhing tentacles that reach out to tug at and <em>trip</em> adjacent foes. During the grindylow's turn, it can make a single <em>trip</em> attack against any adjacent foe as a <em>swift action</em>. The grindylow gains a +4 <em>racial bonus</em> on <em>trip</em> attacks with its tangling tentacles, and if it fails to <em>trip</em> a foe, that creature can't attempt to <em>trip</em> the grindylow in retaliation.</li></ul><h3>Other Abilities</h3><ul><li><strong>Sneaky</strong>: Grindylows have a +4 <em>racial bonus</em> on <em>Stealth</em> checks.</li></ul>"
    },
    "tags": [],
    "changes": [
      {
        "_id": "n3ljh6y2",
        "formula": "4",
        "operator": "add",
        "subTarget": "dex",
        "modifier": "racial",
        "priority": 0,
        "value": 0,
        "target": "ability"
      },
      {
        "_id": "9m2a2vpv",
        "formula": "-2",
        "operator": "add",
        "subTarget": "int",
        "modifier": "racial",
        "priority": 0,
        "value": 0,
        "target": "ability"
      },
      {
        "_id": "xwm8tpf0",
        "formula": "-2",
        "operator": "add",
        "subTarget": "wis",
        "modifier": "racial",
        "priority": 0,
        "value": 0,
        "target": "ability"
      },
      {
        "_id": "6q6ycaff",
        "formula": "-2",
        "operator": "add",
        "subTarget": "cha",
        "modifier": "racial",
        "priority": 0,
        "value": 0,
        "target": "ability"
      },
      {
        "_id": "odcm4z72",
        "formula": "2",
        "operator": "add",
        "subTarget": "nac",
        "modifier": "base",
        "priority": 0,
        "value": 0,
        "target": "ac"
      },
      {
        "_id": "qjb8ge5v",
        "formula": "4",
        "operator": "add",
        "subTarget": "skill.ste",
        "modifier": "racial",
        "priority": 0,
        "value": 0,
        "target": "skill"
      }
    ],
    "contextNotes": [],
    "links": {
      "children": []
    },
    "armorProf": {
      "value": []
    },
    "weaponProf": {
      "value": []
    },
    "languages": {
      "value": ["aquan"]
    },
    "scriptCalls": [],
    "creatureType": "aberration",
    "size": "sm",
    "subTypes": [["Aquatic"]]
  }
}
