{
  "_id": "F4G4W6IN2adn2Ek6",
  "name": "Blade Boot",
  "type": "weapon",
  "img": "systems/pf1/icons/items/weapons/blade-boot.png",
  "sort": 0,
  "flags": {},
  "system": {
    "description": {
      "value": "<p><strong>Source</strong> <em>Adventurer's Armory pg. 2</em></p><h3 class=\"framing\"><span title=\"PFS Legal\">[PFS]</span> Statistics</h3><p><strong>Cost</strong> 25 gp <strong>Weight</strong> 2 lbs.</p><p><strong>Damage</strong> 1d3 (small), 1d4 (medium); <strong>Critical</strong> x2; <strong>Range</strong> -; <strong>Type</strong> P; <strong>Special</strong> see text</p><p><strong>Category</strong> Light; <strong>Proficiency</strong> Martial</p><h3 class=\"framing\">Description</h3><p>Blade boots come with a spring-mounted knife that pops out when triggered with the right combination of toe presses. You can use a blade boot as an off-hand weapon. Releasing the knife is a swift action; rearming it is a full-round action. When the blade is extended, you treat normal terrain as difficult and difficult terrain as impassable.</p>"
    },
    "tags": [["Blade Boot"]],
    "weight": {
      "value": 2
    },
    "price": 25,
    "hp": {
      "max": 2,
      "value": 2
    },
    "hardness": 10,
    "identifiedName": "Blade Boot",
    "changes": [],
    "actions": [
      {
        "_id": "jy4gvpg3xlbxznaw",
        "name": "Attack",
        "img": "systems/pf1/icons/items/weapons/blade-boot.png",
        "description": "",
        "tag": "",
        "activation": {
          "cost": 1,
          "type": "attack"
        },
        "unchainedAction": {
          "activation": {
            "cost": 1,
            "type": ""
          }
        },
        "duration": {
          "value": null,
          "units": "inst"
        },
        "target": {
          "value": ""
        },
        "range": {
          "value": "0",
          "units": "melee",
          "maxIncrements": 1,
          "minValue": null,
          "minUnits": ""
        },
        "uses": {
          "autoDeductChargesCost": "",
          "self": {
            "value": 0,
            "maxFormula": "",
            "per": null
          },
          "per": null,
          "value": 0,
          "maxFormula": ""
        },
        "measureTemplate": {
          "type": "",
          "size": "",
          "overrideColor": false,
          "customColor": "",
          "overrideTexture": false,
          "customTexture": ""
        },
        "attackName": "",
        "actionType": "mwak",
        "attackBonus": "",
        "critConfirmBonus": "",
        "damage": {
          "parts": [
            [
              "sizeRoll(1, 4, @size)",
              {
                "values": ["piercing"],
                "custom": ""
              }
            ]
          ],
          "critParts": [],
          "nonCritParts": []
        },
        "attackParts": [],
        "formulaicAttacks": {
          "count": {
            "formula": "min(3, ceil(@attributes.bab.total / 5) - 1)"
          },
          "bonus": {
            "formula": "@formulaicAttack * -5"
          },
          "label": null
        },
        "formula": "",
        "ability": {
          "attack": "str",
          "damage": "str",
          "damageMult": 1,
          "critRange": 20,
          "critMult": 2
        },
        "save": {
          "dc": 0,
          "type": "",
          "description": ""
        },
        "effectNotes": [],
        "attackNotes": [],
        "soundEffect": "",
        "powerAttack": {
          "multiplier": "",
          "damageBonus": 2,
          "critMultiplier": 1
        },
        "naturalAttack": {
          "primaryAttack": true,
          "secondary": {
            "attackBonus": "-5",
            "damageMult": 0.5
          }
        },
        "nonlethal": false,
        "usesAmmo": false,
        "spellEffect": "",
        "spellArea": "",
        "conditionals": [],
        "enh": {
          "value": null
        }
      }
    ],
    "attackNotes": [],
    "effectNotes": [],
    "contextNotes": [],
    "links": {
      "children": []
    },
    "tag": "bladeBoot",
    "scriptCalls": [],
    "weaponGroups": {
      "value": ["bladesLight", "close"]
    },
    "subType": "martial"
  }
}
