{
  "_id": "YkAcwp7y762OBO3H",
  "name": "Flak",
  "type": "loot",
  "img": "icons/weapons/ammunition/shot-round-lead.webp",
  "sort": 0,
  "flags": {},
  "system": {
    "description": {
      "value": "<p><strong>Source</strong> <em>Dragonslayer's Handbook pg. 27</em></p><h3 class=\"framing\">Statistics</h3><p><strong>Cost</strong> 500 gp <strong>Weight</strong> 30 lbs.</p><p><strong>Category</strong> Ammunition; <strong>Proficiency</strong> Ammunition</p><h3 class=\"framing\">Description</h3><p>Flak ammunition is a type of short-fused bomb, specifically  designed to explode in midair. Flak ammunition is packed with  steel balls and black powder, and may be fired from a bombard  or catapult. When flak explodes, it deals 4d6 points of piercing  and bludgeoning damage to all creatures and objects within 40  feet of the target square. A flak bomb must reach an altitude of  at least 50 feet to function properly. If flak ammunition impacts  anything before it reaches this altitude, the bomb deals 1d6  points of bludgeoning damage and fails to explode.</p>"
    },
    "tags": [],
    "weight": {
      "value": 30
    },
    "price": 500,
    "equipped": false,
    "hp": {
      "max": 1,
      "value": 1
    },
    "hardness": 5,
    "identifiedName": "Flak",
    "changes": [],
    "contextNotes": [],
    "links": {
      "children": []
    },
    "tag": "flak",
    "scriptCalls": [],
    "subType": "ammo"
  }
}
