{
  "_id": "GydLTGUvuK9zzQbm",
  "name": "Flask Thrower",
  "type": "weapon",
  "img": "systems/pf1/icons/items/weapons/flask-thrower.png",
  "sort": 0,
  "flags": {},
  "system": {
    "description": {
      "value": "<p><strong>Source</strong> <em>Adventurer's Armory 2 pg. 8</em>, <em>Gnomes of Golarion pg. 22</em></p><h3 class=\"framing\"><span title=\"PFS Legal\">[PFS]</span> Statistics</h3><p><strong>Cost</strong> 25 gp <strong>Weight</strong> 4 lbs.</p><p><strong>Damage</strong> - (small), - (medium); <strong>Critical</strong> -; <strong>Range</strong> 20 ft.; <strong>Type</strong> -; <strong>Special</strong> see text</p><p><strong>Category</strong> Ranged; <strong>Proficiency</strong> Exotic</p><p><strong>Weapon Groups</strong> Thrown</p><h3 class=\"framing\">Description</h3><p>This staff has a cradle at the end, designed to hold alchemical weapons such as acid. A flask thrower significantly extends the range of thrown substances that deal splash damage, such as acid, alchemist's fire, or holy water, as well as that of tools such as tanglefoot bags, thunderstones, or caltrops.</p>"
    },
    "tags": [["Flask Thrower"]],
    "weight": {
      "value": 4
    },
    "price": 25,
    "hp": {
      "max": 5,
      "value": 5
    },
    "hardness": 5,
    "identifiedName": "Flask Thrower",
    "changes": [],
    "actions": [
      {
        "_id": "ugob87eyjtdzsaby",
        "name": "Attack",
        "img": "systems/pf1/icons/items/weapons/flask-thrower.png",
        "description": "",
        "tag": "",
        "activation": {
          "cost": 1,
          "type": "attack"
        },
        "unchainedAction": {
          "activation": {
            "cost": 1,
            "type": ""
          }
        },
        "duration": {
          "value": null,
          "units": "inst"
        },
        "target": {
          "value": ""
        },
        "range": {
          "value": "20",
          "units": "ft",
          "maxIncrements": 1,
          "minValue": null,
          "minUnits": ""
        },
        "uses": {
          "autoDeductChargesCost": "",
          "self": {
            "value": 0,
            "maxFormula": "",
            "per": null
          },
          "per": "",
          "value": 0,
          "maxFormula": ""
        },
        "measureTemplate": {
          "type": "",
          "size": "",
          "overrideColor": false,
          "customColor": "",
          "overrideTexture": false,
          "customTexture": ""
        },
        "attackName": "",
        "actionType": "rwak",
        "attackBonus": "",
        "critConfirmBonus": "",
        "damage": {
          "parts": [],
          "critParts": [],
          "nonCritParts": []
        },
        "attackParts": [],
        "formulaicAttacks": {
          "count": {
            "formula": "min(3, ceil(@attributes.bab.total / 5) - 1)"
          },
          "bonus": {
            "formula": "@formulaicAttack * -5"
          },
          "label": null
        },
        "formula": "",
        "ability": {
          "attack": "dex",
          "damage": "",
          "damageMult": 1,
          "critRange": 20,
          "critMult": 0
        },
        "save": {
          "dc": "0",
          "type": "",
          "description": ""
        },
        "effectNotes": [],
        "attackNotes": [],
        "soundEffect": "",
        "powerAttack": {
          "multiplier": "",
          "damageBonus": 2,
          "critMultiplier": 1
        },
        "naturalAttack": {
          "primaryAttack": true,
          "secondary": {
            "attackBonus": "-5",
            "damageMult": 0.5
          }
        },
        "nonlethal": false,
        "usesAmmo": false,
        "spellEffect": "",
        "spellArea": "",
        "conditionals": [],
        "enh": {
          "value": null
        }
      }
    ],
    "uses": {
      "per": ""
    },
    "attackNotes": [],
    "effectNotes": [],
    "contextNotes": [],
    "links": {
      "children": []
    },
    "tag": "flaskThrower",
    "scriptCalls": [],
    "weaponGroups": {
      "value": ["thrown"]
    },
    "subType": "exotic",
    "weaponSubtype": "ranged"
  }
}
