{
  "_id": "ge2hGHa9k1ly2hch",
  "name": "Raining Arrow",
  "type": "loot",
  "img": "systems/pf1/icons/items/weapons/arrow-special.PNG",
  "sort": 0,
  "flags": {},
  "system": {
    "description": {
      "value": "<p><strong>Source</strong><em>Daughters of Fury pg. 13</em>, <em>Elves of Golarion pg. 23</em>, <em>Alchemy Manual pg. 21</em><br /><strong>Price</strong> 30 gp; <strong>Weight</strong> -<br /><strong>Category</strong> Alchemical Weapons</p>\n<h2 class=\"framing\">Description</h2>\n<p>This thick-shafted arrow contains a reservoir of holy water and is designed to burst upon impact.</p>\n<p>A raining arrow damages the target as normal, and also treats the target as though it had been struck by a direct hit from a thrown vial of @Compendium[pf1.items.CmjSKOVJuQnV8o3S]{Holy water}; adjacent creatures take splash damage from this effect.</p>\n<p>A raining arrow imparts a <strong>-2 penalty on attack rolls</strong> because of its weight.</p>\n<p>A raining arrow costs 30 gp, and can be crafted with a successful DC 25 Craft (alchemy) check.</p>\n<h2 class=\"framing\">Construction</h2>\n<p><strong>Craft (Alchemy)</strong> DC 25</p>"
    },
    "tags": [],
    "price": 30,
    "equipped": false,
    "hp": {
      "max": 1,
      "value": 1
    },
    "hardness": 5,
    "identifiedName": "Raining Arrow",
    "changes": [],
    "contextNotes": [],
    "links": {
      "children": []
    },
    "tag": "rainingArrow",
    "scriptCalls": [],
    "subType": "ammo",
    "extraType": "arrow"
  }
}
