{
  "_id": "hrtkqckiflbowfnv",
  "name": "Air Bladder",
  "type": "loot",
  "img": "systems/pf1/icons/items/inventory/dice.jpg",
  "sort": 0,
  "flags": {},
  "system": {
    "description": {
      "value": "<h4><span id=\"Air_Bladder\"><a name=\"TOC-Air-Bladder\"></a>Air Bladder</span></h4>\r\n<p><b>Price</b> 1 sp; <b>Weight</b> 1/2 lb.</p>\r\n<p>Used by swimmers for longer dives, this bladder is similar to a <em>waterskin</em>, but is relatively airtight. If inflated, it holds enough air to sustain a Medium creature for 1 round or a Small creature for 2 rounds.</p>\r\n"
    },
    "tags": [],
    "weight": {
      "value": 0.5
    },
    "price": 0.1,
    "equipped": false,
    "changes": [],
    "contextNotes": [],
    "links": {
      "children": []
    },
    "scriptCalls": [],
    "subType": "gear"
  }
}
