{
  "_id": "RYNN9nlsOqF5UfxK",
  "name": "Black powder (Keg)",
  "type": "loot",
  "img": "systems/pf1/icons/items/inventory/dice.jpg",
  "sort": 0,
  "flags": {},
  "system": {
    "description": {
      "value": "<p>Source&nbsp;<a href=\"http://paizo.com/pathfinderRPG/v5748btpy8mcz\" target=\"_blank\" rel=\"noopener\">Ultimate Combat pg. 141</a>,&nbsp;<a href=\"http://paizo.com/store/games/roleplayingGames/p/pathfinderRPG/paizo/pathfinderChronicles/v5748btpy8ief\" target=\"_blank\" rel=\"noopener\">Inner Sea World Guide pg. 292</a><br>Price&nbsp;10 gp Black powder (dose), 1,000 gp Black powder (keg);&nbsp;Weight&nbsp;— Black powder (dose), 5 lbs. Black powder (keg)</p>\n<h3>Description</h3>\n<p>Black powder is the key explosive component within a firearm that enables it to function, but in larger amounts this alchemical material can be quite destructive on its own as well. A single dose of black powder is enough to power a single shot from most one-handed and two-handed firearms, while 10 doses are required to fire a cannon. Black powder is often stored and transported in kegs (which hold 100 doses), but in this quantity the powder itself becomes dangerous. Exposure to fire, electricity, or a misfire explosion causes black powder to explode—a single keg that explodes in this manner deals 5d6 points of fire damage to anyone within a 20-foot burst (DC 15 Reflex half). Storing black powder in a powder horn protects the powder from explosion.</p>"
    },
    "tags": [],
    "weight": {
      "value": 5
    },
    "price": 1000,
    "equipped": false,
    "identifiedName": "Black powder (Keg)",
    "changes": [],
    "contextNotes": [],
    "links": {
      "children": []
    },
    "scriptCalls": [],
    "subType": "gear"
  }
}
