{
  "_id": "agiqydcacgxzxinp",
  "name": "Bridge, Portable",
  "type": "loot",
  "img": "systems/pf1/icons/items/inventory/dice.jpg",
  "sort": 0,
  "flags": {},
  "system": {
    "description": {
      "value": "\r\n<p><b>Price</b> 200 gp; <b>Weight</b> 60 lbs.</p>\r\n<p>When staked down with eight pitons (four on each side of the gap), this <em>rope</em> and slat bridge can support up to 1,500 pounds and span a 30-foot gap. It rolls up into a parcel that can be carried slung over the back or by a pack animal. Convincing an animal to cross a portable bridge requires the come or heel trick.</p>\r\n\r\n"
    },
    "tags": [],
    "weight": {
      "value": 60
    },
    "price": 200,
    "equipped": false,
    "changes": [],
    "contextNotes": [],
    "links": {
      "children": []
    },
    "scriptCalls": [],
    "subType": "gear"
  }
}
