{
  "_id": "ivrkcdycmcnopugl",
  "name": "Chest, False-Bottomed",
  "type": "loot",
  "img": "systems/pf1/icons/items/inventory/dice.jpg",
  "sort": 0,
  "flags": {},
  "system": {
    "description": {
      "value": " \n<p class=\"source\"><b>Source</b> <em>PZO9410</em></p> \n<p>The secret compartment in this chest is approximately 1 inch thick. Different styles open from the inside, from the underside, or through the back. Detecting the compartment is a DC 20 <em>Perception</em> check.</p> \n"
    },
    "tags": [],
    "equipped": false,
    "changes": [],
    "contextNotes": [],
    "links": {
      "children": []
    },
    "scriptCalls": [],
    "subType": "gear"
  }
}
