{
  "_id": "ywteajbtkhozwwst",
  "name": "Cushioned Inserts",
  "type": "loot",
  "img": "systems/pf1/icons/items/inventory/dice.jpg",
  "sort": 0,
  "flags": {},
  "system": {
    "description": {
      "value": " \n<p><b>Price</b> 5 SP; <b>Weight</b> -</p> \n<p>These rubber boot or shoe inserts cushion your feet and improve your gait, granting you a +1 <em>circumstance bonus</em> on <em>Constitution</em> checks to continue running and to avoid <em>nonlethal damage</em> from a forced march.</p> \n"
    },
    "tags": [],
    "equipped": false,
    "changes": [],
    "contextNotes": [],
    "links": {
      "children": []
    },
    "scriptCalls": [],
    "subType": "gear"
  }
}
