{
  "_id": "erdrrhlweneormnm",
  "name": "Goblinvine",
  "type": "loot",
  "img": "systems/pf1/icons/items/inventory/dice.jpg",
  "sort": 0,
  "flags": {},
  "system": {
    "description": {
      "value": "\r\n<p class=\"source\"><b>Source</b> <a href=\"http://amzn.to/2z71S07\" target=\"_blank\" rel=\"noopener\">PZO1140</a></p>\r\n<p><b>Price</b> 30 gp</p>\r\n<p>The leaves of this invasive creeper produce oil that irritates the skin, causing red, itchy splotches to cover the affected area.</p>\r\n<p>Raw goblinvine leaves can be used as an improvised thrown weapon with a range of 10 feet that causes one creature to be are affected as if by <em>itching powder</em>, but with a save DC of 10. Creatures with the <em>goblinoid</em> subtype are immune to goblinvine.</p>\r\n<p><b>Gather</b> DC 16; <b>Yield</b> 1 dose (1 lb.)</p>\r\n<p><b>Terrain</b> any forests, mountains, plains, or swamps</p>\r\n<p><b>Preparation</b> Properly preparing a dose of goblinvine requires a successful DC 20 <em>Sleight of Hand</em> check and 1 minute of work to weave and roll the vines into a compact, fist-sized ball so the hairy side of the leaves faces inward. On a failure by 5 or more, the leaves become torn and ruined. If gloves or gauntlets aren't worn, the preparer is automatically exposed to the goblinvine's effects. If the preparation check's result is a natural 1, the preparer is exposed to those effects regardless of any hand protection worn. The <em>goblin</em> vine must then be stored in an area of bright light for at least 1 hour for the inner surface of the leaves to properly &#8220;sweat&#8221; and build up enough irritating oil to function as a thrown weapon.</p>\r\n<p><b>Use</b> Once woven into a tight ball of vines and left to sweat, a ball of goblinvine leaves can be used as an improvised thrown weapon as a ranged <em>touch attack</em>. On a hit, a target must succeed at a DC 10 <em>Fortitude</em> save or develop a distracting, itchy rash that imposes a -2 penalty on ability checks, <em>attack rolls</em>, saving throws, and skill checks. This effect persists for 10 minutes or until the rash is tended with a successful DC 12 <em>Heal</em> check attempted as a <em>full-round action</em>. This is a <em>poison</em> effect, but creatures with the <em>goblinoid</em> subtype are immune to the effect. Innovative characters (including many <em>goblins</em>) have developed other uses for goblinvine, including as snares and ropes to make those bound or <em>entangled</em> itchy as well, but since goblinvine is relatively fragile, it makes for a very poor substitute for <em>rope</em>.</p>\r\n"
    },
    "tags": [],
    "weight": {
      "value": 1
    },
    "price": 30,
    "equipped": false,
    "changes": [],
    "contextNotes": [],
    "links": {
      "children": []
    },
    "scriptCalls": [],
    "subType": "gear"
  }
}
