{
  "_id": "sv1iKPTOpaiZMOWk",
  "name": "Headband of Alluring Charisma +2",
  "type": "equipment",
  "img": "systems/pf1/icons/items/equipment/belt-gems.jpg",
  "sort": 0,
  "flags": {},
  "system": {
    "description": {
      "value": "<p>This attractive silver headband is decorated with a number of small red and orange gemstones.</p>\n<p>The headband grants the wearer an&nbsp;<em>enhancement bonus</em>&nbsp;to&nbsp;<em>Charisma</em>&nbsp;of +2, +4, or +6. Treat this as a temporary ability bonus for the first 24 hours the headband is worn.</p>",
      "unidentified": "<p>This attractive silver headband is decorated with a number of small red and orange gemstones.</p>"
    },
    "tags": [],
    "weight": {
      "value": 1
    },
    "price": 4000,
    "resizing": true,
    "unidentified": {
      "name": "Headband"
    },
    "identifiedName": "Headband of Alluring Charisma +2",
    "cl": 8,
    "aura": {
      "school": "trs"
    },
    "changes": [
      {
        "_id": "3829rluc",
        "formula": "2",
        "operator": "add",
        "subTarget": "cha",
        "modifier": "enh",
        "priority": 0,
        "value": 0,
        "target": "ability"
      }
    ],
    "contextNotes": [],
    "actions": [],
    "attackNotes": [],
    "effectNotes": [],
    "links": {
      "children": [],
      "charges": []
    },
    "scriptCalls": [],
    "subType": "misc",
    "equipmentSubtype": "wondrous",
    "slot": "headband"
  }
}
