{
  "_id": "akrnqognxpokqnqz",
  "name": "Healy Myrrh",
  "type": "loot",
  "img": "systems/pf1/icons/items/inventory/dice.jpg",
  "sort": 0,
  "flags": {},
  "system": {
    "description": {
      "value": "\r\n<p class=\"source\"><b>Source</b> PZO9406</p>\r\n<p>When you burn this powerful resin, it fills 8,000 cubic feet with faint smoke that persists for 8 full hours. Any creatures resting or receiving long-term care in the area while the healy myrrh is active regain 1 additional hit point per level. Multiple uses of healy myrrh in a 24-hour period do not stack.</p>\r\n<p><b>Create</b>: <em>Craft</em> (alchemy) 5 ranks, <em>Heal</em> 5 ranks; <b>Cost</b> 25 gp</p>\r\n"
    },
    "tags": [],
    "price": 50,
    "equipped": false,
    "changes": [],
    "contextNotes": [],
    "links": {
      "children": []
    },
    "scriptCalls": [],
    "subType": "gear"
  }
}
