{
  "_id": "tnrkkixraxbzsgce",
  "name": "Hourglass",
  "type": "loot",
  "img": "systems/pf1/icons/items/inventory/dice.jpg",
  "sort": 0,
  "flags": {},
  "system": {
    "description": {
      "value": "\r\n<table border=\"1\" cellpadding=\"5\">\r\n<thead>\r\n<tr>\r\n<th class=\"text\">Type</th>\r\n<th class=\"text\">Price</th>\r\n<th class=\"text\">Weight</th>\r\n</tr>\r\n</thead>\r\n<tbody>\r\n<tr>\r\n<td class=\"text\">1 hour</td>\r\n<td class=\"money number\">25 gp</td>\r\n<td class=\"text\">1 lb.</td>\r\n</tr>\r\n<tr>\r\n<td class=\"text\">1 minute</td>\r\n<td class=\"money number\">20 gp</td>\r\n<td class=\"text\">1/2 lb.</td>\r\n</tr>\r\n<tr>\r\n<td class=\"text\">6 seconds</td>\r\n<td class=\"money number\">10 gp</td>\r\n<td class=\"marker\">&#8211;</td>\r\n</tr>\r\n</tbody>\r\n</table>\r\n<p>The standard hourglass takes 1 hour to empty the sand from the upper chamber; larger and smaller timers exist which mark off time in increments as short as 6 seconds.</p>\r\n\r\n"
    },
    "tags": [],
    "equipped": false,
    "changes": [],
    "contextNotes": [],
    "links": {
      "children": []
    },
    "scriptCalls": [],
    "subType": "gear"
  }
}
