{
  "_id": "rlhcjivyyofcwjwt",
  "name": "Kit, Seance",
  "type": "loot",
  "img": "systems/pf1/icons/items/inventory/dice.jpg",
  "sort": 0,
  "flags": {},
  "system": {
    "description": {
      "value": "\r\n<p class=\"source\"><b>Source</b>: <em>USH</em></p>\r\n<p><b>Price</b> 290 gp; <b>Weight</b> 12 lbs.</p>\r\n<p>This stained mahogany box contains tools that aid in contacting <em>supernatural</em> beings either as part of an act or a genuine ritual. This kit includes a non-magical <em>spirit planchette</em> set (treat as a board game worth 25 gp), 10 candles, 10 candlesticks, one <em>entertainer's outfit</em>, one harrow deck, one magnet, 10 sticks of incense, one <em>scroll of</em> <em>augury</em>, and two <em>scrolls of</em> <em>prestidigitation</em>.</p>\r\n\r\n"
    },
    "tags": [],
    "weight": {
      "value": 12
    },
    "price": 290,
    "equipped": false,
    "changes": [],
    "contextNotes": [],
    "links": {
      "children": []
    },
    "scriptCalls": [],
    "subType": "gear"
  }
}
