{
  "_id": "uxvxpbqkdwuddrmj",
  "name": "Kit, Fishing",
  "type": "loot",
  "img": "systems/pf1/icons/items/inventory/dice.jpg",
  "sort": 0,
  "flags": {},
  "system": {
    "description": {
      "value": "\r\n<p><b>Price</b> 5 sp; <b>Weight</b> 3 lbs.</p>\r\n<p>This kit includes a simple fishing <em>pole</em> and a small box that contains fishing tackle (hooks, lines, sinkers, floats, and lures).</p>\r\n\r\n"
    },
    "tags": [],
    "weight": {
      "value": 3
    },
    "price": 0.5,
    "equipped": false,
    "changes": [],
    "contextNotes": [],
    "links": {
      "children": []
    },
    "scriptCalls": [],
    "subType": "gear"
  }
}
