{
  "_id": "eoonmdkcxktaqlma",
  "name": "Kit, Breaker's",
  "type": "loot",
  "img": "systems/pf1/icons/items/inventory/dice.jpg",
  "sort": 0,
  "flags": {},
  "system": {
    "description": {
      "value": "\r\n<p class=\"source\"><b>Source</b>: <em>PZO9430</em></p>\r\n<p><b>Price</b> 353 gp; <b>Weight</b> 40 lbs.</p>\r\n<p>This kit contains all manner of items useful for smashing down doors, creating diversions, and blowing things up. It includes a dose of alchemist's glue, a flask of alchemist's fire, a crowbar, a drill, a fuse grenade, a glass cutter, a jetcaster, a vial of phosphorescent gel, 4 pints of oil, a portable ram, a dose of rusting powder, 5 tindertwigs, and a wire</p>\r\n\r\n"
    },
    "tags": [],
    "weight": {
      "value": 40
    },
    "price": 353,
    "equipped": false,
    "changes": [],
    "contextNotes": [],
    "links": {
      "children": []
    },
    "scriptCalls": [],
    "subType": "gear"
  }
}
