{
  "_id": "bqdgdzahtubuuxmn",
  "name": "Kit, Disguise",
  "type": "loot",
  "img": "systems/pf1/icons/items/inventory/dice.jpg",
  "sort": 0,
  "flags": {},
  "system": {
    "description": {
      "value": "\r\n<p><b>Price</b> 50 gp; <b>Weight</b> 8 lbs.</p>\r\n<p>This kit contains tools like makeup and fake facial hair, and provides a +2 <em>circumstance bonus</em> on <em>Disguise</em> checks. A disguise kit is exhausted after 10 uses.</p>\r\n\r\n"
    },
    "tags": [],
    "weight": {
      "value": 8
    },
    "price": 50,
    "equipped": false,
    "identifiedName": "Kit, Disguise",
    "changes": [
      {
        "_id": "cl9ar24j",
        "formula": "2",
        "operator": "add",
        "subTarget": "skill.dis",
        "modifier": "circumstance",
        "priority": 0,
        "value": 0,
        "target": "skill"
      }
    ],
    "contextNotes": [],
    "links": {
      "children": []
    },
    "tag": "kitDisguise",
    "scriptCalls": [],
    "subType": "gear"
  }
}
