{
  "_id": "dmcdsjslcjpfayxg",
  "name": "Kit, Watchman's",
  "type": "loot",
  "img": "systems/pf1/icons/items/inventory/dice.jpg",
  "sort": 0,
  "flags": {},
  "system": {
    "description": {
      "value": "\r\n<p><b>Price</b> 3 gp; <b>Weight</b> 10 lbs.</p>\r\n<p>This kit includes a badge (tin <em>brooch</em> worth 5 sp), <em>flint and steel</em>, a shield sconce, a <em>signal whistle</em>, and torches (10).</p>\r\n\r\n"
    },
    "tags": [],
    "weight": {
      "value": 10
    },
    "price": 3,
    "equipped": false,
    "changes": [],
    "contextNotes": [],
    "links": {
      "children": []
    },
    "scriptCalls": [],
    "subType": "gear"
  }
}
