{
  "_id": "gui1XLiivTOxvLSN",
  "name": "Kit, Cavalier's",
  "type": "container",
  "img": "icons/containers/chest/chest-reinforced-steel-red.webp",
  "sort": 0,
  "flags": {},
  "system": {
    "description": {
      "value": null
    },
    "tags": [],
    "weight": {
      "value": 0
    },
    "inventoryItems": [
      {
        "_id": "lSCPUK5Ea6R0t4fz",
        "name": "Backpack",
        "permission": {
          "default": 0,
          "ZuWclcb9BUy2aZSN": 3
        },
        "type": "container",
        "flags": {
          "core": {
            "sourceId": "Item.CcUuzTh1CCp2NMRv"
          }
        },
        "img": "systems/pf1/icons/items/inventory/backpack.jpg",
        "effects": [],
        "labels": {
          "equipped": "<i class=\"fas fa-times\"></i>",
          "carried": "<i class=\"fas fa-check\"></i>",
          "identified": "<i class=\"fas fa-check\"></i>"
        },
        "hasAttack": false,
        "hasMultiAttack": false,
        "hasDamage": false,
        "hasAction": false,
        "showUnidentifiedData": false,
        "isStack": false,
        "isCharged": false,
        "price": 2,
        "empty": false,
        "totalWeight": 2,
        "units": "lbs",
        "system": {
          "basePrice": 2,
          "unidentified": {
            "basePrice": 0,
            "price": 0,
            "name": ""
          },
          "description": {
            "value": "<p>This leather knapsack has one large pocket that closes with a buckled strap and holds about 2 cubic feet of material. Some may have one or more smaller pockets on the sides.</p>",
            "chat": "",
            "unidentified": ""
          },
          "tags": [],
          "quantity": 1,
          "weight": {
            "value": 2
          },
          "price": 2,
          "identified": true,
          "hp": {
            "max": 10,
            "value": 10
          },
          "hardness": 0,
          "carried": true,
          "identifiedName": "Backpack",
          "cl": 0,
          "aura": {
            "custom": false,
            "school": ""
          },
          "inventoryItems": [],
          "maxWeight": null,
          "weightReduction": 0,
          "baseWeight": 2,
          "damage": {
            "parts": [],
            "critParts": [],
            "nonCritParts": []
          },
          "weightConverted": 2,
          "weightUnits": "lbs",
          "priceUnits": "gp",
          "size": "med",
          "range": {
            "maxIncrements": 1
          },
          "-=baseWeight": null
        }
      },
      {
        "_id": "wjvxmolafiegvesl",
        "name": "Pouch, Belt",
        "permission": {
          "default": 0,
          "T9i9xVjdkHeFZC72": 3
        },
        "type": "loot",
        "flags": {
          "core": {
            "sourceId": "Compendium.pf1.items.wjvxmolafiegvesl"
          }
        },
        "img": "icons/containers/bags/coinpouch-simple-leather-tan.webp",
        "effects": [],
        "labels": {
          "equipped": "<i class=\"fas fa-times\"></i>",
          "carried": "<i class=\"fas fa-check\"></i>",
          "identified": "<i class=\"fas fa-check\"></i>"
        },
        "hasAttack": false,
        "hasMultiAttack": false,
        "hasDamage": false,
        "hasAction": false,
        "showUnidentifiedData": false,
        "isStack": false,
        "isCharged": false,
        "price": 1,
        "empty": false,
        "totalWeight": 0.5,
        "units": "lbs",
        "system": {
          "subType": "gear",
          "description": {
            "value": " \n<p class=\"source\"><b>Source</b> <em>PZO1110</em></p> \n<p>A belt pouch is crafted of soft cloth or leather. They typically hold up to 10 lb. or 1/5 cubic ft. of items.</p> \n<p><b>Empty Weight</b>: 1/2 lb.<sup style=\"font-size: 10px\">1</sup> <b>Capacity</b>: 1/5 cubic ft./10 lb.<sup style=\"font-size: 10px\">1</sup></p> \n<p class=\"source\"><sup style=\"font-size: 10px\">1</sup> When made for Medium characters. Weighs one-quarter the normal amount when made for Small characters. Weighs twice the normal amount when made for Large characters. Containers carry one-quarter the normal amount when made for Small characters.</p> \n",
            "chat": "",
            "unidentified": ""
          },
          "tags": [],
          "quantity": 1,
          "weight": {
            "value": 0.5
          },
          "price": 1,
          "identified": true,
          "hp": {
            "max": 10,
            "value": 10
          },
          "hardness": 0,
          "carried": true,
          "unidentified": {
            "price": 0,
            "name": ""
          },
          "identifiedName": "Pouch, Belt",
          "cl": 0,
          "aura": {
            "custom": false,
            "school": ""
          },
          "links": {
            "children": []
          },
          "damage": {
            "parts": [],
            "critParts": [],
            "nonCritParts": []
          },
          "attackParts": [],
          "conditionals": [],
          "contextNotes": [],
          "weightConverted": 0.5,
          "weightUnits": "lbs",
          "priceUnits": "gp",
          "size": "med",
          "equipped": false,
          "range": {
            "maxIncrements": 1
          }
        }
      },
      {
        "_id": "ygmrcisvftnvjyob",
        "name": "Flint And Steel",
        "permission": {
          "default": 0,
          "T9i9xVjdkHeFZC72": 3
        },
        "type": "loot",
        "flags": {
          "core": {
            "sourceId": "Compendium.pf1.items.ygmrcisvftnvjyob"
          }
        },
        "img": "icons/commodities/stone/rock-chunk-grey.webp",
        "effects": [],
        "labels": {
          "equipped": "<i class=\"fas fa-times\"></i>",
          "carried": "<i class=\"fas fa-check\"></i>",
          "identified": "<i class=\"fas fa-check\"></i>"
        },
        "hasAttack": false,
        "hasMultiAttack": false,
        "hasDamage": false,
        "hasAction": false,
        "showUnidentifiedData": false,
        "isStack": false,
        "isCharged": false,
        "price": 1,
        "empty": false,
        "totalWeight": 0,
        "units": "lbs",
        "system": {
          "subType": "gear",
          "description": {
            "value": "<p>Lighting a <em>torch</em> with a <em>flint and steel</em> is a full-round action. Lighting any other fire with them takes at least that long.</p>",
            "chat": "",
            "unidentified": ""
          },
          "tags": [],
          "quantity": 1,
          "weight": {
            "value": 0
          },
          "price": 1,
          "identified": true,
          "hp": {
            "max": 10,
            "value": 10
          },
          "hardness": 0,
          "carried": true,
          "unidentified": {
            "price": 0,
            "name": ""
          },
          "identifiedName": "Flint And Steel",
          "cl": 0,
          "aura": {
            "custom": false,
            "school": ""
          },
          "links": {
            "children": []
          },
          "damage": {
            "parts": [],
            "critParts": [],
            "nonCritParts": []
          },
          "attackParts": [],
          "conditionals": [],
          "contextNotes": [],
          "weightConverted": 0,
          "weightUnits": "lbs",
          "priceUnits": "gp",
          "size": "med",
          "equipped": false,
          "range": {
            "maxIncrements": 1
          }
        }
      },
      {
        "_id": "yMoclCylbCRKyaZF",
        "name": "Soap",
        "permission": {
          "default": 0,
          "ZuWclcb9BUy2aZSN": 3
        },
        "type": "consumable",
        "flags": {
          "core": {
            "sourceId": "Item.cDlDlPy1JSnN6KyN"
          }
        },
        "img": "systems/pf1/icons/items/inventory/soap.jpg",
        "effects": [],
        "labels": {
          "equipped": "<i class=\"fas fa-times\"></i>",
          "carried": "<i class=\"fas fa-check\"></i>",
          "identified": "<i class=\"fas fa-check\"></i>",
          "activation": "Special",
          "target": "",
          "range": "",
          "duration": "",
          "damage": "",
          "damageTypes": ""
        },
        "hasAttack": false,
        "hasMultiAttack": false,
        "hasDamage": false,
        "hasEffect": "",
        "hasAction": true,
        "showUnidentifiedData": false,
        "isStack": false,
        "hasUses": false,
        "isCharged": true,
        "price": 0.01,
        "empty": false,
        "totalWeight": 0,
        "units": "lbs",
        "system": {
          "uses": {
            "value": 50,
            "max": 0,
            "maxFormula": "50",
            "per": "charges",
            "autoDeductChargesCost": "1"
          },
          "description": {
            "value": "<p class=\"source\" style=\"box-sizing: border-box; user-select: text; color: #191813; font-size: 13px;\"><strong style=\"box-sizing: border-box; user-select: text;\">Source</strong>&nbsp;<em>PPZO9410</em></p>\n<p style=\"box-sizing: border-box; user-select: text; color: #191813; font-size: 13px;\">You can use this thick block of soap to scrub clothes, pots, linens, or anything else that might be dirty. A bar of soap has approximately 50 uses.</p>",
            "chat": "",
            "unidentified": ""
          },
          "tags": [],
          "quantity": 1,
          "weight": {
            "value": 0
          },
          "price": 0.01,
          "identified": true,
          "hp": {
            "max": 10,
            "value": 10
          },
          "hardness": 0,
          "carried": true,
          "unidentified": {
            "price": 0,
            "name": ""
          },
          "identifiedName": "Soap",
          "cl": 0,
          "aura": {
            "custom": false,
            "school": ""
          },
          "activation": {
            "cost": 1,
            "type": "special"
          },
          "duration": {
            "value": null,
            "units": ""
          },
          "target": {
            "value": ""
          },
          "range": {
            "value": null,
            "units": "",
            "long": null,
            "maxIncrements": 1
          },
          "measureTemplate": {
            "type": "",
            "size": "",
            "overrideColor": false,
            "customColor": "",
            "overrideTexture": false,
            "customTexture": ""
          },
          "actionType": "",
          "attackBonus": "",
          "critConfirmBonus": "",
          "damage": {
            "parts": [],
            "critParts": [],
            "nonCritParts": []
          },
          "attackParts": [],
          "formula": "",
          "ability": {
            "attack": null,
            "damage": null,
            "damageMult": 1,
            "critRange": 20,
            "critMult": 2
          },
          "save": {
            "dc": 0,
            "type": "",
            "description": ""
          },
          "effectNotes": [],
          "attackNotes": [],
          "soundEffect": "",
          "links": {
            "children": [],
            "charges": []
          },
          "attack": {
            "parts": []
          },
          "weightConverted": 0,
          "weightUnits": "lbs",
          "priceUnits": "gp",
          "size": "med",
          "unchainedAction": {
            "activation": {
              "cost": 1,
              "type": "special"
            }
          },
          "actions": [
            {
              "_id": "JDj0diVAmcmtuv8d",
              "name": "Use",
              "img": "systems/pf1/icons/items/inventory/soap.jpg",
              "description": "",
              "tag": "",
              "activation": {
                "cost": 1,
                "type": "special"
              },
              "unchainedAction": {
                "activation": {
                  "cost": 1,
                  "type": ""
                }
              },
              "duration": {
                "value": null,
                "units": ""
              },
              "target": {
                "value": ""
              },
              "range": {
                "value": null,
                "units": "",
                "maxIncrements": 1,
                "minValue": null,
                "minUnits": "",
                "long": null
              },
              "uses": {
                "autoDeductChargesCost": "",
                "self": {
                  "value": 0,
                  "maxFormula": "",
                  "per": null
                },
                "value": 50,
                "max": 0,
                "maxFormula": "50",
                "per": "charges"
              },
              "measureTemplate": {
                "type": "",
                "size": "",
                "overrideColor": false,
                "customColor": "",
                "overrideTexture": false,
                "customTexture": ""
              },
              "attackName": "",
              "actionType": "",
              "attackBonus": "",
              "critConfirmBonus": "",
              "damage": {
                "parts": [],
                "critParts": [],
                "nonCritParts": []
              },
              "attackParts": [],
              "formulaicAttacks": {
                "count": {
                  "formula": ""
                },
                "bonus": {
                  "formula": ""
                },
                "label": null
              },
              "formula": "",
              "ability": {
                "attack": null,
                "damage": null,
                "damageMult": 1,
                "critRange": 20,
                "critMult": 2
              },
              "save": {
                "dc": 0,
                "type": "",
                "description": ""
              },
              "effectNotes": "",
              "attackNotes": "",
              "soundEffect": "",
              "powerAttack": {
                "multiplier": "",
                "damageBonus": 2,
                "critMultiplier": 1
              },
              "naturalAttack": {
                "primaryAttack": true,
                "secondary": {
                  "attackBonus": "-5",
                  "damageMult": 0.5
                }
              },
              "nonlethal": false,
              "usesAmmo": false,
              "spellEffect": "",
              "spellArea": "",
              "conditionals": [],
              "enh": {
                "value": null
              }
            }
          ],
          "subType": "misc"
        }
      },
      {
        "_id": "snfogneawzopfzzl",
        "name": "Torch",
        "permission": {
          "default": 0,
          "T9i9xVjdkHeFZC72": 3
        },
        "type": "loot",
        "flags": {
          "core": {
            "sourceId": "Compendium.pf1.items.snfogneawzopfzzl"
          }
        },
        "img": "systems/pf1/icons/items/inventory/torch.jpg",
        "effects": [],
        "labels": {
          "equipped": "<i class=\"fas fa-times\"></i>",
          "carried": "<i class=\"fas fa-check\"></i>",
          "identified": "<i class=\"fas fa-check\"></i>"
        },
        "hasAttack": false,
        "hasMultiAttack": false,
        "hasDamage": false,
        "hasAction": false,
        "showUnidentifiedData": false,
        "isStack": true,
        "isCharged": false,
        "price": 0.01,
        "empty": false,
        "totalWeight": 10,
        "units": "lbs",
        "system": {
          "subType": "gear",
          "description": {
            "value": "<p><strong>Price</strong> 1 cp; <strong>Weight</strong> 1 lb.</p>\n<p>A torch burns for 1 hour, shedding normal light in a 20-foot radius and increasing the light level by one step for an additional 20 feet beyond that area (darkness becomes dim light and dim light becomes normal light). A torch does not increase the light level in normal light or bright light. If a torch is used in combat, treat it as a one-handed improvised weapon that deals bludgeoning damage equal to that of a gauntlet of its size, plus 1 point of fire damage.</p>",
            "chat": "",
            "unidentified": ""
          },
          "tags": [],
          "quantity": 10,
          "weight": {
            "value": 1
          },
          "price": 0.01,
          "identified": true,
          "hp": {
            "max": 10,
            "value": 10
          },
          "hardness": 0,
          "carried": true,
          "unidentified": {
            "price": 0,
            "name": ""
          },
          "identifiedName": "Torch",
          "cl": 0,
          "aura": {
            "custom": false,
            "school": ""
          },
          "links": {
            "children": []
          },
          "damage": {
            "parts": [],
            "critParts": [],
            "nonCritParts": []
          },
          "attackParts": [],
          "conditionals": [],
          "contextNotes": [],
          "weightConverted": 1,
          "weightUnits": "lbs",
          "priceUnits": "gp",
          "size": "med",
          "equipped": false,
          "range": {
            "maxIncrements": 1
          }
        }
      },
      {
        "_id": "bsztkhkrhgmsbqpt",
        "name": "Waterskin",
        "permission": {
          "default": 0,
          "T9i9xVjdkHeFZC72": 3
        },
        "type": "loot",
        "flags": {
          "core": {
            "sourceId": "Compendium.pf1.items.bsztkhkrhgmsbqpt"
          }
        },
        "img": "systems/pf1/icons/items/inventory/waterskin.jpg",
        "effects": [],
        "labels": {
          "equipped": "<i class=\"fas fa-times\"></i>",
          "carried": "<i class=\"fas fa-check\"></i>",
          "identified": "<i class=\"fas fa-check\"></i>"
        },
        "hasAttack": false,
        "hasMultiAttack": false,
        "hasDamage": false,
        "hasAction": false,
        "showUnidentifiedData": false,
        "isStack": false,
        "isCharged": false,
        "price": 1,
        "empty": false,
        "totalWeight": 4,
        "units": "lbs",
        "system": {
          "subType": "gear",
          "description": {
            "value": " \n<p class=\"source\"><b>Source</b> <em>PZO1110</em></p> \n<p>A water or wineskin holds 1/2 gallon of liquid and weighs 4 lb when full.</p> \n<p><b>Empty Weight</b>: -; <b>Capacity</b>: 1/2 gallon/4 lb.<sup style=\"font-size: 10px\">1</sup></p> \n<p class=\"source\"><sup style=\"font-size: 10px\">1</sup> When made for Medium characters. Weighs one-quarter the normal amount when made for Small characters. Weighs twice the normal amount when made for Large characters. Containers carry one-quarter the normal amount when made for Small characters.</p> \n<p><a name=\"table-magic-containers\"></a></p> \n<h3 style=\"margin-top: 30px;border-bottom-style: solid;border-bottom-width: thin\"><a name=\"TOC-Magic-Containers\"></a>Magic Containers</h3> \n<p>Magic containers come in almost as many varieties as there are <em>alchemists</em>, and so are of inestimable value to <em>alchemists</em> with specific needs. Some of the most well-known magic containers are described here.</p> \n<p>Because of a varied nature of alchemical items and their effects, not all combinations of alchemical items and magic bottles are viable or even make sense, even though they technically might be allowed by the rules. The GM should have the final say on whether or not a particular alchemical item can function within one of the magical containers listed in this section.</p> \n<table border=\"1\" cellpadding=\"5\"> \n <thead> \n  <tr> \n   <th colspan=\"4\" class=\"text\">Magic Containers</th> \n  </tr> \n  <tr> \n   <th class=\"text\">Item</th> \n   <th class=\"text\">Price</th> \n   <th class=\"text\">Weight</th> \n   <th class=\"text\">Source</th> \n  </tr> \n </thead> \n <tbody> \n  <tr> \n   <td class=\"text\"><i>Focusing Flask</i></td> \n   <td class=\"money number\">700 gp</td> \n   <td class=\"money text\">1 lb.</td> \n   <td class=\"source text\"><em>PPC:AM</em></td> \n  </tr> \n  <tr> \n   <td class=\"text\"><i>Retort of Control</i></td> \n   <td class=\"money number\">13,000 gp</td> \n   <td class=\"marker\">-</td> \n   <td class=\"source text\"><em>PPC:AM</em></td> \n  </tr> \n  <tr> \n   <td class=\"text\"><i>Vial of Efficacious Medicine</i></td> \n   <td class=\"money number\">7,000 gp</td> \n   <td class=\"marker\">-</td> \n   <td class=\"source text\"><em>PPC:AM</em></td> \n  </tr> \n  <tr> \n   <td class=\"text\"><i>Winged Bottle</i></td> \n   <td class=\"money number\">1,620 gp</td> \n   <td class=\"money text\">1 lb.</td> \n   <td class=\"source text\"><em>PPC:AM</em></td> \n  </tr> \n </tbody> \n</table> \n",
            "chat": "",
            "unidentified": ""
          },
          "tags": [],
          "quantity": 1,
          "weight": {
            "value": 4
          },
          "price": 1,
          "identified": true,
          "hp": {
            "max": 10,
            "value": 10
          },
          "hardness": 0,
          "carried": true,
          "unidentified": {
            "price": 0,
            "name": ""
          },
          "identifiedName": "Waterskin",
          "cl": 0,
          "aura": {
            "custom": false,
            "school": ""
          },
          "links": {
            "children": []
          },
          "damage": {
            "parts": [],
            "critParts": [],
            "nonCritParts": []
          },
          "weightConverted": 4,
          "weightUnits": "lbs",
          "priceUnits": "gp",
          "attackParts": [],
          "conditionals": [],
          "contextNotes": [],
          "size": "med",
          "equipped": false,
          "range": {
            "maxIncrements": 1
          }
        }
      },
      {
        "_id": "manvtbznrwjmnrua",
        "name": "Rations, Trail",
        "permission": {
          "default": 0,
          "T9i9xVjdkHeFZC72": 3
        },
        "type": "loot",
        "flags": {
          "core": {
            "sourceId": "Compendium.pf1.items.manvtbznrwjmnrua"
          }
        },
        "img": "systems/pf1/icons/items/inventory/meat.jpg",
        "effects": [],
        "labels": {
          "equipped": "<i class=\"fas fa-times\"></i>",
          "carried": "<i class=\"fas fa-check\"></i>",
          "identified": "<i class=\"fas fa-check\"></i>"
        },
        "hasAttack": false,
        "hasMultiAttack": false,
        "hasDamage": false,
        "hasAction": false,
        "showUnidentifiedData": false,
        "isStack": true,
        "isCharged": false,
        "price": 0.5,
        "empty": false,
        "totalWeight": 5,
        "units": "lbs",
        "system": {
          "subType": "gear",
          "description": {
            "value": "<h4><span id=\"Rations_Trail\"><a name=\"TOC-Rations-Trail\"></a>Rations, Trail</span></h4>\r\n<p><b>Price</b> 5 sp; <b>Weight</b> 1 lb.</p>\r\n<p>The listed price is for a day's worth of food. This bland food is usually some kind of hard tack, jerky, and dried fruit, though the contents vary from region to region and the race of those creating it. As long as it stays dry, it can go for months without spoiling.</p>\r\n",
            "chat": "",
            "unidentified": ""
          },
          "tags": [],
          "quantity": 5,
          "weight": {
            "value": 1
          },
          "price": 0.5,
          "identified": true,
          "hp": {
            "max": 10,
            "value": 10
          },
          "hardness": 0,
          "carried": true,
          "unidentified": {
            "price": 0,
            "name": ""
          },
          "identifiedName": "Rations, Trail",
          "cl": 0,
          "aura": {
            "custom": false,
            "school": ""
          },
          "links": {
            "children": []
          },
          "damage": {
            "parts": []
          },
          "weightConverted": 1,
          "weightUnits": "lbs",
          "priceUnits": "gp",
          "size": "med",
          "equipped": false,
          "range": {
            "maxIncrements": 1
          }
        }
      },
      {
        "_id": "qlmtnppwxkubqyhp",
        "name": "Rope",
        "permission": {
          "default": 0,
          "T9i9xVjdkHeFZC72": 3
        },
        "type": "loot",
        "flags": {
          "core": {
            "sourceId": "Compendium.pf1.items.qlmtnppwxkubqyhp"
          }
        },
        "img": "systems/pf1/icons/items/inventory/dice.jpg",
        "effects": [],
        "labels": {
          "equipped": "<i class=\"fas fa-times\"></i>",
          "carried": "<i class=\"fas fa-check\"></i>",
          "identified": "<i class=\"fas fa-check\"></i>"
        },
        "hasAttack": false,
        "hasMultiAttack": false,
        "hasDamage": false,
        "hasAction": false,
        "showUnidentifiedData": false,
        "isStack": false,
        "isCharged": false,
        "price": 1,
        "empty": false,
        "totalWeight": 10,
        "units": "lbs",
        "system": {
          "subType": "gear",
          "description": {
            "value": "<h4><span id=\"Rope\"><a name=\"TOC-Rope\"></a>Rope</span></h4>\r\n<p><b>Hempen</b> The DC to escape hemp rope bonds is equal to 20 + the CMB of the creature that tied the bonds. Ropes do not need to make a check every round to maintain the pin. If the DC to escape is higher than 20 + the tying creatures CMB, the tied up creature cannot escape from the bonds, even with a natural 20 on the check. This rope has 2 hit points and can be burst with a DC 23 Strength check. <b>Price</b> 1 gp; <b>Weight</b> 10 lbs.</p>\r\n<p><b>FYI</b>: The <em>Equipment Trick</em> feat provides a number of options for using this item in combat.</p>\r\n<p><b>Silk Rope</b> This 50-foot length of silk rope has 4 hit points and can be broken with a DC 24 Strength check. <b>Price</b> 10 gp; <b>Weight</b> 5 lbs.</p>\r\n<p><b>Bloodvine Rope</b> This 50-foot length of tough, lightweight rope is made from alchemically treated bloodvine, a rare scarlet-colored vine that grows only in warm jungle environments. Though prized by climbers for its durability, bloodvine can also be used to bind creatures. Bloodvine rope has a <em>hardness</em> of 5 and 10 <em>hit points</em>, and can be broken with a DC 30 <em>Strength</em> check. A creature bound by bloodvine rope can escape with a DC 35 <em>Escape Artist</em> check or a DC 30 <em>Strength</em> check. The DC to create bloodvine rope with <em>Craft</em> (alchemy) is 30. <b>Price</b> 200 gp; <b>Weight</b> 5 lbs. <b>Source</b> <em>PRG:ACG</em></p>\r\n<p><b>Spider's Silk Rope</b> This 50-foot length of rope is woven of strands of silk from monstrous spiders. Rare to virtually nonexistent on the surface world, it is commonly used by the dark elves, though shorter spider's silk rope scraps (generally no more than 10 feet long) occasionally appear among goblins. Spider's silk rope has 6 hit points and can be broken with a DC 25 Strength check. <b>Price</b> 100 gp; <b>Weight</b> 4 lbs.</p>\r\n",
            "chat": "",
            "unidentified": ""
          },
          "tags": [],
          "quantity": 1,
          "weight": {
            "value": 10
          },
          "price": 1,
          "identified": true,
          "hp": {
            "max": 10,
            "value": 10
          },
          "hardness": 0,
          "carried": true,
          "unidentified": {
            "price": 0,
            "name": ""
          },
          "identifiedName": "",
          "cl": 0,
          "aura": {
            "custom": false,
            "school": ""
          },
          "links": {
            "children": []
          },
          "damage": {
            "parts": []
          },
          "weightConverted": 10,
          "weightUnits": "lbs",
          "priceUnits": "gp",
          "size": "med",
          "equipped": false,
          "range": {
            "maxIncrements": 1
          }
        }
      },
      {
        "_id": "iegwwsarycqwoezj",
        "name": "Bedroll",
        "permission": {
          "default": 0,
          "T9i9xVjdkHeFZC72": 3
        },
        "type": "loot",
        "flags": {
          "core": {
            "sourceId": "Compendium.pf1.items.iegwwsarycqwoezj"
          }
        },
        "img": "systems/pf1/icons/items/inventory/cloth-blue.jpg",
        "effects": [],
        "labels": {
          "equipped": "<i class=\"fas fa-times\"></i>",
          "carried": "<i class=\"fas fa-check\"></i>",
          "identified": "<i class=\"fas fa-check\"></i>"
        },
        "hasAttack": false,
        "hasMultiAttack": false,
        "hasDamage": false,
        "hasAction": false,
        "showUnidentifiedData": false,
        "isStack": false,
        "isCharged": false,
        "price": 0.1,
        "empty": false,
        "totalWeight": 5,
        "units": "lbs",
        "system": {
          "subType": "gear",
          "description": {
            "value": "<p>This consists of two woolen sheets sewn together along the bottom and one side to create a bag for sleeping in. Some have cloth straps along the open side so the bedroll can be tied closed while you are sleeping. It can be rolled and tied into a tight coil for storage or transport. Most people use a <em>blanket</em> with the bedroll to stay warm or provide a ground cushion.</p>",
            "chat": "",
            "unidentified": ""
          },
          "tags": [],
          "quantity": 1,
          "weight": {
            "value": 5
          },
          "price": 0.1,
          "identified": true,
          "hp": {
            "max": 10,
            "value": 10
          },
          "hardness": 0,
          "carried": true,
          "unidentified": {
            "price": 0,
            "name": ""
          },
          "identifiedName": "Bedroll",
          "cl": 0,
          "aura": {
            "custom": false,
            "school": ""
          },
          "links": {
            "children": []
          },
          "damage": {
            "parts": [],
            "critParts": [],
            "nonCritParts": []
          },
          "attackParts": [],
          "conditionals": [],
          "contextNotes": [],
          "weightConverted": 5,
          "weightUnits": "lbs",
          "priceUnits": "gp",
          "size": "med",
          "equipped": false,
          "range": {
            "maxIncrements": 1
          }
        }
      },
      {
        "_id": "hwrgbauvnnirgqdy",
        "name": "Feed, Animal",
        "permission": {
          "default": 0,
          "T9i9xVjdkHeFZC72": 3
        },
        "type": "loot",
        "flags": {
          "core": {
            "sourceId": "Compendium.pf1.items.hwrgbauvnnirgqdy"
          }
        },
        "img": "systems/pf1/icons/items/inventory/dice.jpg",
        "effects": [],
        "labels": {
          "equipped": "<i class=\"fas fa-times\"></i>",
          "carried": "<i class=\"fas fa-check\"></i>",
          "identified": "<i class=\"fas fa-check\"></i>"
        },
        "hasAttack": false,
        "hasMultiAttack": false,
        "hasDamage": false,
        "hasAction": false,
        "showUnidentifiedData": false,
        "isStack": true,
        "isCharged": false,
        "price": 0.05,
        "empty": false,
        "totalWeight": 50,
        "units": "lbs",
        "system": {
          "subType": "gear",
          "description": {
            "value": "\r\n<p><b>Price</b> 5 cp/day; <b>Weight</b> 10 lbs.</p>\r\n<p><em>Horses</em>, donkeys, mules, and <em>ponies</em> can graze to sustain themselves, but providing feed for them is better. If you have a <em>riding dog</em>, you have to feed it meat.</p>\r\n\r\n",
            "chat": "",
            "unidentified": ""
          },
          "tags": [],
          "quantity": 5,
          "weight": {
            "value": 10
          },
          "price": 0.05,
          "identified": true,
          "hp": {
            "max": 10,
            "value": 10
          },
          "hardness": 0,
          "carried": true,
          "unidentified": {
            "price": 0,
            "name": ""
          },
          "identifiedName": "Feed, Animal",
          "cl": 0,
          "aura": {
            "custom": false,
            "school": ""
          },
          "links": {
            "children": []
          },
          "damage": {
            "parts": [],
            "critParts": [],
            "nonCritParts": []
          },
          "weightConverted": 10,
          "weightUnits": "lbs",
          "priceUnits": "gp",
          "attackParts": [],
          "conditionals": [],
          "contextNotes": [],
          "size": "med",
          "equipped": false,
          "range": {
            "maxIncrements": 1
          }
        }
      },
      {
        "_id": "zkfnrahkeufabend",
        "name": "Bit And Bridle",
        "permission": {
          "default": 0,
          "T9i9xVjdkHeFZC72": 3
        },
        "type": "loot",
        "flags": {
          "core": {
            "sourceId": "Compendium.pf1.items.zkfnrahkeufabend"
          }
        },
        "img": "systems/pf1/icons/items/inventory/dice.jpg",
        "effects": [],
        "labels": {
          "equipped": "<i class=\"fas fa-times\"></i>",
          "carried": "<i class=\"fas fa-check\"></i>",
          "identified": "<i class=\"fas fa-check\"></i>"
        },
        "hasAttack": false,
        "hasMultiAttack": false,
        "hasDamage": false,
        "hasAction": false,
        "showUnidentifiedData": false,
        "isStack": false,
        "isCharged": false,
        "price": 2,
        "empty": false,
        "totalWeight": 1,
        "units": "lbs",
        "system": {
          "subType": "gear",
          "description": {
            "value": "\r\n<p><b>Price</b> 2 gp; <b>Weight</b> 1 lb.</p>\r\n<p>A bridle is a piece of equipment used to direct a <em>horse</em>. The bridle includes both the headstall that holds a bit that goes in the mouth of a <em>horse</em>, and the reins that are attached to the bit.</p>\r\n\r\n",
            "chat": "",
            "unidentified": ""
          },
          "tags": [],
          "quantity": 1,
          "weight": {
            "value": 1
          },
          "price": 2,
          "identified": true,
          "hp": {
            "max": 10,
            "value": 10
          },
          "hardness": 0,
          "carried": true,
          "unidentified": {
            "price": 0,
            "name": ""
          },
          "identifiedName": "",
          "cl": 0,
          "aura": {
            "custom": false,
            "school": ""
          },
          "links": {
            "children": []
          },
          "damage": {
            "parts": []
          },
          "weightConverted": 1,
          "weightUnits": "lbs",
          "priceUnits": "gp",
          "size": "med",
          "equipped": false,
          "range": {
            "maxIncrements": 1
          }
        }
      },
      {
        "_id": "Ueae6c2qqJJGpncA",
        "name": "Mess Kit",
        "permission": {
          "default": 0,
          "ZuWclcb9BUy2aZSN": 3
        },
        "type": "container",
        "flags": {
          "core": {
            "sourceId": "Item.F1QKvOYGM9u5YI1x"
          }
        },
        "img": "icons/containers/chest/chest-simple-box-red.webp",
        "effects": [],
        "labels": {
          "equipped": "<i class=\"fas fa-times\"></i>",
          "carried": "<i class=\"fas fa-check\"></i>",
          "identified": "<i class=\"fas fa-check\"></i>"
        },
        "hasAttack": false,
        "hasMultiAttack": false,
        "hasDamage": false,
        "hasAction": false,
        "showUnidentifiedData": false,
        "isStack": false,
        "isCharged": false,
        "price": 0.2,
        "empty": false,
        "totalWeight": 1,
        "units": "lbs",
        "system": {
          "basePrice": 0.2,
          "unidentified": {
            "basePrice": 0,
            "price": 0,
            "name": ""
          },
          "description": {
            "value": "<p><span style=\"color: #191813; font-size: 13px;\">This kit includes a plate, bowl, cup, fork, knife, and spoon, made of wood, horn, or tin. Each item has a handle or small hole, and can be tied together using the included leather cord.</span></p>",
            "chat": "",
            "unidentified": ""
          },
          "tags": [],
          "quantity": 1,
          "weight": {
            "value": 0.1
          },
          "price": 0.2,
          "identified": true,
          "hp": {
            "max": 10,
            "value": 10
          },
          "hardness": 0,
          "carried": true,
          "identifiedName": "Mess Kit",
          "cl": 0,
          "aura": {
            "custom": false,
            "school": ""
          },
          "inventoryItems": [
            {
              "name": "Plate",
              "type": "loot",
              "_id": "t95qxxcbkgau4zwa",
              "img": "systems/pf1/icons/items/inventory/dice.jpg",
              "labels": {
                "equipped": "<i class=\"fas fa-times\"></i>",
                "carried": "<i class=\"fas fa-check\"></i>",
                "identified": "<i class=\"fas fa-check\"></i>"
              },
              "hasAttack": false,
              "hasMultiAttack": false,
              "hasDamage": false,
              "hasAction": false,
              "showUnidentifiedData": false,
              "isStack": false,
              "isCharged": false,
              "price": 0,
              "empty": false,
              "totalWeight": 0.4,
              "units": "lbs",
              "system": {
                "subType": "tradeGoods",
                "description": {
                  "value": "",
                  "chat": "",
                  "unidentified": ""
                },
                "tags": [],
                "quantity": 1,
                "weight": {
                  "value": 0.4
                },
                "price": 0,
                "identified": true,
                "hp": {
                  "max": 10,
                  "value": 10
                },
                "hardness": 0,
                "carried": true,
                "unidentified": {
                  "price": 0,
                  "name": ""
                },
                "identifiedName": "Plate",
                "cl": 0,
                "aura": {
                  "custom": false,
                  "school": ""
                },
                "links": {
                  "children": []
                },
                "typeName": "Trade Good",
                "weightConverted": 0.4,
                "weightUnits": "lbs",
                "priceUnits": "gp",
                "damage": {
                  "parts": [],
                  "critParts": [],
                  "nonCritParts": []
                },
                "attackParts": [],
                "conditionals": [],
                "contextNotes": [],
                "size": "med",
                "equipped": false,
                "range": {
                  "maxIncrements": 1
                }
              }
            },
            {
              "name": "Bowl",
              "type": "loot",
              "img": "icons/containers/kitchenware/bowl-clay-brown.webp",
              "labels": {
                "equipped": "<i class=\"fas fa-times\"></i>",
                "carried": "<i class=\"fas fa-check\"></i>",
                "identified": "<i class=\"fas fa-check\"></i>"
              },
              "hasAttack": false,
              "hasMultiAttack": false,
              "hasDamage": false,
              "hasAction": false,
              "showUnidentifiedData": false,
              "isStack": false,
              "isCharged": false,
              "price": 0,
              "empty": false,
              "totalWeight": 0.2,
              "units": "lbs",
              "_id": "q4asw26dyrjavece",
              "system": {
                "subType": "tradeGoods",
                "description": {
                  "value": "",
                  "chat": "",
                  "unidentified": ""
                },
                "tags": [],
                "quantity": 1,
                "weight": {
                  "value": 0.2
                },
                "price": 0,
                "identified": true,
                "hp": {
                  "max": 10,
                  "value": 10
                },
                "hardness": 0,
                "carried": true,
                "unidentified": {
                  "price": 0,
                  "name": ""
                },
                "identifiedName": "Bowl",
                "cl": 0,
                "aura": {
                  "custom": false,
                  "school": ""
                },
                "links": {
                  "children": []
                },
                "typeName": "Trade Good",
                "weightConverted": 0.2,
                "weightUnits": "lbs",
                "priceUnits": "gp",
                "damage": {
                  "parts": [],
                  "critParts": [],
                  "nonCritParts": []
                },
                "attackParts": [],
                "conditionals": [],
                "contextNotes": [],
                "size": "med",
                "equipped": false,
                "range": {
                  "maxIncrements": 1
                }
              }
            },
            {
              "name": "Fork",
              "type": "loot",
              "img": "icons/tools/cooking/fork-steel-tan.webp",
              "labels": {
                "equipped": "<i class=\"fas fa-times\"></i>",
                "carried": "<i class=\"fas fa-check\"></i>",
                "identified": "<i class=\"fas fa-check\"></i>"
              },
              "hasAttack": false,
              "hasMultiAttack": false,
              "hasDamage": false,
              "hasAction": false,
              "showUnidentifiedData": false,
              "isStack": false,
              "isCharged": false,
              "price": 0,
              "empty": false,
              "totalWeight": 0.1,
              "units": "lbs",
              "_id": "e1r0sdabl9awmxid",
              "system": {
                "subType": "tradeGoods",
                "description": {
                  "value": "",
                  "chat": "",
                  "unidentified": ""
                },
                "tags": [],
                "quantity": 1,
                "weight": {
                  "value": 0.1
                },
                "price": 0,
                "identified": true,
                "hp": {
                  "max": 10,
                  "value": 10
                },
                "hardness": 0,
                "carried": true,
                "unidentified": {
                  "price": 0,
                  "name": ""
                },
                "identifiedName": "Fork",
                "cl": 0,
                "aura": {
                  "custom": false,
                  "school": ""
                },
                "links": {
                  "children": []
                },
                "typeName": "Trade Good",
                "weightConverted": 0.1,
                "weightUnits": "lbs",
                "priceUnits": "gp",
                "damage": {
                  "parts": [],
                  "critParts": [],
                  "nonCritParts": []
                },
                "attackParts": [],
                "conditionals": [],
                "contextNotes": [],
                "size": "med",
                "equipped": false,
                "range": {
                  "maxIncrements": 1
                }
              }
            },
            {
              "name": "Knife",
              "type": "loot",
              "img": "icons/tools/cooking/knife-chef-steel-brown.webp",
              "labels": {
                "equipped": "<i class=\"fas fa-times\"></i>",
                "carried": "<i class=\"fas fa-check\"></i>",
                "identified": "<i class=\"fas fa-check\"></i>"
              },
              "hasAttack": false,
              "hasMultiAttack": false,
              "hasDamage": false,
              "hasAction": false,
              "showUnidentifiedData": false,
              "isStack": false,
              "isCharged": false,
              "price": 0,
              "empty": false,
              "totalWeight": 0.1,
              "units": "lbs",
              "_id": "swpiosj6uadvp8xy",
              "system": {
                "subType": "tradeGoods",
                "description": {
                  "value": "",
                  "chat": "",
                  "unidentified": ""
                },
                "tags": [],
                "quantity": 1,
                "weight": {
                  "value": 0.1
                },
                "price": 0,
                "identified": true,
                "hp": {
                  "max": 10,
                  "value": 10
                },
                "hardness": 0,
                "carried": true,
                "unidentified": {
                  "price": 0,
                  "name": ""
                },
                "identifiedName": "Knife",
                "cl": 0,
                "aura": {
                  "custom": false,
                  "school": ""
                },
                "links": {
                  "children": []
                },
                "typeName": "Trade Good",
                "weightConverted": 0.1,
                "weightUnits": "lbs",
                "priceUnits": "gp",
                "damage": {
                  "parts": [],
                  "critParts": [],
                  "nonCritParts": []
                },
                "attackParts": [],
                "conditionals": [],
                "contextNotes": [],
                "size": "med",
                "equipped": false,
                "range": {
                  "maxIncrements": 1
                }
              }
            },
            {
              "name": "Spoon",
              "type": "loot",
              "img": "icons/tools/cooking/soup-ladle.webp",
              "labels": {
                "equipped": "<i class=\"fas fa-times\"></i>",
                "carried": "<i class=\"fas fa-check\"></i>",
                "identified": "<i class=\"fas fa-check\"></i>"
              },
              "hasAttack": false,
              "hasMultiAttack": false,
              "hasDamage": false,
              "hasAction": false,
              "showUnidentifiedData": false,
              "isStack": false,
              "isCharged": false,
              "price": 0,
              "empty": false,
              "totalWeight": 0.1,
              "units": "lbs",
              "_id": "pxs9209y5ybsemki",
              "system": {
                "subType": "tradeGoods",
                "description": {
                  "value": "",
                  "chat": "",
                  "unidentified": ""
                },
                "tags": [],
                "quantity": 1,
                "weight": {
                  "value": 0.1
                },
                "price": 0,
                "identified": true,
                "hp": {
                  "max": 10,
                  "value": 10
                },
                "hardness": 0,
                "carried": true,
                "unidentified": {
                  "price": 0,
                  "name": ""
                },
                "identifiedName": "Spoon",
                "cl": 0,
                "aura": {
                  "custom": false,
                  "school": ""
                },
                "links": {
                  "children": []
                },
                "typeName": "Trade Good",
                "weightConverted": 0.1,
                "weightUnits": "lbs",
                "priceUnits": "gp",
                "damage": {
                  "parts": [],
                  "critParts": [],
                  "nonCritParts": []
                },
                "attackParts": [],
                "conditionals": [],
                "contextNotes": [],
                "size": "med",
                "equipped": false,
                "range": {
                  "maxIncrements": 1
                }
              }
            }
          ],
          "maxWeight": null,
          "weightReduction": 0,
          "baseWeight": 0.1,
          "damage": {
            "parts": [],
            "critParts": [],
            "nonCritParts": []
          },
          "attackParts": [],
          "conditionals": [],
          "contextNotes": [],
          "weightConverted": 1,
          "weightUnits": "lbs",
          "priceUnits": "gp",
          "size": "med",
          "range": {
            "maxIncrements": 1
          },
          "-=baseWeight": null
        }
      },
      {
        "_id": "dn6yBOrH8vUpXahk",
        "name": "Saddle (Riding)",
        "permission": {
          "default": 0,
          "tbXbnTpRAtmE0QDr": 3
        },
        "type": "loot",
        "flags": {
          "core": {
            "sourceId": "Compendium.pf1.items.dn6yBOrH8vUpXahk"
          }
        },
        "img": "systems/pf1/icons/items/inventory/dice.jpg",
        "effects": [],
        "labels": {
          "equipped": "<i class=\"fas fa-times\"></i>",
          "carried": "<i class=\"fas fa-check\"></i>",
          "identified": "<i class=\"fas fa-check\"></i>"
        },
        "hasAttack": false,
        "hasMultiAttack": false,
        "hasDamage": false,
        "hasAction": false,
        "showUnidentifiedData": false,
        "isStack": false,
        "isCharged": false,
        "price": 10,
        "empty": false,
        "totalWeight": 25,
        "units": "lbs",
        "system": {
          "subType": "gear",
          "description": {
            "value": "<p style=\"box-sizing: border-box; user-select: text; color: #191813; font-size: 13px;\">Source&nbsp;<a style=\"box-sizing: border-box; user-select: text;\" href=\"http://paizo.com/products/btpy8tmc?Pathfinder-Roleplaying-Game-Ultimate-Equipment\" target=\"_blank\" rel=\"noopener\">Ultimate Equipment pg. 81</a>,&nbsp;<a style=\"box-sizing: border-box; user-select: text;\" href=\"http://paizo.com/pathfinderRPG/v5748btpy88yj\" target=\"_blank\" rel=\"noopener\">PRPG Core Rulebook pg. 159</a><br style=\"box-sizing: border-box; user-select: text;\">Price&nbsp;60 gp (exotic, military), 15 gp (exotic, pack), 30 gp (exotic, riding), 20 gp (military), 5 gp (pack), 10 gp (riding);&nbsp;Weight&nbsp;40 lbs. (exotic, military), 20 lbs. (exotic, pack), 30 lbs. (exotic, riding), 30 lbs. (military), 15 lbs. (pack), 25 lbs. (riding)</p>\n<h3 style=\"box-sizing: border-box; user-select: text; color: #191813;\">Description</h3>\n<p style=\"box-sizing: border-box; user-select: text; color: #191813; font-size: 13px;\">Saddles are used to support a rider or supplies on a mount.<br style=\"box-sizing: border-box; user-select: text;\"><br style=\"box-sizing: border-box; user-select: text;\">Military Saddle: This saddle braces the rider, providing a +2 circumstance bonus on Ride checks related to staying in the saddle. If the rider is knocked unconscious while in a military saddle, he has a 75% chance to stay in the saddle.<br style=\"box-sizing: border-box; user-select: text;\"><br style=\"box-sizing: border-box; user-select: text;\">Pack Saddle: A pack saddle holds gear and supplies, but not a rider. It holds as much gear as the mount can carry.<br style=\"box-sizing: border-box; user-select: text;\"><br style=\"box-sizing: border-box; user-select: text;\">Riding Saddle: These saddles are the most pervasive type of riding equipment. If the rider is knocked unconscious while in a riding saddle, he has a 50% chance to stay in the saddle.<br style=\"box-sizing: border-box; user-select: text;\"><br style=\"box-sizing: border-box; user-select: text;\">Exotic Saddle: These saddles are designed for a variety of unusual mounts, each customized for a specific type of beast. Exotic saddles come in military, pack, and riding styles, just as normal saddles do, and have the same traits.</p>",
            "chat": "",
            "unidentified": ""
          },
          "tags": [],
          "quantity": 1,
          "weight": {
            "value": 25
          },
          "price": 10,
          "identified": true,
          "hp": {
            "max": 10,
            "value": 10
          },
          "hardness": 0,
          "carried": true,
          "unidentified": {
            "price": 0,
            "name": ""
          },
          "identifiedName": "Saddle (Riding)",
          "cl": 0,
          "aura": {
            "custom": false,
            "school": ""
          },
          "links": {
            "children": []
          },
          "damage": {
            "parts": [],
            "critParts": [],
            "nonCritParts": []
          },
          "attackParts": [],
          "conditionals": [],
          "contextNotes": [],
          "weightConverted": 25,
          "weightUnits": "lbs",
          "priceUnits": "gp",
          "size": "med",
          "equipped": false,
          "range": {
            "maxIncrements": 1
          }
        }
      },
      {
        "_id": "gW1bPqOvVfpmqEqd",
        "name": "Saddlebags",
        "permission": {
          "default": 0,
          "tbXbnTpRAtmE0QDr": 3
        },
        "type": "loot",
        "flags": {
          "core": {
            "sourceId": "Compendium.pf1.items.gW1bPqOvVfpmqEqd"
          }
        },
        "img": "systems/pf1/icons/items/inventory/dice.jpg",
        "effects": [],
        "labels": {
          "equipped": "<i class=\"fas fa-times\"></i>",
          "carried": "<i class=\"fas fa-check\"></i>",
          "identified": "<i class=\"fas fa-check\"></i>"
        },
        "hasAttack": false,
        "hasMultiAttack": false,
        "hasDamage": false,
        "hasAction": false,
        "showUnidentifiedData": false,
        "isStack": false,
        "isCharged": false,
        "price": 4,
        "empty": false,
        "totalWeight": 8,
        "units": "lbs",
        "system": {
          "subType": "gear",
          "description": {
            "value": "<p>Source&nbsp;<a href=\"http://paizo.com/products/btpy8tmc?Pathfinder-Roleplaying-Game-Ultimate-Equipment\" target=\"_blank\" rel=\"noopener\">Ultimate Equipment pg. 81</a>,&nbsp;<a href=\"http://paizo.com/pathfinderRPG/v5748btpy88yj\" target=\"_blank\" rel=\"noopener\">PRPG Core Rulebook pg. 159</a><br>Price&nbsp;4 gp;&nbsp;Weight&nbsp;8 lbs.<br>Category&nbsp;Animal Gear</p>\n<h3>Description</h3>\n<p>These sturdy, weatherproof bags are draped over a saddle to add extra carrying capacity. Each side of a saddlebag can typically carry 20 pound of items that can fit in the bags. Saddlebags do not increase the amount of weight a mount can carry; they merely give riders a place to stow their equipment.</p>",
            "chat": "",
            "unidentified": ""
          },
          "tags": [],
          "quantity": 1,
          "weight": {
            "value": 8
          },
          "price": 4,
          "identified": true,
          "hp": {
            "max": 10,
            "value": 10
          },
          "hardness": 0,
          "carried": true,
          "unidentified": {
            "price": 0,
            "name": ""
          },
          "identifiedName": "Saddlebags",
          "cl": 0,
          "aura": {
            "custom": false,
            "school": ""
          },
          "links": {
            "children": []
          },
          "damage": {
            "parts": []
          },
          "weightConverted": 8,
          "weightUnits": "lbs",
          "priceUnits": "gp",
          "size": "med",
          "equipped": false,
          "range": {
            "maxIncrements": 1
          }
        }
      },
      {
        "_id": "habofoapdifirevm",
        "name": "Pot, Cooking (Iron)",
        "permission": {
          "default": 0,
          "T9i9xVjdkHeFZC72": 3
        },
        "type": "loot",
        "flags": {
          "core": {
            "sourceId": "Compendium.pf1.items.habofoapdifirevm"
          }
        },
        "img": "icons/tools/cooking/cauldron-empty.webp",
        "effects": [],
        "labels": {
          "equipped": "<i class=\"fas fa-times\"></i>",
          "carried": "<i class=\"fas fa-check\"></i>",
          "identified": "<i class=\"fas fa-check\"></i>"
        },
        "hasAttack": false,
        "hasMultiAttack": false,
        "hasDamage": false,
        "hasAction": false,
        "showUnidentifiedData": false,
        "isStack": false,
        "isCharged": false,
        "price": 0.8,
        "empty": false,
        "totalWeight": 4,
        "units": "lbs",
        "system": {
          "subType": "gear",
          "description": {
            "value": " \n<p class=\"source\"><b>Source</b> <em>PZO1110</em></p> \n<p>Cooking pots come in a variety of materials, but the most common is formed of iron.</p> \n<p>A mithral cooking pot weighs 2 lbs. and costs 2,001 gp.</p> \n<p><b>Empty Weight</b>: 2 lb.; <b>Capacity</b>: 1 gallon/8 lb.</p> \n",
            "chat": "",
            "unidentified": ""
          },
          "tags": [],
          "quantity": 1,
          "weight": {
            "value": 4
          },
          "price": 0.8,
          "identified": true,
          "hp": {
            "max": 10,
            "value": 10
          },
          "hardness": 0,
          "carried": true,
          "unidentified": {
            "price": 0,
            "name": ""
          },
          "identifiedName": "Pot, Cooking (Iron)",
          "cl": 0,
          "aura": {
            "custom": false,
            "school": ""
          },
          "links": {
            "children": []
          },
          "damage": {
            "parts": [],
            "critParts": [],
            "nonCritParts": []
          },
          "weightConverted": 4,
          "attackParts": [],
          "conditionals": [],
          "contextNotes": [],
          "weightUnits": "lbs",
          "priceUnits": "gp",
          "size": "med",
          "equipped": false,
          "range": {
            "maxIncrements": 1
          }
        }
      }
    ]
  }
}
