{
  "_id": "bfadldxesvowjxhd",
  "name": "Kit, Disguise, Statue",
  "type": "loot",
  "img": "systems/pf1/icons/items/inventory/dice.jpg",
  "sort": 0,
  "flags": {},
  "system": {
    "description": {
      "value": "\r\n<p><b>Price</b> 50 gp; <b>Weight</b> 8 lbs.</p>\r\n<p>This <em>disguise kit</em> includes metallic or stone-colored makeup and cloth that you can apply to appear to be a statue; it grants a +2 bonus only on <em>Disguise</em> checks to resemble metal, stone, or similar materials. You take a -5 penalty on <em>Disguise</em> checks when impersonating an inanimate object. A viewer can attempt a single <em>Perception</em> check opposed by your <em>Disguise</em> check upon viewing you, and an additional check each time a creature interacts with you. This kit is <em>exhausted</em> after 10 uses.</p>\r\n\r\n"
    },
    "tags": [],
    "weight": {
      "value": 8
    },
    "price": 50,
    "equipped": false,
    "changes": [],
    "contextNotes": [],
    "links": {
      "children": []
    },
    "scriptCalls": [],
    "subType": "gear"
  }
}
