{
  "_id": "losspxodvsjlcdfg",
  "name": "Mead",
  "type": "loot",
  "img": "systems/pf1/icons/items/inventory/dice.jpg",
  "sort": 0,
  "flags": {},
  "system": {
    "description": {
      "value": "<h4><span id=\"Mead\"><a name=\"TOC-Mead\"></a>Mead</span></h4>\r\n<p><b>Price</b> 5 CP-2 gp; <b>Weight</b> 1/2 lb.-8 lbs.</p>\r\n<p>This alcoholic beverage is made by fermenting honey and water. It may be flavored with spices, fruit, or hops.</p>\r\n"
    },
    "tags": [],
    "equipped": false,
    "changes": [],
    "contextNotes": [],
    "links": {
      "children": []
    },
    "scriptCalls": [],
    "subType": "gear"
  }
}
