{
  "_id": "fubyjhqaertcabjp",
  "name": "Mistletoe",
  "type": "loot",
  "img": "systems/pf1/icons/items/inventory/dice.jpg",
  "sort": 0,
  "flags": {},
  "system": {
    "description": {
      "value": "\r\n<p class=\"source\"><b>Source</b> <em>PZO9410</em></p>\r\n<p>This golden-colored parasitic plant grows on many different sorts of trees. Druids harvest mistletoe with specially prepared tools and during sacred times of the year.</p>\r\n"
    },
    "tags": [],
    "equipped": false,
    "changes": [],
    "contextNotes": [],
    "links": {
      "children": []
    },
    "scriptCalls": [],
    "subType": "gear"
  }
}
