{
  "_id": "bovkbbpfptslfhvz",
  "name": "Musk, Harpy",
  "type": "loot",
  "img": "systems/pf1/icons/items/inventory/dice.jpg",
  "sort": 0,
  "flags": {},
  "system": {
    "description": {
      "value": "\r\n<p class=\"source\"><b>Source</b> RotRPG</p>\r\n<p>The reek of this doubtful cure-all proves useful at scaring off <em>goblins</em>. If smeared on a surface or used as a thrown weapon, the musk fills a 30-foot area with the stink of <em>harpies</em> for 1 minute. Any <em>goblin</em> who enters the area must make a DC 14 <em>Will</em> save or be <em>shaken</em> for 1 minute.</p>\r\n<h3 style=\"margin-top: 30px;border-bottom-style: solid;border-bottom-width: thin\"><span id=\"Alchemical_Reagents\"><a name=\"TOC-Alchemical-Reagents\"></a>Alchemical Reagents</span></h3>\r\n"
    },
    "tags": [],
    "price": 2,
    "equipped": false,
    "changes": [],
    "contextNotes": [],
    "links": {
      "children": []
    },
    "scriptCalls": [],
    "subType": "gear"
  }
}
