{
  "_id": "wfbzptoyeyvicieq",
  "name": "Nepenthe",
  "type": "loot",
  "img": "systems/pf1/icons/items/inventory/dice.jpg",
  "sort": 0,
  "flags": {},
  "system": {
    "description": {
      "value": "\r\n<p class=\"source\"><b>Source</b> <a href=\"http://amzn.to/2z71S07\" target=\"_blank\" rel=\"noopener\">PZO1140</a></p>\r\n<p><b>Price</b> 400 gp</p>\r\n<p>This foot-tall blue-green pitcher <em>plant</em> produces a pollen that smells faintly of mint and lures insects and even small vertebrates toward its dangerous mouth.</p>\r\n<p><b>Gather</b> DC 20; <b>Yield</b> 1 dose</p>\r\n<p><b>Terrain</b> warm forests or swamps</p>\r\n<p><b>Preparation</b> A dose of pollen must be mixed with alchemical reagents with a successful DC 16 <em>Craft</em> (alchemy) check and then left to sit for 1 hour before it can be used.</p>\r\n<p><b>Use</b> A dose of nepenthe pollen must be inhaled as a <em>standard action</em>, whereupon the potent vapors act upon unpleasant or unknown thoughts and memories. This grants the creature a new saving throw to immediately end a single <em>mind-affecting</em> effect currently affecting the creature (effects that allow no saving throw cannot be removed in this way). An unwilling creature can be dosed with the pollen as a <em>touch attack</em> that provokes an <em>attack of opportunity</em>. A creature can be affected by a dose of nepenthe only once in a single 24-hour period. This is a <em>poison</em> effect.</p>\r\n"
    },
    "tags": [],
    "price": 400,
    "equipped": false,
    "changes": [],
    "contextNotes": [],
    "links": {
      "children": []
    },
    "scriptCalls": [],
    "subType": "gear"
  }
}
