{
  "_id": "yCps4zSP1g7KYsrW",
  "name": "Outfit, Doctor's",
  "type": "equipment",
  "img": "systems/pf1/icons/items/inventory/mask-bird.jpg",
  "sort": 0,
  "flags": {},
  "system": {
    "description": {
      "value": "<p class=\"source\" style=\"box-sizing: border-box; user-select: text; color: #191813; font-size: 13px;\"><strong style=\"box-sizing: border-box; user-select: text;\">Source</strong>&nbsp;<em>PZO9410</em></p>\n<p style=\"box-sizing: border-box; user-select: text; color: #191813; font-size: 13px;\">Any creature wearing this outfit gains a +2&nbsp;<em>circumstance bonus</em>&nbsp;on&nbsp;<em>Fortitude</em>&nbsp;saves made to resist contact diseases.</p>\n<p style=\"box-sizing: border-box; user-select: text; color: #191813; font-size: 13px;\">As this outfit does not cost 10 gp or less, player characters can not choose this outfit for free when first beginning play.</p>"
    },
    "tags": [],
    "weight": {
      "value": 6
    },
    "price": 150,
    "identifiedName": "Outfit, Doctor's",
    "changes": [],
    "contextNotes": [
      {
        "text": "+[[2]] <b>Circumstance</b> vs Contact Diseases",
        "target": "savingThrows",
        "subTarget": "fort"
      }
    ],
    "actions": [],
    "attackNotes": [],
    "effectNotes": [],
    "links": {
      "children": [],
      "charges": []
    },
    "scriptCalls": [],
    "subType": "misc",
    "equipmentSubtype": "clothing",
    "slot": "body"
  }
}
