{
  "_id": "rsunbmbudtzfaozq",
  "name": "Owlbear Blinders",
  "type": "loot",
  "img": "systems/pf1/icons/items/inventory/dice.jpg",
  "sort": 0,
  "flags": {},
  "system": {
    "description": {
      "value": "\r\n<p class=\"source\"><b>Source</b> <em>PCh:DDR</em></p>\r\n<p>Used in siege warfare, these blinders restrict the <em>owlbear's</em> vision to directly where its head is pointing, helping to stop the <em>owlbear</em> from getting distracted and allowing the rider to focus its attention. This gives the rider a +2 equipment bonus to <em>Ride</em> checks made to control the <em>owlbear</em>, but gives the <em>owlbear</em> a -2 penalty to <em>Perception</em> checks.</p>\r\n\r\n"
    },
    "tags": [],
    "weight": {
      "value": 2
    },
    "price": 2,
    "equipped": false,
    "changes": [],
    "contextNotes": [],
    "links": {
      "children": []
    },
    "scriptCalls": [],
    "subType": "gear"
  }
}
