{
  "_id": "iydmpohpvbtfulph",
  "name": "Paper, Rice",
  "type": "loot",
  "img": "systems/pf1/icons/items/inventory/dice.jpg",
  "sort": 0,
  "flags": {},
  "system": {
    "description": {
      "value": "\r\n<p>This sheet of paper is made of rice, straw, or tree bark. It has hardness 0, 1 hit point, and a break DC of 2.</p>\r\n<p><b>Price (per sheet)</b> 5 cp; <b>Weight</b> -</p>\r\n"
    },
    "tags": [],
    "price": 0.1,
    "equipped": false,
    "changes": [],
    "contextNotes": [],
    "links": {
      "children": []
    },
    "scriptCalls": [],
    "subType": "gear"
  }
}
