{
  "_id": "wjvxmolafiegvesl",
  "name": "Pouch, Belt",
  "type": "loot",
  "img": "icons/containers/bags/coinpouch-simple-leather-tan.webp",
  "sort": 0,
  "flags": {},
  "system": {
    "description": {
      "value": " \n<p class=\"source\"><b>Source</b> <em>PZO1110</em></p> \n<p>A belt pouch is crafted of soft cloth or leather. They typically hold up to 10 lb. or 1/5 cubic ft. of items.</p> \n<p><b>Empty Weight</b>: 1/2 lb.<sup style=\"font-size: 10px\">1</sup> <b>Capacity</b>: 1/5 cubic ft./10 lb.<sup style=\"font-size: 10px\">1</sup></p> \n<p class=\"source\"><sup style=\"font-size: 10px\">1</sup> When made for Medium characters. Weighs one-quarter the normal amount when made for Small characters. Weighs twice the normal amount when made for Large characters. Containers carry one-quarter the normal amount when made for Small characters.</p> \n"
    },
    "tags": [],
    "weight": {
      "value": 0.5
    },
    "price": 1,
    "equipped": false,
    "identifiedName": "Pouch, Belt",
    "changes": [],
    "contextNotes": [],
    "links": {
      "children": []
    },
    "scriptCalls": [],
    "subType": "gear"
  }
}
