{
  "_id": "fivuhxpmzlwsqifk",
  "name": "Rack",
  "type": "loot",
  "img": "systems/pf1/icons/items/inventory/dice.jpg",
  "sort": 0,
  "flags": {},
  "system": {
    "description": {
      "value": "\r\n<p class=\"source\"><b>Source</b>: <a title=\"PZO1135\" href=\"http://amzn.to/2chJpnf\" target=\"_blank\" rel=\"noopener\">PZO1135</a></p>\r\n<p><b>Price</b> 300 gp; <b>Weight</b> 500 lbs.</p>\r\n<p><b>Note</b> Each act of torture shifts the torturer's <em>alignment</em> one step toward evil, and it counts as a willful evil act for the purpose of effects like <em>atonement</em>.</p>\r\n<p>The rack is one of the most infamous and feared devices in the torturer's arsenal, capable of inflicting ruinous damage to a victim's body. Helpless victims are splayed across the device's frame, and each limb is lashed to a central windlass. Each turn of the crank deals a cumulative 1d6 points of <em>nonlethal damage</em>, up to 4d6 points of <em>nonlethal damage</em> on the fourth turn. Each subsequent turn after the fourth deals 4d6 points of <em>nonlethal damage</em> and deals 1 point of damage each to the victim's <em>Strength</em>, <em>Dexterity</em>, and <em>Constitution</em> scores as it dislocates limbs, cracks cartilage, and breaks bone. Some racks are fitted with spiked wheels that puncture the victim's body, dealing lethal damage rather than <em>nonlethal damage</em>. Escaping from a rack requires a successful DC 30 <em>Escape Artist</em> check.</p>\r\n\r\n<h4><span id=\"Rat_Cage\"><a name=\"TOC-Rat-Cage\"></a>Rat Cage</span></h4>\r\n<p class=\"source\"><b>Source</b>: <a title=\"PZO1135\" href=\"http://amzn.to/2chJpnf\" target=\"_blank\" rel=\"noopener\">PZO1135</a></p>\r\n<p><b>Price</b> 5 gp; <b>Weight</b> 15 lbs.</p>\r\n<p><b>Note</b> Each act of torture shifts the torturer's <em>alignment</em> one step toward evil, and it counts as a willful evil act for the purpose of effects like <em>atonement</em>.</p>\r\n<p>This specially crafted steel <em>cage</em> can hold up to 20 <em>rats</em>, and includes stout leather straps around its open end and a metal crucible for holding hot <em>charcoal</em> or other fuel on its top end. Torturers tightly strap the open end of the device to a <em>helpless</em> victim's abdomen, insert the <em>rats</em> into the <em>cage</em>, and set the crucible's fuel alight. In 1d10 rounds, the increasing <em>heat</em> causes the <em>rats</em> to gnaw and dig their way through the victim's abdomen to escape, dealing 1 point of piercing damage per <em>rat</em> each round. A victim can wiggle free of a <em>rat</em> <em>cage</em> with a successful DC 20 <em>Escape Artist</em> check, though some of the voracious <em>vermin</em> may continue their consumption in subsequent rounds.</p>\r\n\r\n<h4><span id=\"Thumbscrew\"><a name=\"TOC-Thumbscrew\"></a>Thumbscrew</span></h4>\r\n<p class=\"source\"><b>Source</b>: <a title=\"PZO1135\" href=\"http://amzn.to/2chJpnf\" target=\"_blank\" rel=\"noopener\">PZO1135</a></p>\r\n<p><b>Common Price</b> 15 gp; <b>Weight</b> 1 lb.; <b>Masterwork Price</b> 50 gp; <b>Weight</b> 1 lb.</p>\r\n<p><b>Note</b> Each act of torture shifts the torturer's <em>alignment</em> one step toward evil, and it counts as a willful evil act for the purpose of effects like <em>atonement</em>.</p>\r\n<p>Both a torture and restraining device, this small, metal armature consists of two parallel, spike-studded bars that close together as the user tightens the frame's screws, crushing a victim's thumbs between them. A victim restrained by a thumbscrew is able to move but can't effectively wield weapons, hold items, or perform any actions or skill checks that require manual dexterity, taking a -5 penalty on all such actions and dealing 1d6 points of <em>nonlethal damage</em> to himself with each attempt (this doesn't include <em>Escape Artist</em> attempts to escape the thumbscrew).</p>\r\n<p>Spellcasters bound by thumbscrews are unable to cast spells with somatic <em>components</em>.</p>\r\n<p>When using a thumbscrew as a torture device, the user can turn the thumbscrew's bolt to deal 1d6 points of <em>nonlethal damage</em>.</p>\r\n<p>Escaping from a thumbscrew requires a successful DC 28 <em>Escape Artist</em> check (DC 30 for a masterwork thumbscrew).</p>\r\n\r\n<h4><span id=\"Trephine\"><a name=\"TOC-Trephine\"></a>Trephine</span></h4>\r\n<p class=\"source\"><b>Source</b>: <a title=\"PZO1135\" href=\"http://amzn.to/2chJpnf\" target=\"_blank\" rel=\"noopener\">PZO1135</a></p>\r\n<p><b>Price</b> 20 gp; <b>Weight</b> 1 lb.</p>\r\n<p><b>Note</b> Each act of torture shifts the torturer's <em>alignment</em> one step toward evil, and it counts as a willful evil act for the purpose of effects like <em>atonement</em>.</p>\r\n<p>This surgical instrument has a serrated, circular blade that is used to bore holes into the skulls of patients to relieve cranial swelling from head trauma or, as some chirurgeons believe, release evil spirits. Use of a trephine takes 10 minutes, and deals 5 points of piercing damage to the subject creature. With a successful DC 25 <em>Heal</em> check, the user can heal up to 1d4 points of <em>ability damage</em> to any one mental ability score caused by physical trauma to the head, such as the critical called shot or debilitating blow called shot, or it can cure the severe brain trauma inflicted by the debilitating blow called shot. If the user fails the check, the subject still takes 5 points of piercing damage. If the user fails the check by 5 or more, the subject instead takes 10 points of piercing damage and 1 point of damage each to its <em>Intelligence</em>, <em>Wisdom</em>, and <em>Charisma</em> scores.</p>\r\n                                          <div id=\"comments\" "
    },
    "tags": [],
    "weight": {
      "value": 500
    },
    "price": 300,
    "equipped": false,
    "changes": [],
    "contextNotes": [],
    "links": {
      "children": []
    },
    "scriptCalls": [],
    "subType": "gear"
  }
}
