{
  "_id": "JLcnDf0jxX30mBxn",
  "name": "Spiritbane spike",
  "type": "loot",
  "img": "systems/pf1/icons/items/inventory/dice.jpg",
  "sort": 0,
  "flags": {},
  "system": {
    "description": {
      "value": "<p>Source&nbsp;<a href=\"http://paizo.com/products/btpy94vx?Pathfinder-Player-Companion-Undead-Slayer-s-Handbook\" target=\"_blank\" rel=\"noopener\">Undead Slayer's Handbook pg. 13</a><br>Price&nbsp;300 gp;&nbsp;Weight&nbsp;1 lb.<br>Category&nbsp;Alchemical Tools</p>\n<h3>Description</h3>\n<p>When you slash this alchemically treated iron spike against your flesh—a move action that deals 1d6 points of damage— the spike extends and becomes a short sword with the&nbsp;ghost touch&nbsp;weapon special ability. The spike reverts to its old form after 10 minutes, corroded and useless. Should a spiritbane spike rematerialize within a corporeal body, it is shunted to the nearest empty space without effect. Crafting this item requires a successful DC 25 Craft (alchemy) check.</p>\n<h3>Construction</h3>\n<p>Craft (Alchemy)&nbsp;DC 25</p>"
    },
    "tags": [],
    "weight": {
      "value": 1
    },
    "price": 300,
    "equipped": false,
    "identifiedName": "Spiritbane spike",
    "changes": [],
    "contextNotes": [],
    "links": {
      "children": []
    },
    "scriptCalls": [],
    "subType": "gear"
  }
}
