{
  "_id": "pmmhtjogemjnlicl",
  "name": "Tabard",
  "type": "loot",
  "img": "systems/pf1/icons/items/inventory/dice.jpg",
  "sort": 0,
  "flags": {},
  "system": {
    "description": {
      "value": " \n<p><b>Price</b> 5 gp; <b>Weight</b> 1 lb.</p> \n<p>Often worn over <em>armor</em>, this outer garment is usually sleeveless and open at the sides. The broad front provides a <em>canvas</em> for insignias and coats of arms, making a wearer's membership in an order readily apparent.</p> \n"
    },
    "tags": [],
    "weight": {
      "value": 1
    },
    "price": 5,
    "equipped": false,
    "changes": [],
    "contextNotes": [],
    "links": {
      "children": []
    },
    "scriptCalls": [],
    "subType": "gear"
  }
}
