{
  "_id": "S5QufwxRcu4g5boe",
  "name": "Accursed Curse",
  "type": "feat",
  "img": "systems/pf1/icons/spells/horror-eerie-1.jpg",
  "sort": 0,
  "flags": {},
  "system": {
    "description": {
      "value": "<p>You are cursed with misfortune and sorrow, and you cannot gain benefit from morale bonuses. However, you gain a +4 bonus to all saving throws against curse effects.</p>\n<p>At 5th level, add @Compendium[pf1.spells.wjdhmfdgwrevax3w]{Ill Omen} to your list of spells known.</p>\n<p>At 10th level, add @Compendium[pf1.spells.2qbdesr0fwtmi9tj]{Brand, Greater} to your list of spells known.</p>\n<p>At 15th level, you are immune to curse effects except for your own oracle curse.</p>"
    },
    "tags": [],
    "actions": [],
    "attackNotes": [],
    "effectNotes": [],
    "changes": [],
    "contextNotes": [],
    "links": {
      "children": [],
      "charges": []
    },
    "tag": "classFeat_accursedCurse",
    "useCustomTag": true,
    "armorProf": {
      "value": []
    },
    "weaponProf": {
      "value": []
    },
    "languages": {
      "value": []
    },
    "scriptCalls": [],
    "subType": "classFeat",
    "associations": {
      "classes": [["Oracle"]]
    }
  }
}
