{
  "_id": "EQ7JGo4P1XirLO46",
  "name": "Advanced Talents",
  "type": "feat",
  "img": "systems/pf1/icons/feats/agile-maneuvers.jpg",
  "sort": 0,
  "flags": {},
  "system": {
    "description": {
      "value": "<p>At 10th level, and every two levels thereafter, a rogue can choose one of the following advanced talents in place of a rogue talent.</p>"
    },
    "tags": [],
    "actions": [],
    "attackNotes": [],
    "effectNotes": [],
    "changes": [],
    "contextNotes": [],
    "links": {
      "children": [],
      "charges": []
    },
    "tag": "classFeat_advancedTalents",
    "useCustomTag": true,
    "armorProf": {
      "value": []
    },
    "weaponProf": {
      "value": []
    },
    "languages": {
      "value": []
    },
    "scriptCalls": [],
    "subType": "classFeat",
    "associations": {
      "classes": [["Rogue"]]
    }
  }
}
