{
  "_id": "cwenReAVnI9Dtp4R",
  "name": "Arcane Subdomain",
  "type": "feat",
  "img": "systems/pf1/icons/spells/runes-blue-3.jpg",
  "sort": 0,
  "flags": {},
  "system": {
    "description": {
      "value": "<p><strong>Replacement Domain Spells:</strong></p>\n<ul>\n<li>1st—@Compendium[pf1.spells.l01ajd0m4xgwq3fd]{Magic Aura}</li>\n<li>4th—@Compendium[pf1.spells.fmuea6pmgrylbux7]{Arcane Eye}</li>\n<li>6th—@Compendium[pf1.spells.f2awecndqcmhavq7]{Analyze Dweomer}</li>\n</ul>"
    },
    "tags": [],
    "actions": [],
    "attackNotes": [],
    "effectNotes": [],
    "changes": [],
    "contextNotes": [],
    "links": {
      "children": [],
      "charges": []
    },
    "tag": "classFeat_arcaneSubdomain",
    "useCustomTag": true,
    "armorProf": {
      "value": []
    },
    "weaponProf": {
      "value": []
    },
    "languages": {
      "value": []
    },
    "scriptCalls": [],
    "subType": "classFeat",
    "associations": {
      "classes": [["Cleric"]]
    }
  }
}
