{
  "_id": "FYhMi5seLlNvctSh",
  "name": "Armor Mastery (ORA)",
  "type": "feat",
  "img": "systems/pf1/icons/spells/light-royal-1.jpg",
  "sort": 0,
  "flags": {},
  "system": {
    "description": {
      "value": "<p>You become more maneuverable while wearing armor. You can move at your normal speed in medium armor that is made of metal. This does not grant proficiency in armor. At 5th level, whenever you are wearing metal armor, you reduce the armor check penalty by 1 (to a minimum of 0) and increase the maximum Dexterity bonus allowed by your armor by 1. At 10th level, and again at 15th level, these bonuses increase by 1.</p>"
    },
    "tags": [["Revelation"], ["Metal Mystery"]],
    "actions": [],
    "uses": {
      "per": ""
    },
    "attackNotes": [],
    "effectNotes": [],
    "changes": [],
    "contextNotes": [],
    "links": {
      "children": [],
      "charges": []
    },
    "tag": "classFeat_armorMasteryOra",
    "useCustomTag": true,
    "armorProf": {
      "value": []
    },
    "weaponProf": {
      "value": []
    },
    "languages": {
      "value": []
    },
    "scriptCalls": [],
    "subType": "classFeat",
    "associations": {
      "classes": [["Oracle"]]
    },
    "abilityType": "ex"
  }
}
