{
  "_id": "thUYSjSEMXnxLCW2",
  "name": "Avian Escape",
  "type": "feat",
  "img": "systems/pf1/icons/skills/violet_26.jpg",
  "sort": 0,
  "flags": {},
  "system": {
    "description": {
      "value": "<p>The subject changes shape to elude an attacking enemy. The mesmerist can trigger this trick when the subject takes damage from an enemy’s attack. The subject transforms into a bird (as&nbsp;beast shape III). Though the subject can appear as any Tiny bird, it uses the statistics for a raven (Pathfinder RPG Bestiary&nbsp;133).</p>\n<p>This is a polymorph effect.</p>"
    },
    "tags": [],
    "actions": [],
    "attackNotes": [],
    "effectNotes": [],
    "changes": [],
    "contextNotes": [],
    "links": {
      "children": [],
      "charges": []
    },
    "tag": "classFeat_avianEscape",
    "useCustomTag": true,
    "armorProf": {
      "value": []
    },
    "weaponProf": {
      "value": []
    },
    "languages": {
      "value": []
    },
    "scriptCalls": [],
    "subType": "classFeat",
    "associations": {
      "classes": [["Mesmerist"]]
    }
  }
}
