{
  "_id": "aBXAFSi18n9Sndjf",
  "name": "Bonded Manifestation",
  "type": "feat",
  "img": "systems/pf1/icons/skills/blue_12.jpg",
  "sort": 0,
  "flags": {},
  "system": {
    "description": {
      "value": "<p>At 3rd level, as a swift action, a spiritualist can pull on the consciousness of her phantom and the substance of the Ethereal Plane to partially manifest aspects of both in her own body. When she does, she uses this bonded manifestation to enhance her own abilities while the phantom is still bound to her consciousness. For the spiritualist to use this ability, the phantom must be confined in the spiritualist’s consciousness; it can’t be manifested in any other way.<br><br>During a bonded manifestation, the phantom can’t be damaged, dismissed, or banished. A spiritualist can use bonded manifestation a number of rounds per day equal to 3 + her spiritualist level. The rounds need not be consecutive. She can dismiss the effects of a bonded manifestation as a free action, but even if she dismisses a bonded manifestation on the same round that she used it, it counts as 1 round of use.<br><br>When a spiritualist uses this ability, she must choose either ectoplasmic or incorporeal form. When she makes this choice, she gains all of the abilities based on the form she chooses and her spiritualist level.</p>"
    },
    "tags": [],
    "actions": [
      {
        "_id": "uf02kynosuk8kplz",
        "name": "Use",
        "img": "systems/pf1/icons/skills/blue_12.jpg",
        "description": "",
        "tag": "",
        "activation": {
          "cost": 1,
          "type": "swift"
        },
        "unchainedAction": {
          "activation": {
            "cost": 1,
            "type": "action"
          }
        },
        "duration": {
          "value": "1",
          "units": "round"
        },
        "target": {
          "value": "self"
        },
        "range": {
          "value": null,
          "units": "personal",
          "maxIncrements": 1,
          "minValue": null,
          "minUnits": ""
        },
        "uses": {
          "autoDeductChargesCost": "",
          "self": {
            "value": 0,
            "maxFormula": "",
            "per": null
          },
          "per": "day",
          "value": 0,
          "maxFormula": "3 + @classes.spiritualist.level"
        },
        "measureTemplate": {
          "type": "",
          "size": "",
          "overrideColor": false,
          "customColor": "",
          "overrideTexture": false,
          "customTexture": ""
        },
        "attackName": "",
        "actionType": "",
        "attackBonus": "",
        "critConfirmBonus": "",
        "damage": {
          "parts": [],
          "critParts": [],
          "nonCritParts": []
        },
        "attackParts": [],
        "formulaicAttacks": {
          "count": {
            "formula": ""
          },
          "bonus": {
            "formula": ""
          },
          "label": null
        },
        "formula": "",
        "ability": {
          "attack": null,
          "damage": null,
          "damageMult": 1,
          "critRange": 20,
          "critMult": 2
        },
        "save": {
          "dc": 0,
          "type": "",
          "description": ""
        },
        "effectNotes": [],
        "attackNotes": [],
        "soundEffect": "",
        "powerAttack": {
          "multiplier": "",
          "damageBonus": 2,
          "critMultiplier": 1
        },
        "naturalAttack": {
          "primaryAttack": true,
          "secondary": {
            "attackBonus": "-5",
            "damageMult": 0.5
          }
        },
        "nonlethal": false,
        "usesAmmo": false,
        "spellEffect": "",
        "spellArea": "",
        "conditionals": [],
        "enh": {
          "value": null
        }
      }
    ],
    "uses": {
      "per": "day",
      "maxFormula": "3 + @classes.spiritualist.level"
    },
    "attackNotes": [],
    "effectNotes": [],
    "changes": [],
    "contextNotes": [],
    "links": {
      "children": [],
      "charges": []
    },
    "tag": "classFeat_bondedManifestation",
    "useCustomTag": true,
    "armorProf": {
      "value": []
    },
    "weaponProf": {
      "value": []
    },
    "languages": {
      "value": []
    },
    "scriptCalls": [],
    "subType": "classFeat",
    "associations": {
      "classes": [["Spiritualist"]]
    },
    "abilityType": "su"
  }
}
