{
  "_id": "AGDKGIsUEfEnlMG7",
  "name": "Cognatogen (PSY)",
  "type": "feat",
  "img": "systems/pf1/icons/spells/slice-spirit-3.jpg",
  "sort": 0,
  "flags": {},
  "system": {
    "description": {
      "value": "<p>Once per day, you can create a cognatogen, a mutagen-like mixture that heightens one mental ability score at the expense of a physical ability score. When you imbibe a cognatogen, you gain a +2 natural armor bonus and a +4 alchemical bonus to the selected ability score for 1 minute per psychic level.</p>\n<p>In addition, while the cognatogen is in effect, you take a –2 penalty to one of your physical ability scores. If the cognatogen enhances your Intelligence, it applies a penalty to your Strength. If it enhances your Wisdom, it applies a penalty to your Dexterity. If it enhances your Charisma, it applies a penalty to your Constitution. Otherwise, this ability works just like the alchemist’s mutagen ability (Pathfinder RPG Advanced Player’s Guide&nbsp;28). When the effect of the cognatogen ends, you take 2 points of ability damage to the ability score penalized by the cognatogen.</p>\n<p>If you have both alchemist and psychic levels, these levels stack to determine the duration of your cognatogen and the DC of the save a non-alchemist must attempt if he drinks your cognatogen.</p>\n<p>If you gain discoveries, you can take the grand cognatogen and greater cognatogen discoveries to improve your cognatogen.</p>\n<p>The infuse mutagen discovery and the persistent mutagen class ability apply to cognatogens. However, even if you have alchemist levels, the duration of your cognatogen remains 1 minute per level (instead of 10 minutes per level) and you can still create only one per day (instead of an unlimited number) unless you also possess the cognatogen discovery.</p>"
    },
    "tags": [],
    "actions": [
      {
        "_id": "odppi2byl4ifmbq6",
        "name": "Use",
        "img": "systems/pf1/icons/spells/slice-spirit-3.jpg",
        "description": "",
        "tag": "",
        "activation": {
          "cost": 1,
          "type": "standard"
        },
        "unchainedAction": {
          "activation": {
            "cost": 2,
            "type": "action"
          }
        },
        "duration": {
          "value": "@classes.psychic.level",
          "units": "minute"
        },
        "target": {
          "value": "self"
        },
        "range": {
          "value": null,
          "units": "personal",
          "maxIncrements": 1,
          "minValue": null,
          "minUnits": ""
        },
        "uses": {
          "autoDeductChargesCost": "",
          "self": {
            "value": 0,
            "maxFormula": "",
            "per": null
          },
          "per": "day",
          "value": 0,
          "maxFormula": "1"
        },
        "measureTemplate": {
          "type": "",
          "size": "",
          "overrideColor": false,
          "customColor": "",
          "overrideTexture": false,
          "customTexture": ""
        },
        "attackName": "",
        "actionType": "",
        "attackBonus": "",
        "critConfirmBonus": "",
        "damage": {
          "parts": [],
          "critParts": [],
          "nonCritParts": []
        },
        "attackParts": [],
        "formulaicAttacks": {
          "count": {
            "formula": ""
          },
          "bonus": {
            "formula": ""
          },
          "label": null
        },
        "formula": "",
        "ability": {
          "attack": null,
          "damage": null,
          "damageMult": 1,
          "critRange": 20,
          "critMult": 2
        },
        "save": {
          "dc": 0,
          "type": "",
          "description": ""
        },
        "effectNotes": [],
        "attackNotes": [],
        "soundEffect": "",
        "powerAttack": {
          "multiplier": "",
          "damageBonus": 2,
          "critMultiplier": 1
        },
        "naturalAttack": {
          "primaryAttack": true,
          "secondary": {
            "attackBonus": "-5",
            "damageMult": 0.5
          }
        },
        "nonlethal": false,
        "usesAmmo": false,
        "spellEffect": "",
        "spellArea": "",
        "conditionals": [],
        "enh": {
          "value": null
        }
      }
    ],
    "uses": {
      "per": "day",
      "maxFormula": "1"
    },
    "attackNotes": [],
    "effectNotes": [],
    "changes": [],
    "contextNotes": [],
    "links": {
      "children": [],
      "charges": []
    },
    "tag": "classFeat_cognatogenPsy",
    "useCustomTag": true,
    "armorProf": {
      "value": []
    },
    "weaponProf": {
      "value": []
    },
    "languages": {
      "value": []
    },
    "scriptCalls": [],
    "subType": "classFeat",
    "associations": {
      "classes": [["Psychic"]]
    },
    "abilityType": "su"
  }
}
