{
  "_id": "045lgKCzMYCJBhxx",
  "name": "Conflicted Identity",
  "type": "feat",
  "img": "systems/pf1/icons/skills/light_07.jpg",
  "sort": 0,
  "flags": {},
  "system": {
    "description": {
      "value": "<p>The vigilante’s mind is in a constant state of turmoil, which makes him even more ethically and morally fluid than other vigilantes. When targeted by a harmful spell or effect that would affect the vigilante in his current identity but not his other identity (or when he would suffer a lesser effect in his other identity), he has a 50% chance of being affected as though he were in his other identity. This chance is rolled when the spell or effect is cast or triggered and before any spell resistance roll, if applicable. For example, if a vigilante has a lawful-neutral social identity and a neutral vigilante identity, he has a 50% chance of taking only half damage from a&nbsp;chaos hammer&nbsp;spell while in his social identity, since he would always take only half damage from a&nbsp;chaos hammer&nbsp;spell when in his vigilante identity.</p>"
    },
    "tags": [],
    "actions": [],
    "attackNotes": [],
    "effectNotes": [],
    "changes": [],
    "contextNotes": [],
    "links": {
      "children": [],
      "charges": []
    },
    "tag": "classFeat_conflictedIdentity",
    "useCustomTag": true,
    "armorProf": {
      "value": []
    },
    "weaponProf": {
      "value": []
    },
    "languages": {
      "value": []
    },
    "scriptCalls": [],
    "subType": "classFeat",
    "associations": {
      "classes": [["Vigilante"]]
    },
    "abilityType": "ex"
  }
}
