{
  "_id": "CRSIt2OEEJTflw52",
  "name": "Counter Drain",
  "type": "feat",
  "img": "systems/pf1/icons/spells/runes-blue-3.jpg",
  "sort": 0,
  "flags": {},
  "system": {
    "description": {
      "value": "<p>Whenever the arcanist successfully uses the conterspell exploit, she regains a number of points to her arcane reservoir, which is determined by the level of the spell countered. Spells of 2nd level or lower do not restore any points to her arcane reservoir. Spells of 3rd and higher restore 1 point to her arcane reservoir for every three spell levels (rounded down), to a maximum of 3 points at 9th level.</p>\n<p>The arcanist must have the counterspell exploit to select this exploit.</p>"
    },
    "tags": [],
    "actions": [],
    "attackNotes": [],
    "effectNotes": [],
    "changes": [],
    "contextNotes": [],
    "links": {
      "children": [],
      "charges": []
    },
    "tag": "classFeat_counterDrain",
    "useCustomTag": true,
    "armorProf": {
      "value": []
    },
    "weaponProf": {
      "value": []
    },
    "languages": {
      "value": []
    },
    "scriptCalls": [],
    "subType": "classFeat",
    "associations": {
      "classes": [["Arcanist"]]
    },
    "abilityType": "su"
  }
}
