{
  "_id": "YQse8LTz2m9DTr7c",
  "name": "Damnation Domain",
  "type": "feat",
  "img": "systems/pf1/icons/items/inventory/badge-cross.jpg",
  "sort": 0,
  "flags": {},
  "system": {
    "description": {
      "value": "<p><strong>Granted Powers:</strong> The prospect of an afterlife filled with torment can cause even the most stalwart to blanch—at least for a moment.</p>"
    },
    "tags": [],
    "actions": [],
    "attackNotes": [],
    "effectNotes": [],
    "changes": [],
    "contextNotes": [],
    "links": {
      "children": [],
      "charges": []
    },
    "tag": "classFeat_damnationDomain",
    "useCustomTag": true,
    "armorProf": {
      "value": []
    },
    "weaponProf": {
      "value": []
    },
    "languages": {
      "value": []
    },
    "scriptCalls": [],
    "subType": "classFeat",
    "associations": {
      "classes": [["Inquisitor"]]
    }
  }
}
