{
  "_id": "Z34jQ7L89QWOrBb2",
  "name": "Endurance Patron",
  "type": "feat",
  "img": "systems/pf1/icons/feats/improved-familiar.jpg",
  "sort": 0,
  "flags": {},
  "system": {
    "description": {
      "value": "<ul>\n<li>2nd — @Compendium[pf1.spells.pau0ejk30fs1eebl]{Endure Elements}</li>\n<li>4th — @Compendium[pf1.spells.usdv1eqvibmxun6x]{Bear's Endurance}</li>\n<li>6th — @Compendium[pf1.spells.1vh2ewwvzvxunoxk]{Protection from Energy}</li>\n<li>8th — @Compendium[pf1.spells.ui70binwqvjsgaam]{Spell Immunity}</li>\n<li>10th — @Compendium[pf1.spells.4k9bh8ny1il2oner]{Spell Resistance}</li>\n<li>12th — @Compendium[pf1.spells.irl69h8vnasfpak4]{Bear's Endurance, Mass}</li>\n<li>14th — @Compendium[pf1.spells.igmb8lisqcnsxd2d]{Restoration, Greater}</li>\n<li>16th — @Compendium[pf1.spells.mkrjbrp57yfdqrx0]{Iron Body}</li>\n<li>18th — @Compendium[pf1.spells.suel7sgnztenv551]{Miracle}</li>\n</ul>"
    },
    "tags": [],
    "actions": [],
    "attackNotes": [],
    "effectNotes": [],
    "changes": [],
    "contextNotes": [],
    "links": {
      "children": [],
      "charges": []
    },
    "tag": "classFeat_endurancePatron",
    "useCustomTag": true,
    "armorProf": {
      "value": []
    },
    "weaponProf": {
      "value": []
    },
    "languages": {
      "value": []
    },
    "scriptCalls": [],
    "subType": "classFeat",
    "associations": {
      "classes": [["Witch"]]
    }
  }
}
