{
  "_id": "Xe9ej55tT3r9Nn5y",
  "name": "Favored Maneuver",
  "type": "feat",
  "img": "systems/pf1/icons/feats/deceitful.jpg",
  "sort": 0,
  "flags": {},
  "system": {
    "description": {
      "value": "<p>The vigilante selects one type of combat maneuver to be a favored maneuver. He gains the Improved feat corresponding to that combat maneuver (if one exists). He gains a +2 circumstance bonus on combat maneuver checks with that combat maneuver against a foe that is unaware of the vigilante’s presence at the start of his combat maneuver.</p>\n<p>A vigilante can select this talent more than once. Each time, it applies to a different combat maneuver.</p>"
    },
    "tags": [],
    "actions": [],
    "attackNotes": [],
    "effectNotes": [],
    "changes": [],
    "contextNotes": [],
    "links": {
      "children": [],
      "charges": []
    },
    "tag": "classFeat_favoredManeuver",
    "useCustomTag": true,
    "armorProf": {
      "value": []
    },
    "weaponProf": {
      "value": []
    },
    "languages": {
      "value": []
    },
    "scriptCalls": [],
    "subType": "classFeat",
    "associations": {
      "classes": [["Vigilante"]]
    },
    "abilityType": "ex"
  }
}
