{
  "_id": "vpE4AIShkoxeLphR",
  "name": "Feat (NIN)",
  "type": "feat",
  "img": "systems/pf1/icons/items/weapons/kunai.png",
  "sort": 0,
  "flags": {},
  "system": {
    "description": {
      "value": "<p>A ninja may gain any feat that she qualifies for in place of a ninja trick.</p>"
    },
    "tags": [],
    "actions": [],
    "attackNotes": [],
    "effectNotes": [],
    "changes": [
      {
        "_id": "vezdzaod",
        "formula": "1",
        "operator": "add",
        "subTarget": "bonusFeats",
        "modifier": "untyped",
        "priority": 0,
        "value": 0,
        "target": "misc"
      }
    ],
    "contextNotes": [],
    "links": {
      "children": [],
      "charges": []
    },
    "tag": "classFeat_featNin",
    "useCustomTag": true,
    "armorProf": {
      "value": []
    },
    "weaponProf": {
      "value": []
    },
    "languages": {
      "value": []
    },
    "scriptCalls": [],
    "subType": "classFeat",
    "associations": {
      "classes": [["Ninja"]]
    }
  }
}
