{
  "_id": "2ODHkVtssGRPwL5y",
  "name": "Feral Speech",
  "type": "feat",
  "img": "systems/pf1/icons/skills/violet_02.jpg",
  "sort": 0,
  "flags": {},
  "system": {
    "description": {
      "value": "<p>This hex grants the witch the ability to speak with and understand the response of any animal as if using @Compendium[pf1.spells.ct9fhh8uawn8e4md]{Speak with Animals}, though each time she uses the hex, she must decide to communicate with either amphibians, birds, fish, mammals, or reptiles, and can only speak to and understand animals of that type. The witch can make herself understood as far as her voice carries. This hex does not predispose any animal so addressed toward the witch in any way.</p>\n<p>At 12th level, the witch can use this hex to communicate with vermin.</p>"
    },
    "tags": [],
    "actions": [],
    "attackNotes": [],
    "effectNotes": [],
    "changes": [],
    "contextNotes": [],
    "links": {
      "children": [],
      "charges": []
    },
    "tag": "classFeat_feralSpeech",
    "useCustomTag": true,
    "armorProf": {
      "value": []
    },
    "weaponProf": {
      "value": []
    },
    "languages": {
      "value": []
    },
    "scriptCalls": [],
    "subType": "classFeat",
    "associations": {
      "classes": [["Witch"]]
    },
    "abilityType": "su"
  }
}
