{
  "_id": "WpVyzjBtEVi3JHiJ",
  "name": "Fleet Charge",
  "type": "feat",
  "img": "systems/pf1/icons/skills/yellow_37.jpg",
  "sort": 0,
  "flags": {},
  "system": {
    "description": {
      "value": "<p>You can take a swift action and a full-round action to move up to your speed and then make a full attack. This special action doesn’t combine with sudden attack, but works as normal with effects such as&nbsp;haste&nbsp;and two-weapon fighting. As soon as you begin moving, you are considered to have begun the full-round action, even if circumstances prevent you from attacking at the end of your movement.</p>"
    },
    "tags": [],
    "actions": [],
    "attackNotes": [],
    "effectNotes": [],
    "changes": [],
    "contextNotes": [],
    "links": {
      "children": [],
      "charges": []
    },
    "tag": "classFeat_fleetCharge",
    "useCustomTag": true,
    "armorProf": {
      "value": []
    },
    "weaponProf": {
      "value": []
    },
    "languages": {
      "value": []
    },
    "scriptCalls": [],
    "subType": "classFeat",
    "associations": {
      "classes": [["Medium"]]
    },
    "abilityType": "su"
  }
}
