{
  "_id": "DdAvLLNHJ25vH8UP",
  "name": "Focused Poison",
  "type": "feat",
  "img": "systems/pf1/icons/items/weapons/rhoka.PNG",
  "sort": 0,
  "flags": {},
  "system": {
    "description": {
      "value": "<p>The slayer can focus his poison delivery to be especially deadly to his studied target. When the slayer studies a target, he can immediately reduce the number of additional studied targets he can maintain. Reducing this number does not require an action.</p>\n<p>For each target reduced in this way, the DC of poisons used against his studied target increases by 1.</p>\n<p>The slayer must be at least 6th level and have the poison use talent to select this talent.</p>"
    },
    "tags": [],
    "actions": [],
    "attackNotes": [],
    "effectNotes": [],
    "changes": [],
    "contextNotes": [],
    "links": {
      "children": [],
      "charges": []
    },
    "tag": "classFeat_focusedPoison",
    "useCustomTag": true,
    "armorProf": {
      "value": []
    },
    "weaponProf": {
      "value": []
    },
    "languages": {
      "value": []
    },
    "scriptCalls": [],
    "subType": "classFeat",
    "associations": {
      "classes": [["Slayer"]]
    },
    "abilityType": "ex"
  }
}
