{
  "_id": "EclIoodZh17RhZul",
  "name": "Foresight Subschool",
  "type": "feat",
  "img": "systems/pf1/icons/spells/wind-grasp-acid-1.jpg",
  "sort": 0,
  "flags": {},
  "system": {
    "description": {
      "value": "<p><strong>Associated School:</strong>&nbsp;<em>Divination</em>.</p>\n<p><strong>Replacement Powers:</strong> This subschool replaces the diviner’s fortune and scrying adept powers of the&nbsp;<em>divination</em>&nbsp;school.</p>"
    },
    "tags": [],
    "actions": [],
    "attackNotes": [],
    "effectNotes": [],
    "changes": [],
    "contextNotes": [],
    "links": {
      "children": [],
      "charges": []
    },
    "tag": "classFeat_foresightSubschool",
    "useCustomTag": true,
    "armorProf": {
      "value": []
    },
    "weaponProf": {
      "value": []
    },
    "languages": {
      "value": []
    },
    "scriptCalls": [],
    "subType": "classFeat",
    "associations": {
      "classes": [["Wizard"]]
    }
  }
}
