{
  "_id": "UE9vS5N8vmbSR01m",
  "name": "Founders' Blessing",
  "type": "feat",
  "img": "systems/pf1/icons/items/weapons/butterfly-knife.PNG",
  "sort": 0,
  "flags": {},
  "system": {
    "description": {
      "value": "<p>The rogue can call upon the mystical legacies of the Council. Once per day, she can choose a skill in which she has no ranks. After she spends 10 minutes communing with these mystical spirits, they grant her a luck bonus equal to her rogue level with that skill, and she can attempt checks with that skill as if she were trained in its use. The effects of founder’s blessing last for 8 hours.</p>"
    },
    "tags": [],
    "actions": [],
    "attackNotes": [],
    "effectNotes": [],
    "changes": [],
    "contextNotes": [],
    "links": {
      "children": [],
      "charges": []
    },
    "tag": "classFeat_foundersBlessing",
    "useCustomTag": true,
    "armorProf": {
      "value": []
    },
    "weaponProf": {
      "value": []
    },
    "languages": {
      "value": []
    },
    "scriptCalls": [],
    "subType": "classFeat",
    "associations": {
      "classes": [["Rogue"]]
    }
  }
}
