{
  "_id": "Kyvdscis92ZEK3dT",
  "name": "Free in Body",
  "type": "feat",
  "img": "systems/pf1/icons/skills/violet_26.jpg",
  "sort": 0,
  "flags": {},
  "system": {
    "description": {
      "value": "<p>When constrained, the subject can easily slip loose. The mesmerist can trigger this trick when the subject begins its turn grappled or under an effect that impedes its movement (including paralysis,&nbsp;solid fog,&nbsp;slow, and&nbsp;web). The subject gains the benefits of freedom of movement for 1 minute.</p>"
    },
    "tags": [],
    "actions": [],
    "attackNotes": [],
    "effectNotes": [],
    "changes": [],
    "contextNotes": [],
    "links": {
      "children": [],
      "charges": []
    },
    "tag": "classFeat_freeInBody",
    "useCustomTag": true,
    "armorProf": {
      "value": []
    },
    "weaponProf": {
      "value": []
    },
    "languages": {
      "value": []
    },
    "scriptCalls": [],
    "subType": "classFeat",
    "associations": {
      "classes": [["Mesmerist"]]
    }
  }
}
