{
  "_id": "MSFqQdQokyQUKInQ",
  "name": "Friend to Animals",
  "type": "feat",
  "img": "systems/pf1/icons/skills/green_03.jpg",
  "sort": 0,
  "flags": {},
  "system": {
    "description": {
      "value": "<p>The shaman can spontaneously cast&nbsp;summon nature’s ally&nbsp;spells as a druid. In addition, all animals within 30 feet of the shaman receive a sacred bonus on all saving throws equal to the shaman’s Charisma modifier.</p>"
    },
    "tags": [],
    "actions": [],
    "attackNotes": [],
    "effectNotes": [],
    "changes": [],
    "contextNotes": [],
    "links": {
      "children": [],
      "charges": []
    },
    "tag": "classFeat_friendToAnimals",
    "useCustomTag": true,
    "armorProf": {
      "value": []
    },
    "weaponProf": {
      "value": []
    },
    "languages": {
      "value": []
    },
    "scriptCalls": [],
    "subType": "classFeat",
    "associations": {
      "classes": [["Shaman"]]
    },
    "abilityType": "su"
  }
}
