{
  "_id": "EZXEjeRFfHbfCvub",
  "name": "Fur Subdomain",
  "type": "feat",
  "img": "systems/pf1/icons/skills/blue_34.jpg",
  "sort": 0,
  "flags": {},
  "system": {
    "description": {
      "value": "<p><strong>Replacement Domain Spells</strong>:</p>\n<ul>\n<li>1st—@Compendium[pf1.spells.cfzk3vkv1c7ncaug]{Magic Fang}</li>\n<li>3rd—@Compendium[pf1.spells.tjdfluulncmqacc3]{Beast Shape I} (animals only)</li>\n</ul>"
    },
    "tags": [],
    "actions": [],
    "attackNotes": [],
    "effectNotes": [],
    "changes": [],
    "contextNotes": [],
    "links": {
      "children": [],
      "charges": []
    },
    "tag": "classFeat_furSubdomain",
    "useCustomTag": true,
    "armorProf": {
      "value": []
    },
    "weaponProf": {
      "value": []
    },
    "languages": {
      "value": []
    },
    "scriptCalls": [],
    "subType": "classFeat",
    "associations": {
      "classes": [["Cleric"]]
    }
  }
}
