{
  "_id": "1s0MIxdtmMD2403h",
  "name": "Grand Discovery",
  "type": "feat",
  "img": "systems/pf1/icons/skills/violet_08.jpg",
  "sort": 0,
  "flags": {},
  "system": {
    "description": {
      "value": "<p>At 20th level, the alchemist makes a grand discovery. He immediately learns two normal discoveries, but also learns a third discovery chosen from the list below, representing a truly astounding alchemical breakthrough of significant import. For many alchemists, the promise of one of these grand discoveries is the primary goal of their experiments and hard work.</p>"
    },
    "tags": [],
    "actions": [],
    "attackNotes": [],
    "effectNotes": [],
    "changes": [],
    "contextNotes": [],
    "links": {
      "children": [],
      "charges": []
    },
    "tag": "classFeat_grandDiscovery",
    "useCustomTag": true,
    "armorProf": {
      "value": []
    },
    "weaponProf": {
      "value": []
    },
    "languages": {
      "value": []
    },
    "scriptCalls": [],
    "subType": "classFeat",
    "associations": {
      "classes": [["Alchemist"]]
    },
    "abilityType": "su"
  }
}
