{
  "_id": "QbAArwubM3EOfdjM",
  "name": "Hairpin Trick",
  "type": "feat",
  "img": "systems/pf1/icons/items/weapons/dagger.PNG",
  "sort": 0,
  "flags": {},
  "system": {
    "description": {
      "value": "<p>The rogue is skilled at making do with anything she can find. She takes no penalty on Disable Device checks for using improvised tools, and can attempt such checks without any tools at a –4 penalty. She treats all non-improvised thieves’ tools as masterwork and doubles the bonus she gets from masterwork thieves’ tools from +2 to +4.</p>"
    },
    "tags": [],
    "actions": [],
    "attackNotes": [],
    "effectNotes": [],
    "changes": [],
    "contextNotes": [],
    "links": {
      "children": [],
      "charges": []
    },
    "tag": "classFeat_hairpinTrick",
    "useCustomTag": true,
    "armorProf": {
      "value": []
    },
    "weaponProf": {
      "value": []
    },
    "languages": {
      "value": []
    },
    "scriptCalls": [],
    "subType": "classFeat",
    "associations": {
      "classes": [["Rogue"]]
    },
    "abilityType": "ex"
  }
}
