{
  "_id": "WJEF9WHs27kaFYJL",
  "name": "High Jump",
  "type": "feat",
  "img": "systems/pf1/icons/skills/yellow_13.jpg",
  "sort": 0,
  "flags": {},
  "system": {
    "description": {
      "value": "<p>At 5th level, a monk adds his level to all&nbsp;<em>Acrobatics</em>&nbsp;checks made to jump, both for vertical jumps and horizontal jumps. In addition, he always counts as having a running start when making jump checks using&nbsp;<em>Acrobatics</em>. By spending 1 point from his&nbsp;ki&nbsp;pool as a&nbsp;<em>swift action</em>, a monk gains a +20 bonus on&nbsp;<em>Acrobatics</em>&nbsp;checks made to jump for 1 round.</p>"
    },
    "tags": [],
    "actions": [],
    "attackNotes": [],
    "effectNotes": [],
    "changes": [],
    "contextNotes": [],
    "links": {
      "children": [],
      "charges": []
    },
    "tag": "classFeat_highJump",
    "useCustomTag": true,
    "armorProf": {
      "value": []
    },
    "weaponProf": {
      "value": []
    },
    "languages": {
      "value": []
    },
    "scriptCalls": [],
    "subType": "classFeat",
    "associations": {
      "classes": [["Monk"]]
    },
    "abilityType": "ex"
  }
}
