{
  "_id": "PBkLUDd9TND4hixV",
  "name": "Imperious Bloodline",
  "type": "feat",
  "img": "systems/pf1/icons/feats/leadership.jpg",
  "sort": 0,
  "flags": {},
  "system": {
    "description": {
      "value": "<p>The Imperious bloodline is available to&nbsp;<em>human</em>&nbsp;<em>sorcerers</em>.</p>\n<p><em>A scion of forgotten kings, with a lineage rich with the dust of ancient empires spanning every golden age of humanity’s history, an imperious embodies the apex of human potential, as well as human temerity and uninhibited hubris.</em></p>\n<p><strong>Class Skill:</strong>&nbsp;<em>Perform</em>&nbsp;(oratory)</p>\n<p><strong>Bonus Spells:</strong></p>\n<ul>\n<li>@Compendium[pf1.spells.6ux76jy9wbi88br0]{Moment of Greatness}&nbsp;(3rd),</li>\n<li>@Compendium[pf1.spells.d4oubr5bdoo8w1ev]{Eagle's Splendor}&nbsp;(5th),</li>\n<li>@Compendium[pf1.spells.vqfrp8t0c1lw1jna]{Heroism}&nbsp;(7th),</li>\n<li>@Compendium[pf1.spells.w2yf0ksu14e91uae]{Threefold Aspect}&nbsp;(9th),</li>\n<li>@Compendium[pf1.spells.l1zl69j95ad7l9dn]{Command, Greater} (11th),</li>\n<li>@Compendium[pf1.spells.5w1zrztwbvd6xkgj]{Repulsion}&nbsp;(13th),</li>\n<li>@Compendium[pf1.spells.eqrqv2ofspk574d3]{Age Resistance, Greater} (15th),</li>\n<li>@Compendium[pf1.spells.wyyqladj16hv7nny]{Prediction of Failure} (17th),</li>\n<li>@Compendium[pf1.spells.xuuzj9lr2xbwaim4]{Overwhelming Presence} (19th).</li>\n</ul>\n<p><strong>Bonus Feats:</strong></p>\n<ul>\n<li>@Compendium[pf1.feats.O0e0UCim27GPKFuW]{Diehard},</li>\n<li>@Compendium[pf1.feats.ehqx8txNRGMaNOPt]{Endurance},&nbsp;</li>\n<li><em>Heroic Defiance</em>,&nbsp;</li>\n<li><em>Heroic Recovery</em>,</li>\n<li>@Compendium[pf1.feats.Uuiu3p982omhMEPj]{Improved Initiative},&nbsp;</li>\n<li><em>Lingering Spell</em>,</li>\n<li>@Compendium[pf1.feats.CLSsMyNmdcNAOUKC]{Magical Aptitude},</li>\n<li>@Compendium[pf1.feats.L10V7jTzmMYz62zz]{Persuasive}.</li>\n</ul>\n<p><strong>Bloodline Arcana:</strong> Whenever you cast a harmful spell, you gain a bonus equal to the spell’s level on&nbsp;<em>Intimidate</em>&nbsp;checks made against any creature adversely affected by that spell until the end of your next turn. Adversely affected typically means damage, but it can also mean debilitating effects or conditions.</p>"
    },
    "tags": [],
    "actions": [],
    "attackNotes": [],
    "effectNotes": [],
    "changes": [],
    "contextNotes": [],
    "links": {
      "children": [],
      "charges": []
    },
    "tag": "classFeat_imperiousBloodline",
    "useCustomTag": true,
    "armorProf": {
      "value": []
    },
    "weaponProf": {
      "value": []
    },
    "languages": {
      "value": []
    },
    "scriptCalls": [],
    "subType": "classFeat",
    "associations": {
      "classes": [["Sorcerer"]]
    }
  }
}
