{
  "_id": "worOKgDPyntiyOtS",
  "name": "Inspired Bomb",
  "type": "feat",
  "img": "systems/pf1/icons/items/potions/unique-3.jpg",
  "sort": 0,
  "flags": {},
  "system": {
    "description": {
      "value": "<p>An alchemist with this discovery and a pool of inspiration (by way of a class feature, a feat, or the inspiring cognatogen discovery) can expend two uses of inspiration to increase the bomb’s damage by 1d6. The type of damage the bomb deals does not change. Unlike other a discoveries that affect bombs, this one can be applied to a bomb with another bomb discovery, though it cannot be applied to the same bomb more than once.</p>"
    },
    "tags": [],
    "actions": [],
    "attackNotes": [],
    "effectNotes": [],
    "changes": [],
    "contextNotes": [],
    "links": {
      "children": [],
      "charges": []
    },
    "tag": "classFeat_inspiredBomb",
    "useCustomTag": true,
    "armorProf": {
      "value": []
    },
    "weaponProf": {
      "value": []
    },
    "languages": {
      "value": []
    },
    "scriptCalls": [],
    "subType": "classFeat",
    "associations": {
      "classes": [["Alchemist"]]
    }
  }
}
