{
  "_id": "1BuSzuaMzcrxfwmn",
  "name": "Intense Celebration",
  "type": "feat",
  "img": "systems/pf1/icons/spells/explosion-orange-2.jpg",
  "sort": 0,
  "flags": {},
  "system": {
    "description": {
      "value": "<p>At 8th level, spells you cast that confer a morale effect upon you or your allies are automatically affected as if by the @Compendium[pf1.feats.btXWioB3SKJv8YEG]{Extend Spell} metamagic feat, but with no increase in spell level.</p>\n<p>This power replaces the Chaos Blade power of the Chaos Domain.</p>"
    },
    "tags": [],
    "actions": [],
    "attackNotes": [],
    "effectNotes": [],
    "changes": [],
    "contextNotes": [],
    "links": {
      "children": [],
      "charges": []
    },
    "tag": "classFeat_intenseCelebration",
    "useCustomTag": true,
    "armorProf": {
      "value": []
    },
    "weaponProf": {
      "value": []
    },
    "languages": {
      "value": []
    },
    "scriptCalls": [],
    "subType": "classFeat",
    "associations": {
      "classes": [["Cleric"]]
    }
  }
}
