{
  "_id": "XbBZ6uXyXeykjW9P",
  "name": "Intrigue Final Revelation",
  "type": "feat",
  "img": "systems/pf1/icons/spells/light-royal-1.jpg",
  "sort": 0,
  "flags": {},
  "system": {
    "description": {
      "value": "<p>Upon reaching 20th level, you become a master of intrigue. You can apply @Compendium[pf1.feats.2YuxcUNFMPNBpekG]{Silent Spell} or @Compendium[pf1.feats.jVFjMIyQD6TOAsmj]{Still Spell} to any spell you cast without increasing the level or casting time. You do not need to possess these feats to use this ability.</p>"
    },
    "tags": [],
    "actions": [],
    "attackNotes": [],
    "effectNotes": [],
    "changes": [],
    "contextNotes": [],
    "links": {
      "children": [],
      "charges": []
    },
    "tag": "classFeat_intrigueFinalRevelation",
    "useCustomTag": true,
    "armorProf": {
      "value": []
    },
    "weaponProf": {
      "value": []
    },
    "languages": {
      "value": []
    },
    "scriptCalls": [],
    "subType": "classFeat",
    "associations": {
      "classes": [["Oracle"]]
    }
  }
}
