{
  "_id": "lSQOZL8w9pzbDMj0",
  "name": "Isolation Subdomain",
  "type": "feat",
  "img": "systems/pf1/icons/skills/violet_15.jpg",
  "sort": 0,
  "flags": {},
  "system": {
    "description": {
      "value": "<p><strong>Replacement Domain Spells:</strong></p>\n<ul>\n<li>4th—@Compendium[pf1.spells.zt7cje76dck9hwp9]{Crushing Despair}</li>\n<li>6th—@Compendium[pf1.spells.fb38vn4hm4rur6gm]{Wall Of Force}</li>\n<li>8th—@Compendium[pf1.spells.ijwcwnt3oatnfghq]{Prismatic Wall}</li>\n</ul>"
    },
    "tags": [],
    "actions": [],
    "attackNotes": [],
    "effectNotes": [],
    "changes": [],
    "contextNotes": [],
    "links": {
      "children": [],
      "charges": []
    },
    "tag": "classFeat_isolationSubdomain",
    "useCustomTag": true,
    "armorProf": {
      "value": []
    },
    "weaponProf": {
      "value": []
    },
    "languages": {
      "value": []
    },
    "scriptCalls": [],
    "subType": "classFeat",
    "associations": {
      "classes": [["Cleric"]]
    }
  }
}
