{
  "_id": "FfAx2KioyFeYVI0w",
  "name": "Kundalini Infusion",
  "type": "feat",
  "img": "systems/pf1/icons/spells/runes-blue-1.jpg",
  "sort": 0,
  "flags": {},
  "system": {
    "description": {
      "value": "<p><strong>Element&nbsp;</strong>universal;&nbsp;<strong>Type&nbsp;</strong>substance infusion;&nbsp;<strong>Level&nbsp;</strong>2;&nbsp;<strong>Burn&nbsp;</strong>0<br><strong>Prerequisite&nbsp;</strong>ki pool, kinetic fist<br><strong>Associated Blasts&nbsp;</strong>any<br><strong>Saving Throw&nbsp;</strong>Fortitude partial</p>\n<p>You infuse your elemental energy with kundalini serpent fire. Choose a chakra you can currently open; you must accept an amount of burn equal to the chakra’s number (1 for root, 2 for sacral, and so on). Your unarmed strikes with the infused blast cause the target to suffer the effects of blocking the chosen chakra as per the&nbsp;<a href=\"https://aonprd.com/FeatDisplay.aspx?ItemName=Block%20Chakras\">Block Chakras</a>&nbsp;or&nbsp;<a href=\"https://aonprd.com/FeatDisplay.aspx?ItemName=Block%20Upper%20Chakras\">Block Upper Chakras</a>&nbsp;feat. You can use this infusion only while also using the kinetic fist form infusion.</p>"
    },
    "tags": [],
    "actions": [],
    "attackNotes": [],
    "effectNotes": [],
    "changes": [],
    "contextNotes": [],
    "links": {
      "children": [],
      "charges": []
    },
    "tag": "classFeat_kundaliniInfusion",
    "useCustomTag": true,
    "armorProf": {
      "value": []
    },
    "weaponProf": {
      "value": []
    },
    "languages": {
      "value": []
    },
    "scriptCalls": [],
    "subType": "classFeat",
    "associations": {
      "classes": [["Kineticist"]]
    }
  }
}
