{
  "_id": "mZJuh5tcnADFRdwV",
  "name": "Lignification",
  "type": "feat",
  "img": "systems/pf1/icons/spells/light-royal-1.jpg",
  "sort": 0,
  "flags": {},
  "system": {
    "description": {
      "value": "<p>Once per day, you can turn a creature into wood. As a standard action, you may direct your gaze against a single creature within 30 feet. The targeted creature (along with all its carried gear) must make a Fortitude save or turn into a mindless, inert statue made out of wood for a number of rounds equal to 1/2 your oracle level. This ability otherwise functions as a @Compendium[pf1.spells.361rc74674l3zt9a]{Flesh to Stone} spell, except the target turns to wood instead of stone. This can be reverse by any effect that can reverse flesh to stone.</p>\n<p>At 15th level, you can use this ability twice per day.</p>\n<p>You must be at least 11th level to select this revelation.</p>"
    },
    "tags": [],
    "actions": [
      {
        "_id": "lto3j1lkoymgynqg",
        "name": "Use",
        "img": "systems/pf1/icons/spells/light-royal-1.jpg",
        "description": "",
        "tag": "",
        "activation": {
          "cost": 1,
          "type": "standard"
        },
        "unchainedAction": {
          "activation": {
            "cost": 2,
            "type": "action"
          }
        },
        "duration": {
          "value": "floor(@classes.oracle.level / 2)",
          "units": "round"
        },
        "target": {
          "value": "creature touched"
        },
        "range": {
          "value": null,
          "units": "touch",
          "maxIncrements": 1,
          "minValue": null,
          "minUnits": ""
        },
        "uses": {
          "autoDeductChargesCost": "",
          "self": {
            "value": 0,
            "maxFormula": "",
            "per": null
          },
          "per": "day",
          "value": 0,
          "maxFormula": "@classes.oracle.level >= 15 ? 2 : 1"
        },
        "measureTemplate": {
          "type": "",
          "size": "",
          "overrideColor": false,
          "customColor": "",
          "overrideTexture": false,
          "customTexture": ""
        },
        "attackName": "",
        "actionType": "spellsave",
        "attackBonus": "",
        "critConfirmBonus": "",
        "damage": {
          "parts": [],
          "critParts": [],
          "nonCritParts": []
        },
        "attackParts": [],
        "formulaicAttacks": {
          "count": {
            "formula": ""
          },
          "bonus": {
            "formula": ""
          },
          "label": null
        },
        "formula": "",
        "ability": {
          "attack": null,
          "damage": "",
          "damageMult": 1,
          "critRange": 20,
          "critMult": 2
        },
        "save": {
          "dc": "0",
          "type": "fort",
          "description": "Fortitude negates"
        },
        "effectNotes": [],
        "attackNotes": [],
        "soundEffect": "",
        "powerAttack": {
          "multiplier": "",
          "damageBonus": 2,
          "critMultiplier": 1
        },
        "naturalAttack": {
          "primaryAttack": true,
          "secondary": {
            "attackBonus": "-5",
            "damageMult": 0.5
          }
        },
        "nonlethal": false,
        "usesAmmo": false,
        "spellEffect": "",
        "spellArea": "",
        "conditionals": [],
        "enh": {
          "value": null
        }
      }
    ],
    "uses": {
      "per": "day",
      "maxFormula": "@classes.oracle.level >= 15 ? 2 : 1"
    },
    "attackNotes": [],
    "effectNotes": [],
    "changes": [],
    "contextNotes": [],
    "links": {
      "children": [],
      "charges": []
    },
    "tag": "classFeat_lignification",
    "useCustomTag": true,
    "armorProf": {
      "value": []
    },
    "weaponProf": {
      "value": []
    },
    "languages": {
      "value": []
    },
    "scriptCalls": [],
    "subType": "classFeat",
    "associations": {
      "classes": [["Oracle"]]
    },
    "abilityType": "su"
  }
}
