{
  "_id": "WATi3dbrgRcu4vBd",
  "name": "Linnorm Death Curse, Crag",
  "type": "feat",
  "img": "systems/pf1/icons/feats/deafening-critical.jpg",
  "sort": 0,
  "flags": {},
  "system": {
    "description": {
      "value": "<p>The character channels the power of a&nbsp;<a href=\"https://aonprd.com/MonsterDisplay.aspx?ItemName=Crag%20Linnorm\">crag linnorm</a>. The character’s melee attacks deal an additional 1 point of fire damage. If the character is knocked unconscious or killed by an attack or spell, the attacker suffers the curse of fire (Will negates).</p>\n<p>A character must be at least 4th level to select this rage power.&nbsp;Curse of Fire:&nbsp;save&nbsp;Will DC 10 + 1/2 character’s level + character’s Charisma bonus;&nbsp;effect&nbsp;target gains vulnerability to fire.</p>"
    },
    "tags": [],
    "actions": [],
    "attackNotes": [],
    "effectNotes": [],
    "changes": [],
    "contextNotes": [],
    "links": {
      "children": [],
      "charges": []
    },
    "tag": "classFeat_linnormDeathCurseCrag",
    "useCustomTag": true,
    "armorProf": {
      "value": []
    },
    "weaponProf": {
      "value": []
    },
    "languages": {
      "value": []
    },
    "scriptCalls": [],
    "subType": "classFeat",
    "associations": {
      "classes": [["Barbarian"], ["Skald"]]
    },
    "abilityType": "su"
  }
}
