{
  "_id": "G1xEzYQMnz5JVk8R",
  "name": "Many Roads",
  "type": "feat",
  "img": "systems/pf1/icons/spells/light-royal-1.jpg",
  "sort": 0,
  "flags": {},
  "system": {
    "description": {
      "value": "<p>You gain an insight bonus on Fly and Survival checks equal to 1/2 your oracle level. Further, you learn to speak and read three languages in addition to those you already know.</p>"
    },
    "tags": [],
    "actions": [],
    "attackNotes": [],
    "effectNotes": [],
    "changes": [
      {
        "_id": "dhxge9ww",
        "formula": "floor(@classes.oracle.level / 2)",
        "operator": "add",
        "subTarget": "skill.fly",
        "modifier": "untyped",
        "priority": 0,
        "value": 0,
        "target": "skill"
      },
      {
        "_id": "vmxlyitf",
        "formula": "floor(@classes.oracle.level / 2)",
        "operator": "add",
        "subTarget": "skill.sur",
        "modifier": "untyped",
        "priority": 0,
        "value": 0,
        "target": "skill"
      }
    ],
    "contextNotes": [],
    "links": {
      "children": [],
      "charges": []
    },
    "tag": "classFeat_manyRoads",
    "useCustomTag": true,
    "armorProf": {
      "value": []
    },
    "weaponProf": {
      "value": []
    },
    "languages": {
      "value": []
    },
    "scriptCalls": [],
    "subType": "classFeat",
    "associations": {
      "classes": [["Oracle"]]
    },
    "abilityType": "su"
  }
}
