{
  "_id": "ETIjyN0Hc8w29SoQ",
  "name": "Metal Final Revelation",
  "type": "feat",
  "img": "systems/pf1/icons/spells/light-royal-1.jpg",
  "sort": 0,
  "flags": {},
  "system": {
    "description": {
      "value": "<p>Upon reaching 20th level, you become a master of iron and steel. You gain the benefits of @Compendium[pf1.feats.n250dFlbykAIAg5Z]{Weapon Focus}, @Compendium[pf1.feats.IER2MzJrjSvxMlNS]{Greater Weapon Focus}s, and @Compendium[pf1.feats.TbOPtIL8Fv8obXtP]{Improved Critical} with any one metal weapon that you are proficient with. Your armor is like a second skin to you—while wearing metal armor you are proficient with, the armor's maximum Dexterity bonus increases by +5 and you take no armor check penalty. In addition, any metal you create with your magic (such as wall of iron) has its hardness increased by +10.</p>"
    },
    "tags": [["Revelation"], ["Metal Mystery"]],
    "actions": [],
    "attackNotes": [],
    "effectNotes": [],
    "changes": [],
    "contextNotes": [],
    "links": {
      "children": [],
      "charges": []
    },
    "tag": "classFeat_metalFinalRevelation",
    "useCustomTag": true,
    "armorProf": {
      "value": []
    },
    "weaponProf": {
      "value": []
    },
    "languages": {
      "value": []
    },
    "scriptCalls": [],
    "subType": "classFeat",
    "associations": {
      "classes": [["Oracle"]]
    }
  }
}
