{
  "_id": "gJpPcE0uL09rBMTb",
  "name": "Profane Bomb",
  "type": "feat",
  "img": "systems/pf1/icons/items/potions/unique-3.jpg",
  "sort": 0,
  "flags": {},
  "system": {
    "description": {
      "value": "<p>When the alchemist creates a bomb, he can choose to have it deal evil divine damage. Good creatures that take a direct hit from a profane bomb must succeed at a Fortitude save or be staggered on their next turn. Against a neutral creature, a profane bomb deals half damage, and the target is not affected by the bomb’s staggering effect. A profane bomb has no effect against evil-aligned creatures.</p>\n<p>An alchemist must be at least 8th level to select this discovery.</p>"
    },
    "tags": [],
    "actions": [],
    "attackNotes": [],
    "effectNotes": [],
    "changes": [],
    "contextNotes": [],
    "links": {
      "children": [],
      "charges": []
    },
    "tag": "classFeat_profaneBomb",
    "useCustomTag": true,
    "armorProf": {
      "value": []
    },
    "weaponProf": {
      "value": []
    },
    "languages": {
      "value": []
    },
    "scriptCalls": [],
    "subType": "classFeat",
    "associations": {
      "classes": [["Alchemist"]]
    }
  }
}
