{
  "_id": "vcyXuW0vyEtq1QEv",
  "name": "Searing Flame",
  "type": "feat",
  "img": "systems/pf1/icons/spells/fireball-red-3.jpg",
  "sort": 0,
  "flags": {},
  "system": {
    "description": {
      "value": "<p><strong>Element&nbsp;</strong>fire;&nbsp;<strong>Type&nbsp;</strong>utility (Su);&nbsp;<strong>Level&nbsp;</strong>2;&nbsp;<strong>Burn&nbsp;</strong>—<br><strong>Prerequisite&nbsp;</strong>burning infusion</p>\n<p>Over time, your burning infusion sears away your foe’s fire resistance. When you roll burn damage from burning infusion against a foe, decrease the foe’s fire resistance by an amount equal to the unmodified burn damage; don’t apply fire resistance to this roll for the purpose of determining the reduction.</p>\n<p>This decrease lasts for a number of rounds equal to 1/2 your kineticist level. These decreases stack, to a minimum resistance of 0.</p>"
    },
    "tags": [],
    "actions": [],
    "attackNotes": [],
    "effectNotes": [],
    "changes": [],
    "contextNotes": [],
    "links": {
      "children": [],
      "charges": []
    },
    "tag": "classFeat_searingFlame",
    "useCustomTag": true,
    "armorProf": {
      "value": []
    },
    "weaponProf": {
      "value": []
    },
    "languages": {
      "value": []
    },
    "scriptCalls": [],
    "subType": "classFeat",
    "associations": {
      "classes": [["Kineticist"]]
    },
    "abilityType": "su"
  }
}
