{
  "_id": "H5BScdULGUCOEt5L",
  "name": "Shadow Subdomain",
  "type": "feat",
  "img": "systems/pf1/icons/skills/shadow_11.jpg",
  "sort": 0,
  "flags": {},
  "system": {
    "description": {
      "value": "<p><span id=\"ctl00_MainContent_DataListTypes_ctl00_LabelName\"><strong>Replacement Domain Spells: </strong></span></p>\n<ul>\n<li><span id=\"ctl00_MainContent_DataListTypes_ctl00_LabelName\">1st—@Compendium[pf1.spells.mczdgwo3xl8c6e26]{Ray Of Enfeeblement}</span></li>\n<li><span id=\"ctl00_MainContent_DataListTypes_ctl00_LabelName\">4th—@Compendium[pf1.spells.6efjgs1qvmj6yxqv]{Phantasmal Killer}</span></li>\n<li><span id=\"ctl00_MainContent_DataListTypes_ctl00_LabelName\">8th—@Compendium[pf1.spells.003tu19dpyoaj0se]{Orb Of The Void}</span></li>\n</ul>"
    },
    "tags": [],
    "actions": [],
    "attackNotes": [],
    "effectNotes": [],
    "changes": [],
    "contextNotes": [],
    "links": {
      "children": [],
      "charges": []
    },
    "tag": "classFeat_shadowSubdomain",
    "useCustomTag": true,
    "armorProf": {
      "value": []
    },
    "weaponProf": {
      "value": []
    },
    "languages": {
      "value": []
    },
    "scriptCalls": [],
    "subType": "classFeat",
    "associations": {
      "classes": [["Cleric"]]
    }
  }
}
