{
  "_id": "0VRik2E5Ro3NZNjE",
  "name": "Spirit Totem, Greater",
  "type": "feat",
  "img": "systems/pf1/icons/feats/deafening-critical.jpg",
  "sort": 0,
  "flags": {},
  "system": {
    "description": {
      "value": "<p>While raging, the spirits that surround the barbarian become dangerous to any enemy adjacent to the barbarian. Living enemies adjacent to the barbarian at the start of her turn take 1d8 points of negative energy damage. In addition, the spirit wisps can now attack foes that are up to 15 feet away from the barbarian and the slam attack deals 1d6 points of negative energy damage.</p>\n<p>A barbarian must have the spirit totem rage power and be at least 10th level to select this rage power.</p>"
    },
    "tags": [],
    "actions": [],
    "attackNotes": [],
    "effectNotes": [],
    "changes": [],
    "contextNotes": [],
    "links": {
      "children": [],
      "charges": []
    },
    "tag": "classFeat_spiritTotemGreater",
    "useCustomTag": true,
    "armorProf": {
      "value": []
    },
    "weaponProf": {
      "value": []
    },
    "languages": {
      "value": []
    },
    "scriptCalls": [],
    "subType": "classFeat",
    "associations": {
      "classes": [["Barbarian"], ["Skald"]]
    },
    "abilityType": "su"
  }
}
