{
  "_id": "OgeTXsq1zZfBg6kZ",
  "name": "Stone Sculptor",
  "type": "feat",
  "img": "systems/pf1/icons/spells/rock-sky-3.jpg",
  "sort": 0,
  "flags": {},
  "system": {
    "description": {
      "value": "<p><strong>Element&nbsp;</strong>earth;&nbsp;<strong>Type&nbsp;</strong>utility (Sp);&nbsp;<strong>Level&nbsp;</strong>5;&nbsp;<strong>Burn&nbsp;</strong>0</p>\n<p>You can sculpt earth into any shape, as the spell @Compendium[pf1.spells.g1evszmk8wfgnsv5]{Stone Shape}.</p>"
    },
    "tags": [],
    "actions": [],
    "attackNotes": [],
    "effectNotes": [],
    "changes": [],
    "contextNotes": [],
    "links": {
      "children": [],
      "charges": []
    },
    "tag": "classFeat_stoneSculptor",
    "useCustomTag": true,
    "armorProf": {
      "value": []
    },
    "weaponProf": {
      "value": []
    },
    "languages": {
      "value": []
    },
    "scriptCalls": [],
    "subType": "classFeat",
    "associations": {
      "classes": [["Kineticist"]]
    },
    "abilityType": "sp"
  }
}
