{
  "_id": "pYWYSvMABMSfv5yE",
  "name": "Strike Through Shadow",
  "type": "feat",
  "img": "systems/pf1/icons/skills/red_05.jpg",
  "sort": 0,
  "flags": {},
  "system": {
    "description": {
      "value": "<p>At 12th level, you can declare a single melee attack as a strike through shadow. This attack moves through its target’s shadow and strikes from below or inside its armor. You make this attack against the target’s touch AC.</p>\n<p>You can use this ability once per day, plus an additional time per day each at 15th and 18th levels.</p>"
    },
    "tags": [],
    "actions": [],
    "attackNotes": [],
    "effectNotes": [],
    "changes": [],
    "contextNotes": [],
    "links": {
      "children": [],
      "charges": []
    },
    "tag": "classFeat_strikeThroughShadow",
    "useCustomTag": true,
    "armorProf": {
      "value": []
    },
    "weaponProf": {
      "value": []
    },
    "languages": {
      "value": []
    },
    "scriptCalls": [],
    "subType": "classFeat",
    "associations": {
      "classes": [["Bloodrager"]]
    },
    "abilityType": "su"
  }
}
