{
  "_id": "hArwE7SbM3qGvlMs",
  "name": "Supercharge",
  "type": "feat",
  "img": "systems/pf1/icons/skills/shadow_07.jpg",
  "sort": 0,
  "flags": {},
  "system": {
    "description": {
      "value": "<p>At 11th level, when using gather power as a move action, a kineticist can reduce the total burn cost of a single wild talent by 2 points instead of 1. When using gather power for 1 full round, she can reduce the burn cost of a single wild talent by 3 points instead of 2.</p>"
    },
    "tags": [],
    "actions": [],
    "attackNotes": [],
    "effectNotes": [],
    "changes": [],
    "contextNotes": [],
    "links": {
      "children": [],
      "charges": []
    },
    "tag": "classFeat_supercharge",
    "useCustomTag": true,
    "armorProf": {
      "value": []
    },
    "weaponProf": {
      "value": []
    },
    "languages": {
      "value": []
    },
    "scriptCalls": [],
    "subType": "classFeat",
    "associations": {
      "classes": [["Kineticist"]]
    },
    "abilityType": "su"
  }
}
