{
  "_id": "aNjzcnoRiuqbsm20",
  "name": "Supreme Challenge",
  "type": "feat",
  "img": "systems/pf1/icons/skills/emerald_06.jpg",
  "sort": 0,
  "flags": {},
  "system": {
    "description": {
      "value": "<p>At 20th level, whenever the cavalier makes a charge attack while mounted, he deals double the normal amount of damage (or triple if using a lance). In addition, if the cavalier confirms a critical hit on a charge attack while mounted, the target is stunned for 1d4 rounds. A Will save reduces this to staggered for 1d4 rounds. The DC is equal to 10 + the cavalier’s base attack bonus.</p>"
    },
    "tags": [],
    "actions": [],
    "attackNotes": [],
    "effectNotes": [],
    "changes": [],
    "contextNotes": [],
    "links": {
      "children": [],
      "charges": []
    },
    "tag": "classFeat_supremeChallenge",
    "useCustomTag": true,
    "armorProf": {
      "value": []
    },
    "weaponProf": {
      "value": []
    },
    "languages": {
      "value": []
    },
    "scriptCalls": [],
    "subType": "classFeat",
    "associations": {
      "classes": [["Cavalier"]]
    },
    "abilityType": "ex"
  }
}
