{
  "_id": "kEVqxs23oyNDxbc1",
  "name": "Swift Alchemy (INV)",
  "type": "feat",
  "img": "systems/pf1/icons/skills/violet_25.jpg",
  "sort": 0,
  "flags": {},
  "system": {
    "description": {
      "value": "<p>At 4th level, an investigator can create alchemical items with astounding speed. It takes an investigator half the normal amount of time to create alchemical items. He can also apply&nbsp;<em>poison</em>&nbsp;to a weapon as a&nbsp;<em>move action</em>&nbsp;instead of a&nbsp;<em>standard action</em>.</p>"
    },
    "tags": [],
    "actions": [],
    "attackNotes": [],
    "effectNotes": [],
    "changes": [],
    "contextNotes": [],
    "links": {
      "children": [],
      "charges": []
    },
    "tag": "classFeat_swiftAlchemyInv",
    "useCustomTag": true,
    "armorProf": {
      "value": []
    },
    "weaponProf": {
      "value": []
    },
    "languages": {
      "value": []
    },
    "scriptCalls": [],
    "subType": "classFeat",
    "associations": {
      "classes": [["Investigator"]]
    },
    "abilityType": "ex"
  }
}
