{
  "_id": "Rh0LztkmetWVC6jk",
  "name": "Teamwork Feat (HUN)",
  "type": "feat",
  "img": "systems/pf1/icons/skills/violet_03.jpg",
  "sort": 0,
  "flags": {},
  "system": {
    "description": {
      "value": "<p>At 3rd level and every 3 levels thereafter, the hunter gains a bonus teamwork feat in addition to those gained from normal advancement. The hunter must meet the prerequisites of the selected bonus teamwork feat.<br><br>As a standard action, the hunter can choose to learn a new bonus teamwork feat in place of the most recent bonus teamwork feat she has already learned. In effect, the hunter loses the bonus feat in exchange for the new one. She can change only the most recent teamwork feat gained, and must meet the prerequisites for the newly selected feat. A hunter can change her most recent teamwork feat a number of times per day equal to her Wisdom modifier (minimum 1). Whenever she gains a new teamwork feat, her previous teamwork feats become permanent.</p>"
    },
    "tags": [],
    "actions": [],
    "attackNotes": [],
    "effectNotes": [],
    "changes": [
      {
        "_id": "0eh5ngtp",
        "formula": "floor(@classes.hunter.level / 3)",
        "operator": "add",
        "subTarget": "bonusFeats",
        "modifier": "untyped",
        "priority": 0,
        "value": 0,
        "target": "misc"
      }
    ],
    "contextNotes": [],
    "links": {
      "children": [],
      "charges": []
    },
    "tag": "classFeat_teamworkFeatHun",
    "useCustomTag": true,
    "armorProf": {
      "value": []
    },
    "weaponProf": {
      "value": []
    },
    "languages": {
      "value": []
    },
    "scriptCalls": [],
    "subType": "classFeat",
    "associations": {
      "classes": [["Hunter"]]
    }
  }
}
