{
  "_id": "sdPGUAeJkb8LuSE4",
  "name": "Timeless Soul",
  "type": "feat",
  "img": "systems/pf1/icons/spells/runes-magenta-3.jpg",
  "sort": 0,
  "flags": {},
  "system": {
    "description": {
      "value": "<p>At 20th level, the silver skies and conduits of the&nbsp;<em>Astral Plane</em>&nbsp;are permanently connected to you. You become immune to the retroactive aging side effects incurred when leaving a plane with the timeless planar trait. You do not gain&nbsp;<em>negative levels</em>&nbsp;when slain on the&nbsp;<em>Astral Plane</em>&nbsp;while using @Compendium[pf1.spells.lnahlmp5mih2ongh]{Astral Projection}, and any effect that would sever your silver cord instead returns you to your physical body if you succeed at a&nbsp;<em>Will</em>&nbsp;save (DC = 10 + the CR of the creature or&nbsp;<em>caster level</em>&nbsp;of the effect that severed the cord). In addition, when applying the @Compendium[pf1.feats.wFoLrh5FeeqBXsQ8]{Quicken Spell}&nbsp;<em>metamagic feat</em>&nbsp;to a spell, it uses up a spell slot only 3 levels higher than the spell’s actual level. This ability does not stack with other abilities that would reduce the spell’s final adjusted level.</p>"
    },
    "tags": [],
    "actions": [
      {
        "_id": "7c4cw1bnpbyiz01i",
        "name": "Use",
        "img": "systems/pf1/icons/spells/runes-magenta-3.jpg",
        "description": "",
        "tag": "",
        "activation": {
          "cost": 1,
          "type": "passive"
        },
        "unchainedAction": {
          "activation": {
            "cost": 1,
            "type": "passive"
          }
        },
        "duration": {
          "value": null,
          "units": ""
        },
        "target": {
          "value": ""
        },
        "range": {
          "value": null,
          "units": "",
          "maxIncrements": 1,
          "minValue": null,
          "minUnits": ""
        },
        "uses": {
          "autoDeductChargesCost": "",
          "self": {
            "value": 0,
            "maxFormula": "",
            "per": null
          },
          "per": "",
          "value": 0,
          "maxFormula": ""
        },
        "measureTemplate": {
          "type": "",
          "size": "0",
          "overrideColor": false,
          "customColor": "",
          "overrideTexture": false,
          "customTexture": ""
        },
        "attackName": "",
        "actionType": "",
        "attackBonus": "",
        "critConfirmBonus": "",
        "damage": {
          "parts": [],
          "critParts": [],
          "nonCritParts": []
        },
        "attackParts": [],
        "formulaicAttacks": {
          "count": {
            "formula": ""
          },
          "bonus": {
            "formula": ""
          },
          "label": null
        },
        "formula": "",
        "ability": {
          "attack": null,
          "damage": null,
          "damageMult": 1,
          "critRange": 20,
          "critMult": 2
        },
        "save": {
          "dc": 0,
          "type": "",
          "description": ""
        },
        "effectNotes": [],
        "attackNotes": [],
        "soundEffect": "",
        "powerAttack": {
          "multiplier": "",
          "damageBonus": 2,
          "critMultiplier": 1
        },
        "naturalAttack": {
          "primaryAttack": true,
          "secondary": {
            "attackBonus": "-5",
            "damageMult": 0.5
          }
        },
        "nonlethal": false,
        "usesAmmo": false,
        "spellEffect": "",
        "spellArea": "",
        "conditionals": [],
        "enh": {
          "value": null
        }
      }
    ],
    "uses": {
      "per": ""
    },
    "attackNotes": [],
    "effectNotes": [],
    "changes": [],
    "contextNotes": [],
    "links": {
      "children": [],
      "charges": []
    },
    "tag": "classFeat_timelessSoul",
    "useCustomTag": true,
    "armorProf": {
      "value": []
    },
    "weaponProf": {
      "value": []
    },
    "languages": {
      "value": []
    },
    "scriptCalls": [],
    "subType": "classFeat",
    "associations": {
      "classes": [["Sorcerer"]]
    },
    "abilityType": "ex"
  }
}
