{
  "_id": "plffeRWEwIf0EvqS",
  "name": "True Petrification",
  "type": "feat",
  "img": "systems/pf1/icons/skills/red_05.jpg",
  "sort": 0,
  "flags": {},
  "system": {
    "description": {
      "value": "<p>At 20th level, you can use your gaze bloodline ability to permanently turn a creature to stone, as @Compendium[pf1.spells.361rc74674l3zt9a]{Flesh to Stone}. You can still use the less powerful versions of your gaze if you do not wish to turn the target to stone, but you must declare this at the time of the attack.</p>"
    },
    "tags": [],
    "actions": [],
    "attackNotes": [],
    "effectNotes": [],
    "changes": [],
    "contextNotes": [],
    "links": {
      "children": [],
      "charges": []
    },
    "tag": "classFeat_truePetrification",
    "useCustomTag": true,
    "armorProf": {
      "value": []
    },
    "weaponProf": {
      "value": []
    },
    "languages": {
      "value": []
    },
    "scriptCalls": [],
    "subType": "classFeat",
    "associations": {
      "classes": [["Bloodrager"]]
    },
    "abilityType": "su"
  }
}
