{
  "_id": "EL0adl6mD4zl08Of",
  "name": "Vestige Sorcerer",
  "type": "feat",
  "img": "systems/pf1/icons/skills/blue_07.jpg",
  "sort": 0,
  "flags": {},
  "system": {
    "description": {
      "value": "<p><em>You trace your ancestry to a bygone civilization and can call upon its forgotten people or places for power.</em></p>\n<p><strong>Class Skill:</strong>&nbsp;<em>Knowledge</em>&nbsp;(history).</p>\n<p><strong>Bonus Spells:</strong>@Compendium[pf1.spells.llxrra87kbofmyhl]{Identify}&nbsp;(3rd), @Compendium[pf1.spells.9hi94t05i449j5ul]{Share Memory}&nbsp;(5th), @Compendium[pf1.spells.2dc7e9wby8qpi6m0]{Arcane Sight}&nbsp;(7th), @Compendium[pf1.spells.pyr472hvqn8c8es2]{Hypercognition}&nbsp;(9th), @Compendium[pf1.spells.zuqlok69lapqc6lg]{Telepathic Bond}&nbsp;(11th), @Compendium[pf1.spells.f2awecndqcmhavq7]{Analyze Dweomer}&nbsp;(13th), @Compendium[pf1.spells.aqeaxoaozlv9vg35]{Vision}&nbsp;(15th), @Compendium[pf1.spells.gw2sgj93dgarpem8]{Discern Location}&nbsp;(17th), @Compendium[pf1.spells.vl7yer8k1leyuxld]{Foresight}&nbsp;(19th).</p>\n<p><strong>Bonus Feats:</strong> @Compendium[pf1.feats.QvlxYVVsBDlykPKe]{Arcane Strike}, @Compendium[pf1.feats.7bJjKqNRrvpXJ4L3]{Augment Summoning}, @Compendium[pf1.feats.tD76K8QGco9scT0r]{Craft Wondrous Item},&nbsp;<em>Echoing Spell</em>, @Compendium[pf1.feats.iAbIGhm7T2OK9Brt]{Iron Will}, @Compendium[pf1.feats.R3a1OV18RwDJftvq]{Leadership}, @Compendium[pf1.feats.7zJTztNW7hdaqjKc]{Skill Focus}&nbsp;(<em>Knowledge</em>&nbsp;[history]), @Compendium[pf1.feats.V2zY7BltkpSXwejy]{Spell Focus}.</p>\n<p><strong>Bloodline Arcana: </strong>Whenever you cast a spell of the&nbsp;<em>divination</em>&nbsp;school, you see into the past. You gain an&nbsp;<em>insight bonus</em>&nbsp;equal to the&nbsp;<em>divination</em>&nbsp;spell’s level on the next&nbsp;<em>Appraise</em>,&nbsp;<em>Craft</em>, or&nbsp;<em>Knowledge</em>&nbsp;skill check you attempt within 24 hours.</p>"
    },
    "tags": [],
    "actions": [],
    "attackNotes": [],
    "effectNotes": [],
    "changes": [],
    "contextNotes": [],
    "links": {
      "children": [],
      "charges": []
    },
    "tag": "classFeat_vestigeSorcerer",
    "useCustomTag": true,
    "armorProf": {
      "value": []
    },
    "weaponProf": {
      "value": []
    },
    "languages": {
      "value": []
    },
    "scriptCalls": [],
    "subType": "classFeat",
    "associations": {
      "classes": [["Sorcerer"]]
    }
  }
}
