{
  "_id": "IMfRzxwY7aHItD9v",
  "name": "Webbed Extremities",
  "type": "feat",
  "img": "systems/pf1/icons/items/potions/unique-3.jpg",
  "sort": 0,
  "flags": {},
  "system": {
    "description": {
      "value": "<p>An alchemist with this discovery grows membranes between his fingers and toes, greatly improving his movement underwater. The alchemist gains a +4 alchemical bonus on Swim checks and can take 10 on a Swim check even if distracted or endangered while swimming.</p>"
    },
    "tags": [],
    "actions": [],
    "attackNotes": [],
    "effectNotes": [],
    "changes": [
      {
        "_id": "j83znksr",
        "formula": "4",
        "operator": "add",
        "subTarget": "skill.swm",
        "modifier": "alchemical",
        "priority": 0,
        "value": 0,
        "target": "skill"
      }
    ],
    "contextNotes": [],
    "links": {
      "children": [],
      "charges": []
    },
    "tag": "classFeat_webbedExtremities",
    "useCustomTag": true,
    "armorProf": {
      "value": []
    },
    "weaponProf": {
      "value": []
    },
    "languages": {
      "value": []
    },
    "scriptCalls": [],
    "subType": "classFeat",
    "associations": {
      "classes": [["Alchemist"]]
    }
  }
}
