{
  "_id": "H9Z3uejN1lKRABWV",
  "name": "Whip Hurricane Infusion",
  "type": "feat",
  "img": "systems/pf1/icons/spells/runes-blue-1.jpg",
  "sort": 0,
  "flags": {},
  "system": {
    "description": {
      "value": "<p><strong>Element&nbsp;</strong>universal;&nbsp;<strong>Type&nbsp;</strong>form infusion;&nbsp;<strong>Level&nbsp;</strong>6;&nbsp;<strong>Burn&nbsp;</strong>4<br><strong>Prerequisite&nbsp;</strong>kinetic blade, kinetic whip, blade whirlwind<br><strong>Associated Blasts&nbsp;</strong>any<br><strong>Saving Throw&nbsp;</strong>none</p>\n<p>As blade whirlwind, except it manifests a kinetic whip, and the whip lasts until the beginning of your next turn or until you use any form infusion that creates a blade or whip again, whichever comes first.</p>"
    },
    "tags": [],
    "actions": [],
    "attackNotes": [],
    "effectNotes": [],
    "changes": [],
    "contextNotes": [],
    "links": {
      "children": [],
      "charges": []
    },
    "tag": "classFeat_whipHurricaneInfusion",
    "useCustomTag": true,
    "armorProf": {
      "value": []
    },
    "weaponProf": {
      "value": []
    },
    "languages": {
      "value": []
    },
    "scriptCalls": [],
    "subType": "classFeat",
    "associations": {
      "classes": [["Kineticist"]]
    }
  }
}
