{
  "_id": "83suv15a15s4dn1m",
  "name": "Ancestral Gift",
  "type": "spell",
  "img": "systems/pf1/icons/misc/magic-swirl.png",
  "sort": 0,
  "flags": {},
  "system": {
    "tags": [],
    "actions": [
      {
        "_id": "54k5eiix4aqam45o",
        "name": "Use",
        "img": "systems/pf1/icons/misc/magic-swirl.png",
        "description": "",
        "tag": "",
        "activation": {
          "cost": 1,
          "type": "standard"
        },
        "unchainedAction": {
          "activation": {
            "cost": 2,
            "type": "action"
          }
        },
        "duration": {
          "value": "10 minutes/level",
          "units": ""
        },
        "target": {
          "value": ""
        },
        "range": {
          "value": null,
          "units": "personal",
          "maxIncrements": 1,
          "minValue": null,
          "minUnits": ""
        },
        "uses": {
          "autoDeductChargesCost": "",
          "self": {
            "value": 0,
            "maxFormula": "",
            "per": null
          },
          "per": "",
          "value": 0,
          "maxFormula": ""
        },
        "measureTemplate": {
          "type": "",
          "size": "0",
          "overrideColor": false,
          "customColor": "",
          "overrideTexture": false,
          "customTexture": ""
        },
        "attackName": "",
        "actionType": "other",
        "attackBonus": "",
        "critConfirmBonus": "",
        "damage": {
          "parts": [],
          "critParts": [],
          "nonCritParts": []
        },
        "attackParts": [],
        "formulaicAttacks": {
          "count": {
            "formula": ""
          },
          "bonus": {
            "formula": ""
          },
          "label": null
        },
        "formula": "",
        "ability": {
          "attack": "",
          "damage": "",
          "damageMult": 1,
          "critRange": 20,
          "critMult": 2
        },
        "save": {
          "dc": "0",
          "type": "",
          "description": ""
        },
        "effectNotes": [],
        "attackNotes": [],
        "soundEffect": "",
        "powerAttack": {
          "multiplier": "",
          "damageBonus": 2,
          "critMultiplier": 1
        },
        "naturalAttack": {
          "primaryAttack": true,
          "secondary": {
            "attackBonus": "-5",
            "damageMult": 0.5
          }
        },
        "nonlethal": false,
        "usesAmmo": false,
        "spellEffect": "magical weapon",
        "spellArea": "",
        "conditionals": [],
        "enh": {
          "value": null
        }
      }
    ],
    "uses": {
      "per": ""
    },
    "attackNotes": [],
    "effectNotes": [],
    "links": {
      "children": []
    },
    "scriptCalls": [],
    "learnedAt": {
      "class": [
        ["cleric/oracle", 4],
        ["bard", 4]
      ],
      "domain": [],
      "subDomain": [],
      "elementalSchool": [],
      "bloodline": []
    },
    "level": 4,
    "school": "con",
    "subschool": "summoning",
    "components": {
      "verbal": true,
      "somatic": true,
      "focus": true,
      "divineFocus": 3
    },
    "materials": {
      "focus": "stone or metal image of your ancestor"
    },
    "sr": false,
    "shortDescription": "<p>A ghostly manifestation of one of your ancestors appears before you bearing a weapon of your choice in its hands. The weapon may be any simple, martial, or dwarven weapon. It has a +1 enhancement bonus and one weapon special ability (your choice) from the <i>Pathfinder RPG Core Rulebook</i> with a price equivalent to a +1 bonus (if the weapon is a double weapon, the ability and the enhancement bonus only apply to one end, or the weapon can have a +1 enhancement bonus on both ends but no other magical abilities).</p><p>You may use the weapon as if you were proficient in it. The weapon may not be wielded by anyone else, and if removed from your grasp, it vanishes and the spell ends immediately.</p><p>If you conjure a weapon with the flaming, frost, shock, or <i>thundering</i> property, this spell has the fire, cold, electricity, or sonic descriptor (respectively).</p>"
  }
}
