{
  "_id": "7x2z0i8rcx7s81fk",
  "name": "Daylight",
  "type": "spell",
  "img": "systems/pf1/icons/misc/magic-swirl.png",
  "sort": 0,
  "flags": {},
  "system": {
    "tags": [],
    "actions": [
      {
        "_id": "df4t4azbjo8nfk1o",
        "name": "Use",
        "img": "systems/pf1/icons/misc/magic-swirl.png",
        "description": "",
        "tag": "",
        "activation": {
          "cost": 1,
          "type": "standard"
        },
        "unchainedAction": {
          "activation": {
            "cost": 2,
            "type": "action"
          }
        },
        "duration": {
          "value": "10 min./level (D)",
          "units": ""
        },
        "target": {
          "value": "object touched"
        },
        "range": {
          "value": null,
          "units": "touch",
          "maxIncrements": 1,
          "minValue": null,
          "minUnits": ""
        },
        "uses": {
          "autoDeductChargesCost": "",
          "self": {
            "value": 0,
            "maxFormula": "",
            "per": null
          },
          "per": "",
          "value": 0,
          "maxFormula": ""
        },
        "measureTemplate": {
          "type": "",
          "size": "0",
          "overrideColor": false,
          "customColor": "",
          "overrideTexture": false,
          "customTexture": ""
        },
        "attackName": "",
        "actionType": "",
        "attackBonus": "",
        "critConfirmBonus": "",
        "damage": {
          "parts": [],
          "critParts": [],
          "nonCritParts": []
        },
        "attackParts": [],
        "formulaicAttacks": {
          "count": {
            "formula": ""
          },
          "bonus": {
            "formula": ""
          },
          "label": null
        },
        "formula": "",
        "ability": {
          "attack": "",
          "damage": "",
          "damageMult": 1,
          "critRange": 20,
          "critMult": 2
        },
        "save": {
          "dc": "0",
          "type": "",
          "description": ""
        },
        "effectNotes": [],
        "attackNotes": [],
        "soundEffect": "",
        "powerAttack": {
          "multiplier": "",
          "damageBonus": 2,
          "critMultiplier": 1
        },
        "naturalAttack": {
          "primaryAttack": true,
          "secondary": {
            "attackBonus": "-5",
            "damageMult": 0.5
          }
        },
        "nonlethal": false,
        "usesAmmo": false,
        "spellEffect": "",
        "spellArea": "",
        "conditionals": [],
        "enh": {
          "value": null
        }
      }
    ],
    "uses": {
      "per": ""
    },
    "attackNotes": [],
    "effectNotes": [],
    "links": {
      "children": []
    },
    "scriptCalls": [],
    "learnedAt": {
      "class": [
        ["sorcerer/wizard", 3],
        ["cleric/oracle", 3],
        ["druid", 3],
        ["bard", 3],
        ["paladin", 3],
        ["inquisitor", 3],
        ["magus", 3],
        ["adept", 3],
        ["shaman", 3],
        ["occultist", 3],
        ["hunter", 3]
      ],
      "domain": [],
      "subDomain": [
        ["Day", 3],
        ["Light", 3]
      ],
      "elementalSchool": [],
      "bloodline": []
    },
    "level": 3,
    "school": "evo",
    "types": "light",
    "components": {
      "verbal": true,
      "somatic": true
    },
    "sr": false,
    "shortDescription": "<p>You touch an object when you cast this spell, causing the object to shed bright light in a 60-foot radius. This illumination increases the light level for an additional 60 feet by one step (<i>darkness</i> becomes dim light, dim light becomes normal light, and normal light becomes bright light). Creatures that take penalties in bright light take them while within the 60-foot radius of this magical light. Despite its name, this spell is not the equivalent of <i>daylight</i> for the purposes of creatures that are damaged or destroyed by such light.</p><p>If <i>daylight</i> is cast on a small object that is then placed inside or under a light-proof covering, the spell's effects are blocked until the covering is removed.</p><p><i>Daylight</i> brought into an area of magical <i>darkness</i> (or vice versa) is temporarily negated, so that the otherwise prevailing light conditions exist in the overlapping areas of effect.</p><p><i>Daylight</i> counters or dispels any <i>darkness</i> spell of equal or lower level, such as <i>darkness</i>.</p>"
  }
}
