{
  "_id": "65i0wc0e6fq0evk5",
  "name": "Detect Animals or Plants",
  "type": "spell",
  "img": "systems/pf1/icons/misc/magic-swirl.png",
  "sort": 0,
  "flags": {},
  "system": {
    "tags": [],
    "actions": [
      {
        "_id": "sr0wgb5bjkpifm18",
        "name": "Use",
        "img": "systems/pf1/icons/misc/magic-swirl.png",
        "description": "",
        "tag": "",
        "activation": {
          "cost": 1,
          "type": "standard"
        },
        "unchainedAction": {
          "activation": {
            "cost": 2,
            "type": "action"
          }
        },
        "duration": {
          "value": "concentration, up to 10 min./level",
          "units": ""
        },
        "target": {
          "value": ""
        },
        "range": {
          "value": null,
          "units": "long",
          "maxIncrements": 1,
          "minValue": null,
          "minUnits": ""
        },
        "uses": {
          "autoDeductChargesCost": "",
          "self": {
            "value": 0,
            "maxFormula": "",
            "per": null
          },
          "per": "",
          "value": 0,
          "maxFormula": ""
        },
        "measureTemplate": {
          "type": "",
          "size": "0",
          "overrideColor": false,
          "customColor": "",
          "overrideTexture": false,
          "customTexture": ""
        },
        "attackName": "",
        "actionType": "",
        "attackBonus": "",
        "critConfirmBonus": "",
        "damage": {
          "parts": [],
          "critParts": [],
          "nonCritParts": []
        },
        "attackParts": [],
        "formulaicAttacks": {
          "count": {
            "formula": ""
          },
          "bonus": {
            "formula": ""
          },
          "label": null
        },
        "formula": "",
        "ability": {
          "attack": "",
          "damage": "",
          "damageMult": 1,
          "critRange": 20,
          "critMult": 2
        },
        "save": {
          "dc": "0",
          "type": "",
          "description": ""
        },
        "effectNotes": [],
        "attackNotes": [],
        "soundEffect": "",
        "powerAttack": {
          "multiplier": "",
          "damageBonus": 2,
          "critMultiplier": 1
        },
        "naturalAttack": {
          "primaryAttack": true,
          "secondary": {
            "attackBonus": "-5",
            "damageMult": 0.5
          }
        },
        "nonlethal": false,
        "usesAmmo": false,
        "spellEffect": "",
        "spellArea": "cone-shaped emanation",
        "conditionals": [],
        "enh": {
          "value": null
        }
      }
    ],
    "uses": {
      "per": ""
    },
    "attackNotes": [],
    "effectNotes": [],
    "links": {
      "children": []
    },
    "scriptCalls": [],
    "learnedAt": {
      "class": [
        ["druid", 1],
        ["ranger", 1],
        ["shaman", 1],
        ["psychic", 1],
        ["hunter", 1]
      ],
      "domain": [],
      "subDomain": [],
      "elementalSchool": [],
      "bloodline": []
    },
    "school": "div",
    "components": {
      "verbal": true,
      "somatic": true
    },
    "sr": false,
    "shortDescription": "<p>You can detect a particular kind of animal or plant in a cone emanating out from you in whatever direction you face. You must think of a kind of animal or plant when using the spell, but you can change the animal or plant kind each round. The amount of information revealed depends on how long you search a particular area or focus on a specific kind of animal or plant.</p><p><i>1st Round</i>: Presence or absence of that kind of animal or plant in the area.</p><p><i>2nd Round</i>: Number of individuals of the specified kind in the area and the condition of the healthiest specimen.</p><p><i>3rd Round</i>: The condition (see below) and location of each individual present. If an animal or a plant is outside your line of sight, then you discern its direction but not its exact location.</p><p><i>Conditions</i>: For purposes of this spell, the categories of condition are as follows: Normal: Has at least 90% of full normal hit points, free of disease.</p><p>Fair: 30% to 90% of full normal hit points remaining.</p><p>Poor: Less than 30% of full normal hit points remaining, afflicted with a disease, or suffering from a debilitating injury.</p><p>Weak: 0 or fewer hit points remaining, afflicted with a disease that has reduced an ability score to 5 or less, or crippled.</p><p>If a creature falls into more than one category, the spell indicates the weaker of the two.</p><p>Each round you can turn to detect a kind of animal or plant in a new area. The spell can penetrate barriers, but 1 foot of stone, 1 inch of common metal, a thin sheet of lead, or 3 feet of wood or dirt blocks it.</p>"
  }
}
