{
  "_id": "ifcnx1yyw6e7ousm",
  "name": "Dream",
  "type": "spell",
  "img": "systems/pf1/icons/misc/magic-swirl.png",
  "sort": 0,
  "flags": {},
  "system": {
    "tags": [],
    "actions": [
      {
        "_id": "q9l11l9hbmo0vqcc",
        "name": "Use",
        "img": "systems/pf1/icons/misc/magic-swirl.png",
        "description": "",
        "tag": "",
        "activation": {
          "cost": 1,
          "type": "minute"
        },
        "unchainedAction": {
          "activation": {
            "cost": 1,
            "type": "minute"
          }
        },
        "duration": {
          "value": "see text",
          "units": ""
        },
        "target": {
          "value": "one living creature touched"
        },
        "range": {
          "value": null,
          "units": "",
          "maxIncrements": 1,
          "minValue": null,
          "minUnits": ""
        },
        "uses": {
          "autoDeductChargesCost": "",
          "self": {
            "value": 0,
            "maxFormula": "",
            "per": null
          },
          "per": "",
          "value": 0,
          "maxFormula": ""
        },
        "measureTemplate": {
          "type": "",
          "size": "0",
          "overrideColor": false,
          "customColor": "",
          "overrideTexture": false,
          "customTexture": ""
        },
        "attackName": "",
        "actionType": "",
        "attackBonus": "",
        "critConfirmBonus": "",
        "damage": {
          "parts": [],
          "critParts": [],
          "nonCritParts": []
        },
        "attackParts": [],
        "formulaicAttacks": {
          "count": {
            "formula": ""
          },
          "bonus": {
            "formula": ""
          },
          "label": null
        },
        "formula": "",
        "ability": {
          "attack": "",
          "damage": "",
          "damageMult": 1,
          "critRange": 20,
          "critMult": 2
        },
        "save": {
          "dc": "0",
          "type": "",
          "description": ""
        },
        "effectNotes": [],
        "attackNotes": [],
        "soundEffect": "",
        "powerAttack": {
          "multiplier": "",
          "damageBonus": 2,
          "critMultiplier": 1
        },
        "naturalAttack": {
          "primaryAttack": true,
          "secondary": {
            "attackBonus": "-5",
            "damageMult": 0.5
          }
        },
        "nonlethal": false,
        "usesAmmo": false,
        "spellEffect": "",
        "spellArea": "",
        "conditionals": [],
        "enh": {
          "value": null
        }
      }
    ],
    "uses": {
      "per": ""
    },
    "attackNotes": [],
    "effectNotes": [],
    "links": {
      "children": []
    },
    "scriptCalls": [],
    "learnedAt": {
      "class": [
        ["sorcerer/wizard", 5],
        ["bard", 5],
        ["alchemist", 5],
        ["psychic", 4],
        ["medium", 3],
        ["mesmerist", 4],
        ["spiritualist", 5]
      ],
      "domain": [],
      "subDomain": [
        ["Moon", 6],
        ["Imagination", 5]
      ],
      "elementalSchool": [],
      "bloodline": [["Dreamspun", 5]]
    },
    "level": 5,
    "school": "ill",
    "subschool": "phantasm",
    "types": "mind-affecting",
    "components": {
      "verbal": true,
      "somatic": true
    },
    "shortDescription": "<p>You, or a messenger you touch, send a message to others in the form of a <i>dream</i>. At the beginning of the spell, you must name the recipient or identify him or her by some title that leaves no doubt as to identity. The messenger then enters a trance, appears in the intended recipient's <i>dream</i>, and delivers the message. The message can be of any length, and the recipient remembers it perfectly upon waking. The communication is one-way. The recipient cannot ask questions or offer information, nor can the messenger gain any information by observing the <i>dream</i>s of the recipient.</p><p>Once the message is delivered, the messenger's mind returns instantly to its body. The duration of the spell is the time required for the messenger to enter the recipient's <i>dream</i> and deliver the message.</p><p>If the recipient is awake when the spell begins, the messenger can choose to wake up (ending the spell) or remain in the trance.</p><p>The messenger can remain in the trance until the recipient goes to sleep, then enter the recipient's <i>dream</i> and deliver the message as normal. A messenger that is disturbed during the trance comes awake, ending the spell.</p><p>Creatures who don't sleep or don't <i>dream</i> cannot be contacted by this spell.</p><p>The messenger is unaware of its own surroundings or of the activities around it while in the trance. It is defenseless both physically and mentally (always failing any saving throw) while in the trance.</p>"
  }
}
