{
  "_id": "aij2sbjiqzhfmnod",
  "name": "Numerological Evocation",
  "type": "spell",
  "img": "systems/pf1/icons/misc/magic-swirl.png",
  "sort": 0,
  "flags": {},
  "system": {
    "tags": [],
    "actions": [
      {
        "_id": "7a28vvx5lb750ovp",
        "name": "Use",
        "img": "systems/pf1/icons/misc/magic-swirl.png",
        "description": "",
        "tag": "",
        "activation": {
          "cost": 1,
          "type": "standard"
        },
        "unchainedAction": {
          "activation": {
            "cost": 2,
            "type": "action"
          }
        },
        "duration": {
          "value": "instantaneous",
          "units": ""
        },
        "target": {
          "value": "see text"
        },
        "range": {
          "value": null,
          "units": "",
          "maxIncrements": 1,
          "minValue": null,
          "minUnits": ""
        },
        "uses": {
          "autoDeductChargesCost": "",
          "self": {
            "value": 0,
            "maxFormula": "",
            "per": null
          },
          "per": "",
          "value": 0,
          "maxFormula": ""
        },
        "measureTemplate": {
          "type": "",
          "size": "0",
          "overrideColor": false,
          "customColor": "",
          "overrideTexture": false,
          "customTexture": ""
        },
        "attackName": "",
        "actionType": "spellsave",
        "attackBonus": "",
        "critConfirmBonus": "",
        "damage": {
          "parts": [],
          "critParts": [],
          "nonCritParts": []
        },
        "attackParts": [],
        "formulaicAttacks": {
          "count": {
            "formula": ""
          },
          "bonus": {
            "formula": ""
          },
          "label": null
        },
        "formula": "",
        "ability": {
          "attack": "",
          "damage": "",
          "damageMult": 1,
          "critRange": 20,
          "critMult": 2
        },
        "save": {
          "dc": "0",
          "type": "ref",
          "description": "Reflex half"
        },
        "effectNotes": [],
        "attackNotes": [],
        "soundEffect": "",
        "powerAttack": {
          "multiplier": "",
          "damageBonus": 2,
          "critMultiplier": 1
        },
        "naturalAttack": {
          "primaryAttack": true,
          "secondary": {
            "attackBonus": "-5",
            "damageMult": 0.5
          }
        },
        "nonlethal": false,
        "usesAmmo": false,
        "spellEffect": "",
        "spellArea": "",
        "conditionals": [],
        "enh": {
          "value": null
        }
      }
    ],
    "uses": {
      "per": ""
    },
    "attackNotes": [],
    "effectNotes": [],
    "links": {
      "children": []
    },
    "scriptCalls": [],
    "learnedAt": {
      "class": [
        ["sorcerer/wizard", 3],
        ["witch", 4],
        ["magus", 3]
      ],
      "domain": [],
      "subDomain": [],
      "elementalSchool": [],
      "bloodline": []
    },
    "level": 3,
    "school": "evo",
    "components": {
      "verbal": true,
      "somatic": true
    },
    "shortDescription": "<p>You can use the Path of Numbers to calculate the latent magical energies all around you and fire customized rays of elemental energy that damage nearby targets. Roll 1d6 per 2 caster levels you possess. This is your dice pool. You will use each die in the pool exactly once to customize <i>numerological evocation</i>. Choose a number of dice in the pool, and match their results to the values in the first column of the Eight Basic Energies table to determine the types of energy damage the spell deals. You can allocate any number of dice in this manner, provided you still have enough dice remaining for the subsequent steps.</p><p>Next, allocate one of the dice to represent the total number of target creatures you can affect, including the initial target. No matter how many creatures you are eligible to affect, no two affected creatures can be more than 15 feet apart. Next, allocate any number of the dice to represent the range of <i>numerological resistance</i>. The range of the spell is 10 x the sum of the allocated dice. Finally, add up the results of the dice remaining in the pool. This is the amount of damage that <i>numerological evocation</i> deals to the first creature hit. A successful Reflex save halves this damage. Secondary targets take 50% of the damage dealt to the first creature hit (rounded up), and successful Reflex saves negate this damage.</p>"
  }
}
