{
  "name": "Pinecone Bomb",
  "type": "spell",
  "img": "icons/magic/acid/projectile-needles-salvo-green.webp",
  "system": {
    "tags": [],
    "actions": [
      {
        "_id": "VsN109AYcQMf6KkU",
        "name": "Use",
        "img": "icons/magic/acid/projectile-needles-salvo-green.webp",
        "description": "",
        "tag": "",
        "activation": {
          "cost": 1,
          "type": "standard"
        },
        "unchainedAction": {
          "activation": {
            "cost": 2,
            "type": "action"
          }
        },
        "duration": {
          "value": "instantaneous",
          "units": ""
        },
        "target": {
          "value": ""
        },
        "range": {
          "value": null,
          "units": "close",
          "maxIncrements": 1,
          "minValue": null,
          "minUnits": ""
        },
        "uses": {
          "autoDeductChargesCost": "",
          "self": {
            "value": 0,
            "maxFormula": "",
            "per": ""
          }
        },
        "measureTemplate": {
          "type": "circle",
          "size": "10",
          "overrideColor": false,
          "customColor": "",
          "overrideTexture": false,
          "customTexture": ""
        },
        "attackName": "",
        "actionType": "spellsave",
        "attackBonus": "",
        "critConfirmBonus": "",
        "damage": {
          "critParts": [],
          "nonCritParts": [],
          "parts": [
            [
              "min(5, (floor(@cl / 2)))d6",
              {
                "values": ["piercing"],
                "custom": ""
              }
            ]
          ]
        },
        "attackParts": [],
        "formulaicAttacks": {
          "count": {
            "formula": ""
          },
          "bonus": {
            "formula": ""
          },
          "label": ""
        },
        "formula": "",
        "ability": {
          "attack": "",
          "damage": "",
          "damageMult": 1,
          "critRange": 20,
          "critMult": 2
        },
        "save": {
          "dc": "",
          "type": "ref",
          "description": "Reflex half"
        },
        "effectNotes": [],
        "attackNotes": [],
        "soundEffect": "",
        "powerAttack": {
          "multiplier": null,
          "damageBonus": 2,
          "critMultiplier": 1
        },
        "naturalAttack": {
          "primaryAttack": true,
          "secondary": {
            "attackBonus": "-5",
            "damageMult": 0.5
          }
        },
        "nonlethal": false,
        "touch": false,
        "usesAmmo": false,
        "spellEffect": "",
        "spellArea": "10-ft.-radius spread",
        "conditionals": [],
        "enh": {
          "value": null
        }
      }
    ],
    "uses": {
      "autoDeductChargesCost": ""
    },
    "attackNotes": [],
    "effectNotes": [],
    "links": {
      "children": []
    },
    "scriptCalls": [],
    "learnedAt": {
      "class": [
        ["druid", 2],
        ["hunter", 2],
        ["ranger", 3],
        ["shaman", 2],
        ["witch", 2]
      ],
      "domain": [],
      "subDomain": [],
      "elementalSchool": [],
      "bloodline": []
    },
    "level": 2,
    "school": "evo",
    "components": {
      "verbal": true,
      "somatic": true,
      "material": true
    },
    "materials": {
      "value": "a pinecone"
    },
    "spellbook": "",
    "shortDescription": "<p>Created by Ghorus when he was working to create the ghorans, <em>pinecone bomb</em> infuses a small pinecone with power, causing it to detonate with explosive force when thrown. You throw the pinecone at a target or point within range and it detonates immediately upon landing, dealing 1d6 points of piercing damage per 2 caster levels you have (maximum 5d6) to each creature caught in the spread.</p>"
  },
  "flags": {},
  "sort": 0,
  "_id": "wRfDdRQGKnZm3nzg"
}
