{
  "_id": "y8yduo3jjtiixxr7",
  "name": "Rune Trace",
  "type": "spell",
  "img": "systems/pf1/icons/misc/magic-swirl.png",
  "sort": 0,
  "flags": {},
  "system": {
    "tags": [],
    "actions": [
      {
        "_id": "eyceex0n2rbwuths",
        "name": "Use",
        "img": "systems/pf1/icons/misc/magic-swirl.png",
        "description": "",
        "tag": "",
        "activation": {
          "cost": 1,
          "type": "minute"
        },
        "unchainedAction": {
          "activation": {
            "cost": 1,
            "type": "minute"
          }
        },
        "duration": {
          "value": "instantaneous",
          "units": ""
        },
        "target": {
          "value": "rune touched"
        },
        "range": {
          "value": null,
          "units": "touch",
          "maxIncrements": 1,
          "minValue": null,
          "minUnits": ""
        },
        "uses": {
          "autoDeductChargesCost": "",
          "self": {
            "value": 0,
            "maxFormula": "",
            "per": null
          },
          "per": "",
          "value": 0,
          "maxFormula": ""
        },
        "measureTemplate": {
          "type": "",
          "size": "0",
          "overrideColor": false,
          "customColor": "",
          "overrideTexture": false,
          "customTexture": ""
        },
        "attackName": "",
        "actionType": "",
        "attackBonus": "",
        "critConfirmBonus": "",
        "damage": {
          "parts": [],
          "critParts": [],
          "nonCritParts": []
        },
        "attackParts": [],
        "formulaicAttacks": {
          "count": {
            "formula": ""
          },
          "bonus": {
            "formula": ""
          },
          "label": null
        },
        "formula": "",
        "ability": {
          "attack": "",
          "damage": "",
          "damageMult": 1,
          "critRange": 20,
          "critMult": 2
        },
        "save": {
          "dc": "0",
          "type": "",
          "description": ""
        },
        "effectNotes": [],
        "attackNotes": [],
        "soundEffect": "",
        "powerAttack": {
          "multiplier": "",
          "damageBonus": 2,
          "critMultiplier": 1
        },
        "naturalAttack": {
          "primaryAttack": true,
          "secondary": {
            "attackBonus": "-5",
            "damageMult": 0.5
          }
        },
        "nonlethal": false,
        "usesAmmo": false,
        "spellEffect": "",
        "spellArea": "",
        "conditionals": [],
        "enh": {
          "value": null
        }
      }
    ],
    "uses": {
      "per": ""
    },
    "attackNotes": [],
    "effectNotes": [],
    "links": {
      "children": []
    },
    "scriptCalls": [],
    "learnedAt": {
      "class": [
        ["sorcerer/wizard", 1],
        ["cleric/oracle", 1],
        ["bard", 1],
        ["psychic", 1],
        ["occultist", 1]
      ],
      "domain": [],
      "subDomain": [],
      "elementalSchool": [],
      "bloodline": []
    },
    "school": "div",
    "components": {
      "verbal": true,
      "somatic": true,
      "material": true
    },
    "materials": {
      "value": "pinch of powdered gemstones worth 25 gp",
      "gpValue": 25
    },
    "spellbook": "",
    "preparation": {
      "spontaneousPrepared": false
    },
    "sr": false,
    "shortDescription": "<p>By immersing yourself fully in the intricacies of a carved or written rune of any kind, you can divine the elements of that rune's nature. While casting <i>rune trace</i>, you must run your fingers (which cannot be gloved at the time) over the rune, glyph, symbol, or other marking you want to examine (hereafter referred to as the \"rune\"). This does not trigger any effects that touching the rune would normally trigger. Runes, symbols, and other effects that trigger when read still trigger as normal if you do so- but note that this spell does not require you to view and read the rune that you're targeting. When the spell's casting time ends, you instantly receive flashes of insight regarding the rune's nature, history, and purpose, including the following information. <br><b>Age</b>: You learn if the rune was placed within the last 24 hours, within the last month, within the last year, within the last decade, within the last century, or prior to the last century.  <br><b>Insight</b>: If you have cast <i>rune trace</i> on a magical rune, you gain a +5 bonus on all skill rolls and checks to dispel, disable, or otherwise tamper with the rune.  <br><b>Language</b>: You learn what language the character of the rune is taken from, or in the case of a rune that has no language, you learn that it is a unique image.  <b>Purpose</b>: You learn the general purpose of the rune (such as whether it's a decoration, information, a magical defense, or a warning).</p>"
  }
}
