{
  "_id": "n4e35m6qu9nmkhgm",
  "name": "Storm of Vengeance",
  "type": "spell",
  "img": "systems/pf1/icons/misc/magic-swirl.png",
  "sort": 0,
  "flags": {},
  "system": {
    "tags": [],
    "actions": [
      {
        "_id": "v65o35j3ocfcumst",
        "name": "Use",
        "img": "systems/pf1/icons/misc/magic-swirl.png",
        "description": "",
        "tag": "",
        "activation": {
          "cost": 1,
          "type": "round"
        },
        "unchainedAction": {
          "activation": {
            "cost": 3,
            "type": "action"
          }
        },
        "duration": {
          "value": "concentration (maximum 10 rounds) (D)",
          "units": ""
        },
        "target": {
          "value": ""
        },
        "range": {
          "value": null,
          "units": "long",
          "maxIncrements": 1,
          "minValue": null,
          "minUnits": ""
        },
        "uses": {
          "autoDeductChargesCost": "",
          "self": {
            "value": 0,
            "maxFormula": "",
            "per": null
          },
          "per": "",
          "value": 0,
          "maxFormula": ""
        },
        "measureTemplate": {
          "type": "",
          "size": "0",
          "overrideColor": false,
          "customColor": "",
          "overrideTexture": false,
          "customTexture": ""
        },
        "attackName": "",
        "actionType": "spellsave",
        "attackBonus": "",
        "critConfirmBonus": "",
        "damage": {
          "parts": [],
          "critParts": [],
          "nonCritParts": []
        },
        "attackParts": [],
        "formulaicAttacks": {
          "count": {
            "formula": ""
          },
          "bonus": {
            "formula": ""
          },
          "label": null
        },
        "formula": "",
        "ability": {
          "attack": "",
          "damage": "",
          "damageMult": 1,
          "critRange": 20,
          "critMult": 2
        },
        "save": {
          "dc": "0",
          "type": "",
          "description": "see text"
        },
        "effectNotes": [],
        "attackNotes": [],
        "soundEffect": "",
        "powerAttack": {
          "multiplier": "",
          "damageBonus": 2,
          "critMultiplier": 1
        },
        "naturalAttack": {
          "primaryAttack": true,
          "secondary": {
            "attackBonus": "-5",
            "damageMult": 0.5
          }
        },
        "nonlethal": false,
        "usesAmmo": false,
        "spellEffect": "360-ft.-radius storm cloud",
        "spellArea": "",
        "conditionals": [],
        "enh": {
          "value": null
        }
      }
    ],
    "uses": {
      "per": ""
    },
    "attackNotes": [],
    "effectNotes": [],
    "links": {
      "children": []
    },
    "scriptCalls": [],
    "learnedAt": {
      "class": [
        ["cleric/oracle", 9],
        ["druid", 9],
        ["witch", 9],
        ["shaman", 9]
      ],
      "domain": [
        ["Nobility", 9],
        ["Weather", 9]
      ],
      "subDomain": [["Cloud", 9]],
      "elementalSchool": [],
      "bloodline": [["Stormborn", 9]]
    },
    "level": 9,
    "school": "con",
    "subschool": "summoning",
    "components": {
      "verbal": true,
      "somatic": true
    },
    "shortDescription": "<p>You create a huge black storm cloud in the air. Each creature under the cloud must succeed on a Fortitude save or be deafened for 1d4 x 10 minutes. Each round you continue to concentrate, the spell generates additional effects as noted below. Each effect occurs on your turn.</p><p><i>2nd Round</i>: Acid rains down in the area, dealing 1d6 points of acid damage (no save).</p><p><i>3rd Round</i>: You call six bolts of lightning down from the cloud.</p><p>You decide where the bolts strike. No two bolts may be directed at the same target. Each bolt deals 10d6 points of electricity damage. A creature struck can attempt a Reflex save for half damage.</p><p><i>4th Round</i>: Hailstones rain down in the area, dealing 5d6 points of bludgeoning damage (no save).</p><p><i>5th through 10th Rounds</i>: Violent rain and wind gusts reduce visibility. The rain obscures all sight, including darkvision, beyond 5 feet. A creature 5 feet away has concealment (attacks have a 20% miss chance). Creatures farther away have total concealment (50% miss chance, and the attacker cannot use sight to locate the target). Speed is reduced by three-quarters.</p><p>Ranged attacks within the area of the storm are impossible. Spells cast within the area are disrupted unless the caster succeeds on a Concentration check against a DC equal to the <i>storm of</i> vengeance's save DC + the level of the spell the caster is trying to cast.</p>"
  }
}
