{
  "_id": "JcaqlAawhf14q1lq",
  "name": "Alchemist",
  "type": "class",
  "img": "systems/pf1/icons/items/potions/grand-yellow.jpg",
  "sort": 0,
  "flags": {},
  "system": {
    "description": {
      "value": "<p>Whether secreted away in a smoky basement laboratory or gleefully experimenting in a well-respected school of magic, the alchemist is often regarded as being just as unstable, unpredictable, and dangerous as the concoctions he brews. While some creators of&nbsp;<em>alchemical items</em>&nbsp;content themselves with sedentary lives as merchants, providing&nbsp;<em>tindertwigs</em>&nbsp;and&nbsp;<em>smokesticks</em>, the true alchemist answers a deeper calling. Rather than cast magic like a spellcaster, the alchemist captures his own magic potential within liquids and extracts he creates, infusing his chemicals with virulent power to grant him impressive skill with poisons, explosives, and all manner of self-transformative magic.</p>\n<p><strong>Role</strong>: The alchemist’s reputation is not softened by his exuberance (some would say dangerous recklessness) in perfecting his magical extracts and potion-like creations, infusing these substances with magic siphoned from his aura and using his own body as experimental stock. Nor is it mollified by the alchemist’s almost gleeful passion for building explosive bombs and discovering strange new poisons and methods for their use. These traits, while making him a liability and risk for most civilized organizations and institutions of higher learning, seem to fit quite well with most adventuring groups.</p>\n<p><strong>Alignment</strong>: Any.</p>\n<p><strong>Hit Die</strong>: d8.</p>\n<p><strong>Starting Wealth</strong>: 3d6 × 10 gp (average 105gp.) In addition, each character begins play with an outfit worth 10 gp or less.</p>\n<h2><span id=\"Class_Skills\">Class Skills</span></h2>\n<p>The alchemist’s class skills are&nbsp;<em>Appraise</em>&nbsp;(<em>Int</em>),&nbsp;<em>Craft</em>&nbsp;(any) (<em>Int</em>),&nbsp;<em>Disable Device</em>&nbsp;(<em>Dex</em>),&nbsp;<em>Fly</em>&nbsp;(<em>Dex</em>),&nbsp;<em>Heal</em>&nbsp;(<em>Wis</em>),&nbsp;<em>Knowledge</em>&nbsp;(arcana) (<em>Int</em>),&nbsp;<em>Knowledge</em>&nbsp;(nature) (<em>Int</em>),&nbsp;<em>Perception</em>&nbsp;(<em>Wis</em>),&nbsp;<em>Profession</em>&nbsp;(<em>Wis</em>),&nbsp;<em>Sleight of Hand</em>&nbsp;(<em>Dex</em>),&nbsp;<em>Spellcraft</em>&nbsp;(<em>Int</em>),&nbsp;<em>Survival</em>&nbsp;(<em>Wis</em>),&nbsp;<em>Use Magic Device</em>&nbsp;(<em>Cha</em>).</p>\n<p><strong>Skill Ranks per Level</strong>: 4 +&nbsp;<em>Int</em> modifier.</p>"
    },
    "casting": {
      "type": "prepared",
      "progression": "med",
      "ability": "int",
      "spells": "alchemy",
      "cantrips": false
    },
    "tags": [],
    "changes": [],
    "links": {
      "children": [],
      "classAssociations": [
        {
          "id": "pf1.class-abilities.7GNdI4zKfTcxNCk4",
          "dataType": "compendium",
          "name": "Alchemy",
          "img": "systems/pf1/icons/items/potions/magic-yellow.jpg",
          "level": 1,
          "_index": 0
        },
        {
          "id": "pf1.class-abilities.7gHiZBNHjwefbBLI",
          "dataType": "compendium",
          "name": "Bomb",
          "img": "systems/pf1/icons/items/inventory/bomb.jpg",
          "level": 1,
          "_index": 1
        },
        {
          "id": "pf1.class-abilities.afQ1oDc64797Cyq8",
          "dataType": "compendium",
          "name": "Brew Potion",
          "img": "systems/pf1/icons/items/potions/minor-red.jpg",
          "level": 1,
          "_index": 2
        },
        {
          "id": "pf1.class-abilities.zrTVb83VhkFnEv6G",
          "dataType": "compendium",
          "name": "Mutagen",
          "img": "systems/pf1/icons/items/potions/unique-7.jpg",
          "level": 1,
          "_index": 3
        },
        {
          "id": "pf1.class-abilities.jlvZK3xsfsDC358a",
          "dataType": "compendium",
          "name": "Throw Anything",
          "img": "systems/pf1/icons/items/weapons/wrist-launcher.PNG",
          "level": 1,
          "_index": 4
        },
        {
          "id": "pf1.class-abilities.Xcim6WFtAtxJxnmA",
          "dataType": "compendium",
          "name": "Discovery",
          "img": "systems/pf1/icons/skills/light_02.jpg",
          "level": 2,
          "_index": 5
        },
        {
          "id": "pf1.class-abilities.2qcz39w9O2Qlms0Q",
          "dataType": "compendium",
          "name": "Poison Resistance",
          "img": "systems/pf1/icons/skills/violet_16.jpg",
          "level": 2,
          "_index": 6
        },
        {
          "id": "pf1.class-abilities.kKaz5A6XbuxgVvhO",
          "dataType": "compendium",
          "name": "Poison Use",
          "img": "systems/pf1/icons/skills/violet_24.jpg",
          "level": 2,
          "_index": 7
        },
        {
          "id": "pf1.class-abilities.WIoNDjnbzdHBkLJr",
          "dataType": "compendium",
          "name": "Swift Alchemy",
          "img": "systems/pf1/icons/skills/violet_25.jpg",
          "level": 3,
          "_index": 8
        },
        {
          "id": "pf1.class-abilities.FXjdFZlT0xiDr034",
          "dataType": "compendium",
          "name": "Swift Poisoning",
          "img": "systems/pf1/icons/skills/violet_27.jpg",
          "level": 6,
          "_index": 9
        },
        {
          "id": "pf1.class-abilities.TeQgG1uEaWsMXBXX",
          "dataType": "compendium",
          "name": "Persistent Mutagen",
          "img": "systems/pf1/icons/skills/affliction_24.jpg",
          "level": 14,
          "_index": 10
        },
        {
          "id": "pf1.class-abilities.G7xqb0Ka8Bm9XAZz",
          "dataType": "compendium",
          "name": "Instant Alchemy",
          "img": "systems/pf1/icons/skills/violet_04.jpg",
          "level": 18,
          "_index": 11
        },
        {
          "id": "pf1.class-abilities.1s0MIxdtmMD2403h",
          "dataType": "compendium",
          "name": "Grand Discovery",
          "img": "systems/pf1/icons/skills/violet_08.jpg",
          "level": 20,
          "_index": 12
        }
      ]
    },
    "tag": "alchemist",
    "useCustomTag": true,
    "armorProf": {
      "value": ["lgt"]
    },
    "weaponProf": {
      "value": ["sim"],
      "custom": "Bombs"
    },
    "languages": {
      "value": []
    },
    "scriptCalls": [],
    "bab": "med",
    "skillsPerLevel": 4,
    "savingThrows": {
      "fort": {
        "value": "high"
      },
      "ref": {
        "value": "high"
      }
    },
    "classSkills": {
      "apr": true,
      "acr": false,
      "art": true,
      "blf": false,
      "clm": false,
      "crf": true,
      "dip": false,
      "dev": true,
      "dis": false,
      "esc": false,
      "fly": true,
      "han": false,
      "hea": true,
      "int": false,
      "kar": true,
      "kdu": false,
      "ken": false,
      "kge": false,
      "khi": false,
      "klo": false,
      "kna": true,
      "kno": false,
      "kpl": false,
      "kre": false,
      "lin": false,
      "lor": true,
      "per": true,
      "prf": false,
      "pro": true,
      "rid": false,
      "sen": false,
      "slt": true,
      "spl": true,
      "ste": false,
      "sur": true,
      "swm": false,
      "umd": true
    }
  }
}
