{
  "_id": "GK6rAenFfgJNNJCX",
  "name": "Arcanist",
  "type": "class",
  "img": "systems/pf1/icons/spells/runes-blue-2.jpg",
  "sort": 0,
  "flags": {},
  "system": {
    "description": {
      "value": "<p>Some spellcasters seek the secrets of magic, pursuing the power to make the impossible possible. Others are born with magic in their blood, commanding unbelievable forces as effortlessly as they breathe. Yet still others seek to meld the science of arcane scholars with the natural might of innate casters. These arcanists seek to discover the mysterious laws of magic and through will and expertise bend those forces to their whims. Arcanists are the shapers and tinkers of the arcane world, and no magic can resist their control.</p>\n<p><strong>Role</strong>: Arcanists are scholars of all things magical. They constantly seek out new forms of magic to discover how they work, and in many cases, to collect the energy of such magic for their own uses. Many arcanists are seen as reckless, more concerned with the potency of magic than the ramifications of unleashing such power.</p>\n<p><strong>Alignment</strong>: Any.</p>\n<p><strong>Hit Die</strong>: d6.</p>\n<p><strong>Parent Classes</strong>:&nbsp;<em>Sorcerer</em>&nbsp;and&nbsp;<em>wizard</em>.</p>\n<p><strong>Starting Wealth</strong>: 2d6 × 10 gp (average 70 gp.) In addition, each character begins play with an outfit worth 10 gp or less.</p>\n<h2><span id=\"Class_Skills\">Class Skills</span></h2>\n<p>The arcanist’s class skills are&nbsp;<em>Appraise</em>&nbsp;(<em>Int</em>),&nbsp;<em>Craft</em>&nbsp;(<em>Int</em>),&nbsp;<em>Fly</em>&nbsp;(<em>Dex</em>),&nbsp;<em>Knowledge</em>&nbsp;(all) (<em>Int</em>),&nbsp;<em>Linguistics</em>&nbsp;(<em>Int</em>),&nbsp;<em>Profession</em>&nbsp;(<em>Wis</em>),&nbsp;<em>Spellcraft</em>&nbsp;(<em>Int</em>), and&nbsp;<em>Use Magic Device</em>&nbsp;(<em>Cha</em>).</p>\n<p><strong>Skill Ranks per Level</strong>: 2 +&nbsp;<em>Int</em> modifier.</p>"
    },
    "casting": {
      "type": "hybrid",
      "progression": "high",
      "ability": "int",
      "spells": "arcane"
    },
    "tags": [],
    "changes": [],
    "links": {
      "children": [],
      "classAssociations": [
        {
          "id": "pf1.class-abilities.CtDtLshBC8pc64JV",
          "dataType": "compendium",
          "name": "Arcane Reservoir",
          "img": "systems/pf1/icons/spells/runes-orange-3.jpg",
          "level": 1,
          "_index": 0
        },
        {
          "id": "pf1.class-abilities.A1QrvmpPlh7SuixM",
          "dataType": "compendium",
          "name": "Arcanist Exploits",
          "img": "systems/pf1/icons/spells/fire-arrows-1.jpg",
          "level": 1,
          "_index": 1
        },
        {
          "id": "pf1.class-abilities.jkigrVeg3TUKg0Gy",
          "dataType": "compendium",
          "name": "Consume Spells",
          "img": "systems/pf1/icons/spells/wind-grasp-air-3.jpg",
          "level": 1,
          "_index": 2
        },
        {
          "id": "pf1.class-abilities.US5ZPnvMTejXFcBZ",
          "dataType": "compendium",
          "name": "Greater Exploits",
          "img": "systems/pf1/icons/spells/fire-arrows-3.jpg",
          "level": 11,
          "_index": 3
        },
        {
          "id": "pf1.class-abilities.KUwXUOcHG054iBHQ",
          "dataType": "compendium",
          "name": "Magical Supremacy",
          "img": "systems/pf1/icons/spells/runes-royal-3.jpg",
          "level": 20,
          "_index": 4
        }
      ]
    },
    "tag": "arcanist",
    "useCustomTag": true,
    "armorProf": {
      "value": []
    },
    "weaponProf": {
      "value": ["sim"]
    },
    "languages": {
      "value": []
    },
    "scriptCalls": [],
    "hd": 6,
    "hp": 6,
    "skillsPerLevel": 2,
    "savingThrows": {
      "will": {
        "value": "high"
      }
    },
    "classSkills": {
      "apr": true,
      "acr": false,
      "art": true,
      "blf": false,
      "clm": false,
      "crf": true,
      "dip": false,
      "dev": false,
      "dis": false,
      "esc": false,
      "fly": true,
      "han": false,
      "hea": false,
      "int": false,
      "kar": true,
      "kdu": true,
      "ken": true,
      "kge": true,
      "khi": true,
      "klo": true,
      "kna": true,
      "kno": true,
      "kpl": true,
      "kre": true,
      "lin": true,
      "lor": true,
      "per": false,
      "prf": false,
      "pro": true,
      "rid": false,
      "sen": false,
      "slt": false,
      "spl": true,
      "ste": false,
      "sur": false,
      "swm": false,
      "umd": true
    }
  }
}
